%!PS-Adobe-3.0 EPSF-3.0
%%Title: ip_variation_2015_5_months.eps
%%Creator: matplotlib version 3.2.1, http://matplotlib.org/
%%CreationDate: Sat Feb  6 01:46:02 2021
%%Orientation: portrait
%%BoundingBox: 89.99999999999997 215.99999999999997 522.0 576.0
%%EndComments
%%BeginProlog
/mpldict 8 dict def
mpldict begin
/m { moveto } bind def
/l { lineto } bind def
/r { rlineto } bind def
/c { curveto } bind def
/cl { closepath } bind def
/box {
m
1 index 0 r
0 exch r
neg 0 r
cl
} bind def
/clipbox {
box
clip
newpath
} bind def
%!PS-Adobe-3.0 Resource-Font
%%Title: DejaVu Sans
%%Copyright: Copyright (c) 2003 by Bitstream, Inc. All Rights Reserved. Copyright (c) 2006 by Tavmjong Bah. All Rights Reserved. DejaVu changes are in public domain 
%%Creator: Converted from TrueType to type 3 by PPR
25 dict begin
/_d{bind def}bind def
/_m{moveto}_d
/_l{lineto}_d
/_cl{closepath eofill}_d
/_c{curveto}_d
/_sc{7 -1 roll{setcachedevice}{pop pop pop pop pop pop}ifelse}_d
/_e{exec}_d
/FontName /DejaVuSans def
/PaintType 0 def
/FontMatrix[.001 0 0 .001 0 0]def
/FontBBox[-1021 -463 1793 1232]def
/FontType 3 def
/Encoding [ /space /comma /period /slash /zero /one /two /four /five /six /eight /nine /C /F /I /O /T /U /a /b /c /e /f /h /i /l /m /n /o /p /r /s /t /u /v /endash /emdash ] def
/FontInfo 10 dict dup begin
/FamilyName (DejaVu Sans) def
/FullName (DejaVu Sans) def
/Notice (Copyright (c) 2003 by Bitstream, Inc. All Rights Reserved. Copyright (c) 2006 by Tavmjong Bah. All Rights Reserved. DejaVu changes are in public domain ) def
/Weight (Book) def
/Version (Version 2.35) def
/ItalicAngle 0.0 def
/isFixedPitch false def
/UnderlinePosition -130 def
/UnderlineThickness 90 def
end readonly def
/CharStrings 38 dict dup begin
/.notdef 0 def
/space{318 0 0 0 0 0 _sc
}_d
/comma{318 0 77 -115 220 124 _sc
117 124 _m
220 124 _l
220 40 _l
140 -115 _l
77 -115 _l
117 40 _l
117 124 _l
_cl}_d
/period{318 0 107 0 210 124 _sc
107 124 _m
210 124 _l
210 0 _l
107 0 _l
107 124 _l
_cl}_d
/slash{337 0 0 -92 337 729 _sc
254 729 _m
337 729 _l
83 -92 _l
0 -92 _l
254 729 _l
_cl}_d
/zero{636 0 66 -13 570 742 _sc
318 664 _m
267 664 229 639 203 589 _c
177 539 165 464 165 364 _c
165 264 177 189 203 139 _c
229 89 267 64 318 64 _c
369 64 407 89 433 139 _c
458 189 471 264 471 364 _c
471 464 458 539 433 589 _c
407 639 369 664 318 664 _c
318 742 _m
399 742 461 709 505 645 _c
548 580 570 486 570 364 _c
570 241 548 147 505 83 _c
461 19 399 -13 318 -13 _c
236 -13 173 19 130 83 _c
87 147 66 241 66 364 _c
66 486 87 580 130 645 _c
173 709 236 742 318 742 _c
_cl}_d
/one{636 0 110 0 544 729 _sc
124 83 _m
285 83 _l
285 639 _l
110 604 _l
110 694 _l
284 729 _l
383 729 _l
383 83 _l
544 83 _l
544 0 _l
124 0 _l
124 83 _l
_cl}_d
/two{{636 0 73 0 536 742 _sc
192 83 _m
536 83 _l
536 0 _l
73 0 _l
73 83 _l
110 121 161 173 226 239 _c
290 304 331 346 348 365 _c
380 400 402 430 414 455 _c
426 479 433 504 433 528 _c
433 566 419 598 392 622 _c
365 646 330 659 286 659 _c
255 659 222 653 188 643 _c
154 632 117 616 78 594 _c
78 694 _l
118 710 155 722 189 730 _c
223 738 255 742 284 742 _c
}_e{359 742 419 723 464 685 _c
509 647 532 597 532 534 _c
532 504 526 475 515 449 _c
504 422 484 390 454 354 _c
446 344 420 317 376 272 _c
332 227 271 164 192 83 _c
_cl}_e}_d
/four{636 0 49 0 580 729 _sc
378 643 _m
129 254 _l
378 254 _l
378 643 _l
352 729 _m
476 729 _l
476 254 _l
580 254 _l
580 172 _l
476 172 _l
476 0 _l
378 0 _l
378 172 _l
49 172 _l
49 267 _l
352 729 _l
_cl}_d
/five{{636 0 77 -13 549 729 _sc
108 729 _m
495 729 _l
495 646 _l
198 646 _l
198 467 _l
212 472 227 476 241 478 _c
255 480 270 482 284 482 _c
365 482 429 459 477 415 _c
525 370 549 310 549 234 _c
549 155 524 94 475 51 _c
426 8 357 -13 269 -13 _c
238 -13 207 -10 175 -6 _c
143 -1 111 6 77 17 _c
77 116 _l
106 100 136 88 168 80 _c
199 72 232 69 267 69 _c
}_e{323 69 368 83 401 113 _c
433 143 450 183 450 234 _c
450 284 433 324 401 354 _c
368 384 323 399 267 399 _c
241 399 214 396 188 390 _c
162 384 135 375 108 363 _c
108 729 _l
_cl}_e}_d
/six{{636 0 70 -13 573 742 _sc
330 404 _m
286 404 251 388 225 358 _c
199 328 186 286 186 234 _c
186 181 199 139 225 109 _c
251 79 286 64 330 64 _c
374 64 409 79 435 109 _c
461 139 474 181 474 234 _c
474 286 461 328 435 358 _c
409 388 374 404 330 404 _c
526 713 _m
526 623 _l
501 635 476 644 451 650 _c
425 656 400 659 376 659 _c
310 659 260 637 226 593 _c
}_e{192 549 172 482 168 394 _c
187 422 211 444 240 459 _c
269 474 301 482 336 482 _c
409 482 467 459 509 415 _c
551 371 573 310 573 234 _c
573 159 550 99 506 54 _c
462 9 403 -13 330 -13 _c
246 -13 181 19 137 83 _c
92 147 70 241 70 364 _c
70 479 97 571 152 639 _c
206 707 280 742 372 742 _c
396 742 421 739 447 735 _c
472 730 498 723 526 713 _c
_cl}_e}_d
/eight{{636 0 68 -13 568 742 _sc
318 346 _m
271 346 234 333 207 308 _c
180 283 167 249 167 205 _c
167 161 180 126 207 101 _c
234 76 271 64 318 64 _c
364 64 401 76 428 102 _c
455 127 469 161 469 205 _c
469 249 455 283 429 308 _c
402 333 365 346 318 346 _c
219 388 _m
177 398 144 418 120 447 _c
96 476 85 511 85 553 _c
85 611 105 657 147 691 _c
188 725 245 742 318 742 _c
}_e{390 742 447 725 489 691 _c
530 657 551 611 551 553 _c
551 511 539 476 515 447 _c
491 418 459 398 417 388 _c
464 377 501 355 528 323 _c
554 291 568 251 568 205 _c
568 134 546 80 503 43 _c
459 5 398 -13 318 -13 _c
237 -13 175 5 132 43 _c
89 80 68 134 68 205 _c
68 251 81 291 108 323 _c
134 355 171 377 219 388 _c
183 544 _m
183 506 194 476 218 455 _c
}_e{242 434 275 424 318 424 _c
360 424 393 434 417 455 _c
441 476 453 506 453 544 _c
453 582 441 611 417 632 _c
393 653 360 664 318 664 _c
275 664 242 653 218 632 _c
194 611 183 582 183 544 _c
_cl}_e}_d
/nine{{636 0 63 -13 566 742 _sc
110 15 _m
110 105 _l
134 93 159 84 185 78 _c
210 72 235 69 260 69 _c
324 69 374 90 408 134 _c
442 178 462 244 468 334 _c
448 306 424 284 396 269 _c
367 254 335 247 300 247 _c
226 247 168 269 126 313 _c
84 357 63 417 63 494 _c
63 568 85 628 129 674 _c
173 719 232 742 306 742 _c
390 742 455 709 499 645 _c
543 580 566 486 566 364 _c
}_e{566 248 538 157 484 89 _c
429 21 356 -13 264 -13 _c
239 -13 214 -10 189 -6 _c
163 -2 137 5 110 15 _c
306 324 _m
350 324 385 339 411 369 _c
437 399 450 441 450 494 _c
450 546 437 588 411 618 _c
385 648 350 664 306 664 _c
262 664 227 648 201 618 _c
175 588 162 546 162 494 _c
162 441 175 399 201 369 _c
227 339 262 324 306 324 _c
_cl}_e}_d
/C{{698 0 56 -13 644 742 _sc
644 673 _m
644 569 _l
610 599 575 622 537 638 _c
499 653 460 661 418 661 _c
334 661 270 635 226 584 _c
182 533 160 460 160 364 _c
160 268 182 194 226 143 _c
270 92 334 67 418 67 _c
460 67 499 74 537 90 _c
575 105 610 128 644 159 _c
644 56 _l
609 32 572 15 534 4 _c
496 -7 455 -13 412 -13 _c
302 -13 215 20 151 87 _c
}_e{87 154 56 246 56 364 _c
56 481 87 573 151 641 _c
215 708 302 742 412 742 _c
456 742 497 736 535 725 _c
573 713 610 696 644 673 _c
_cl}_e}_d
/F{575 0 98 0 517 729 _sc
98 729 _m
517 729 _l
517 646 _l
197 646 _l
197 431 _l
486 431 _l
486 348 _l
197 348 _l
197 0 _l
98 0 _l
98 729 _l
_cl}_d
/I{295 0 98 0 197 729 _sc
98 729 _m
197 729 _l
197 0 _l
98 0 _l
98 729 _l
_cl}_d
/O{787 0 56 -13 731 742 _sc
394 662 _m
322 662 265 635 223 582 _c
181 528 160 456 160 364 _c
160 272 181 199 223 146 _c
265 92 322 66 394 66 _c
465 66 522 92 564 146 _c
606 199 627 272 627 364 _c
627 456 606 528 564 582 _c
522 635 465 662 394 662 _c
394 742 _m
496 742 577 707 639 639 _c
700 571 731 479 731 364 _c
731 248 700 157 639 89 _c
577 21 496 -13 394 -13 _c
291 -13 209 21 148 89 _c
86 157 56 248 56 364 _c
56 479 86 571 148 639 _c
209 707 291 742 394 742 _c
_cl}_d
/T{611 0 -2 0 614 729 _sc
-2 729 _m
614 729 _l
614 646 _l
355 646 _l
355 0 _l
256 0 _l
256 646 _l
-2 646 _l
-2 729 _l
_cl}_d
/U{732 0 87 -13 645 729 _sc
87 729 _m
186 729 _l
186 286 _l
186 208 200 151 228 117 _c
256 83 302 66 366 66 _c
429 66 475 83 503 117 _c
531 151 546 208 546 286 _c
546 729 _l
645 729 _l
645 274 _l
645 178 621 107 574 59 _c
527 11 458 -13 366 -13 _c
274 -13 204 11 157 59 _c
110 107 87 178 87 274 _c
87 729 _l
_cl}_d
/a{{613 0 60 -13 522 560 _sc
343 275 _m
270 275 220 266 192 250 _c
164 233 150 205 150 165 _c
150 133 160 107 181 89 _c
202 70 231 61 267 61 _c
317 61 357 78 387 114 _c
417 149 432 196 432 255 _c
432 275 _l
343 275 _l
522 312 _m
522 0 _l
432 0 _l
432 83 _l
411 49 385 25 355 10 _c
325 -5 287 -13 243 -13 _c
187 -13 142 2 109 33 _c
76 64 60 106 60 159 _c
}_e{60 220 80 266 122 298 _c
163 329 224 345 306 345 _c
432 345 _l
432 354 _l
432 395 418 427 391 450 _c
364 472 326 484 277 484 _c
245 484 215 480 185 472 _c
155 464 127 453 100 439 _c
100 522 _l
132 534 164 544 195 550 _c
226 556 256 560 286 560 _c
365 560 424 539 463 498 _c
502 457 522 395 522 312 _c
_cl}_e}_d
/b{{635 0 91 -13 580 760 _sc
487 273 _m
487 339 473 390 446 428 _c
418 466 381 485 334 485 _c
286 485 249 466 222 428 _c
194 390 181 339 181 273 _c
181 207 194 155 222 117 _c
249 79 286 61 334 61 _c
381 61 418 79 446 117 _c
473 155 487 207 487 273 _c
181 464 _m
199 496 223 520 252 536 _c
281 552 316 560 356 560 _c
422 560 476 533 518 481 _c
559 428 580 359 580 273 _c
}_e{580 187 559 117 518 65 _c
476 13 422 -13 356 -13 _c
316 -13 281 -5 252 10 _c
223 25 199 49 181 82 _c
181 0 _l
91 0 _l
91 760 _l
181 760 _l
181 464 _l
_cl}_e}_d
/c{{550 0 55 -13 488 560 _sc
488 526 _m
488 442 _l
462 456 437 466 411 473 _c
385 480 360 484 334 484 _c
276 484 230 465 198 428 _c
166 391 150 339 150 273 _c
150 206 166 154 198 117 _c
230 80 276 62 334 62 _c
360 62 385 65 411 72 _c
437 79 462 90 488 104 _c
488 21 _l
462 9 436 0 410 -5 _c
383 -10 354 -13 324 -13 _c
242 -13 176 12 128 64 _c
}_e{79 115 55 185 55 273 _c
55 362 79 432 128 483 _c
177 534 244 560 330 560 _c
358 560 385 557 411 551 _c
437 545 463 537 488 526 _c
_cl}_e}_d
/e{{615 0 55 -13 562 560 _sc
562 296 _m
562 252 _l
149 252 _l
153 190 171 142 205 110 _c
238 78 284 62 344 62 _c
378 62 412 66 444 74 _c
476 82 509 95 541 113 _c
541 28 _l
509 14 476 3 442 -3 _c
408 -9 373 -13 339 -13 _c
251 -13 182 12 131 62 _c
80 112 55 181 55 268 _c
55 357 79 428 127 481 _c
175 533 241 560 323 560 _c
397 560 455 536 498 489 _c
}_e{540 441 562 377 562 296 _c
472 322 _m
471 371 457 410 431 440 _c
404 469 368 484 324 484 _c
274 484 234 469 204 441 _c
174 413 156 373 152 322 _c
472 322 _l
_cl}_e}_d
/f{352 0 23 0 371 760 _sc
371 760 _m
371 685 _l
285 685 _l
253 685 230 678 218 665 _c
205 652 199 629 199 595 _c
199 547 _l
347 547 _l
347 477 _l
199 477 _l
199 0 _l
109 0 _l
109 477 _l
23 477 _l
23 547 _l
109 547 _l
109 585 _l
109 645 123 690 151 718 _c
179 746 224 760 286 760 _c
371 760 _l
_cl}_d
/h{634 0 91 0 549 760 _sc
549 330 _m
549 0 _l
459 0 _l
459 327 _l
459 379 448 417 428 443 _c
408 469 378 482 338 482 _c
289 482 251 466 223 435 _c
195 404 181 362 181 309 _c
181 0 _l
91 0 _l
91 760 _l
181 760 _l
181 462 _l
202 494 227 519 257 535 _c
286 551 320 560 358 560 _c
420 560 468 540 500 501 _c
532 462 549 405 549 330 _c
_cl}_d
/i{278 0 94 0 184 760 _sc
94 547 _m
184 547 _l
184 0 _l
94 0 _l
94 547 _l
94 760 _m
184 760 _l
184 646 _l
94 646 _l
94 760 _l
_cl}_d
/l{278 0 94 0 184 760 _sc
94 760 _m
184 760 _l
184 0 _l
94 0 _l
94 760 _l
_cl}_d
/m{{974 0 91 0 889 560 _sc
520 442 _m
542 482 569 511 600 531 _c
631 550 668 560 711 560 _c
767 560 811 540 842 500 _c
873 460 889 403 889 330 _c
889 0 _l
799 0 _l
799 327 _l
799 379 789 418 771 444 _c
752 469 724 482 686 482 _c
639 482 602 466 575 435 _c
548 404 535 362 535 309 _c
535 0 _l
445 0 _l
445 327 _l
445 379 435 418 417 444 _c
398 469 369 482 331 482 _c
}_e{285 482 248 466 221 435 _c
194 404 181 362 181 309 _c
181 0 _l
91 0 _l
91 547 _l
181 547 _l
181 462 _l
201 495 226 520 255 536 _c
283 552 317 560 357 560 _c
397 560 430 550 458 530 _c
486 510 506 480 520 442 _c
_cl}_e}_d
/n{634 0 91 0 549 560 _sc
549 330 _m
549 0 _l
459 0 _l
459 327 _l
459 379 448 417 428 443 _c
408 469 378 482 338 482 _c
289 482 251 466 223 435 _c
195 404 181 362 181 309 _c
181 0 _l
91 0 _l
91 547 _l
181 547 _l
181 462 _l
202 494 227 519 257 535 _c
286 551 320 560 358 560 _c
420 560 468 540 500 501 _c
532 462 549 405 549 330 _c
_cl}_d
/o{612 0 55 -13 557 560 _sc
306 484 _m
258 484 220 465 192 427 _c
164 389 150 338 150 273 _c
150 207 163 156 191 118 _c
219 80 257 62 306 62 _c
354 62 392 80 420 118 _c
448 156 462 207 462 273 _c
462 337 448 389 420 427 _c
392 465 354 484 306 484 _c
306 560 _m
384 560 445 534 490 484 _c
534 433 557 363 557 273 _c
557 183 534 113 490 63 _c
445 12 384 -13 306 -13 _c
227 -13 165 12 121 63 _c
77 113 55 183 55 273 _c
55 363 77 433 121 484 _c
165 534 227 560 306 560 _c
_cl}_d
/p{{635 0 91 -207 580 560 _sc
181 82 _m
181 -207 _l
91 -207 _l
91 547 _l
181 547 _l
181 464 _l
199 496 223 520 252 536 _c
281 552 316 560 356 560 _c
422 560 476 533 518 481 _c
559 428 580 359 580 273 _c
580 187 559 117 518 65 _c
476 13 422 -13 356 -13 _c
316 -13 281 -5 252 10 _c
223 25 199 49 181 82 _c
487 273 _m
487 339 473 390 446 428 _c
418 466 381 485 334 485 _c
}_e{286 485 249 466 222 428 _c
194 390 181 339 181 273 _c
181 207 194 155 222 117 _c
249 79 286 61 334 61 _c
381 61 418 79 446 117 _c
473 155 487 207 487 273 _c
_cl}_e}_d
/r{411 0 91 0 411 560 _sc
411 463 _m
401 469 390 473 378 476 _c
366 478 353 480 339 480 _c
288 480 249 463 222 430 _c
194 397 181 350 181 288 _c
181 0 _l
91 0 _l
91 547 _l
181 547 _l
181 462 _l
199 495 224 520 254 536 _c
284 552 321 560 365 560 _c
371 560 378 559 386 559 _c
393 558 401 557 411 555 _c
411 463 _l
_cl}_d
/s{{521 0 54 -13 472 560 _sc
443 531 _m
443 446 _l
417 458 391 468 364 475 _c
336 481 308 485 279 485 _c
234 485 200 478 178 464 _c
156 450 145 430 145 403 _c
145 382 153 366 169 354 _c
185 342 217 330 265 320 _c
296 313 _l
360 299 405 279 432 255 _c
458 230 472 195 472 151 _c
472 100 452 60 412 31 _c
372 1 316 -13 246 -13 _c
216 -13 186 -10 154 -5 _c
}_e{122 0 89 8 54 20 _c
54 113 _l
87 95 120 82 152 74 _c
184 65 216 61 248 61 _c
290 61 323 68 346 82 _c
368 96 380 117 380 144 _c
380 168 371 187 355 200 _c
339 213 303 226 247 238 _c
216 245 _l
160 257 119 275 95 299 _c
70 323 58 356 58 399 _c
58 450 76 490 112 518 _c
148 546 200 560 268 560 _c
301 560 332 557 362 552 _c
391 547 418 540 443 531 _c
}_e{_cl}_e}_d
/t{392 0 27 0 368 702 _sc
183 702 _m
183 547 _l
368 547 _l
368 477 _l
183 477 _l
183 180 _l
183 135 189 106 201 94 _c
213 81 238 75 276 75 _c
368 75 _l
368 0 _l
276 0 _l
206 0 158 13 132 39 _c
106 65 93 112 93 180 _c
93 477 _l
27 477 _l
27 547 _l
93 547 _l
93 702 _l
183 702 _l
_cl}_d
/u{634 0 85 -13 543 560 _sc
85 216 _m
85 547 _l
175 547 _l
175 219 _l
175 167 185 129 205 103 _c
225 77 255 64 296 64 _c
344 64 383 79 411 110 _c
439 141 453 183 453 237 _c
453 547 _l
543 547 _l
543 0 _l
453 0 _l
453 84 _l
431 50 405 26 377 10 _c
348 -5 315 -13 277 -13 _c
214 -13 166 6 134 45 _c
101 83 85 140 85 216 _c
311 560 _m
311 560 _l
_cl}_d
/v{592 0 30 0 562 547 _sc
30 547 _m
125 547 _l
296 88 _l
467 547 _l
562 547 _l
357 0 _l
235 0 _l
30 547 _l
_cl}_d
/endash{500 0 49 239 451 309 _sc
49 309 _m
451 309 _l
451 239 _l
49 239 _l
49 309 _l
_cl}_d
/emdash{1000 0 49 239 951 309 _sc
49 309 _m
951 309 _l
951 239 _l
49 239 _l
49 309 _l
_cl}_d
end readonly def

/BuildGlyph
 {exch begin
 CharStrings exch
 2 copy known not{pop /.notdef}if
 true 3 1 roll get exec
 end}_d

/BuildChar {
 1 index /Encoding get exch get
 1 index /BuildGlyph get exec
}_d

FontName currentdict end definefont pop
end
%%EndProlog
mpldict begin
90 216 translate
432 360 0 0 clipbox
gsave
0 0 m
432 0 l
432 360 l
0 360 l
cl
1.000 setgray
fill
grestore
gsave
57.6 43.2 m
417.6 43.2 l
417.6 331.2 l
57.6 331.2 l
cl
1.000 setgray
fill
grestore
0.500 setlinewidth
1 setlinejoin
2 setlinecap
[] 0 setdash
0.000 setgray
gsave
360 288 57.6 43.2 clipbox
57.6 43.2 m
57.6 331.2 l
stroke
grestore
0 setlinecap
gsave
/o {
gsave
newpath
translate
0.5 setlinewidth
1 setlinejoin
0 setlinecap
0 0 m
0 -6 l

gsave
0.000 setgray
fill
grestore
stroke
grestore
} bind def
57.6 43.2 o
grestore
/DejaVuSans findfont
12.000 scalefont
setfont
gsave
53.779688 24.575000 translate
0.000000 rotate
0.000000 0 m /zero glyphshow
grestore
2 setlinecap
gsave
360 288 57.6 43.2 clipbox
87.6 43.2 m
87.6 331.2 l
stroke
grestore
0 setlinecap
gsave
/o {
gsave
newpath
translate
0.5 setlinewidth
1 setlinejoin
0 setlinecap
0 0 m
0 -6 l

gsave
0.000 setgray
fill
grestore
stroke
grestore
} bind def
87.6 43.2 o
grestore
gsave
83.779688 24.575000 translate
0.000000 rotate
0.000000 0 m /two glyphshow
grestore
2 setlinecap
gsave
360 288 57.6 43.2 clipbox
117.6 43.2 m
117.6 331.2 l
stroke
grestore
0 setlinecap
gsave
/o {
gsave
newpath
translate
0.5 setlinewidth
1 setlinejoin
0 setlinecap
0 0 m
0 -6 l

gsave
0.000 setgray
fill
grestore
stroke
grestore
} bind def
117.6 43.2 o
grestore
gsave
113.779688 24.575000 translate
0.000000 rotate
0.000000 0 m /four glyphshow
grestore
2 setlinecap
gsave
360 288 57.6 43.2 clipbox
147.6 43.2 m
147.6 331.2 l
stroke
grestore
0 setlinecap
gsave
/o {
gsave
newpath
translate
0.5 setlinewidth
1 setlinejoin
0 setlinecap
0 0 m
0 -6 l

gsave
0.000 setgray
fill
grestore
stroke
grestore
} bind def
147.6 43.2 o
grestore
gsave
143.779688 24.575000 translate
0.000000 rotate
0.000000 0 m /six glyphshow
grestore
2 setlinecap
gsave
360 288 57.6 43.2 clipbox
177.6 43.2 m
177.6 331.2 l
stroke
grestore
0 setlinecap
gsave
/o {
gsave
newpath
translate
0.5 setlinewidth
1 setlinejoin
0 setlinecap
0 0 m
0 -6 l

gsave
0.000 setgray
fill
grestore
stroke
grestore
} bind def
177.6 43.2 o
grestore
gsave
173.779688 24.575000 translate
0.000000 rotate
0.000000 0 m /eight glyphshow
grestore
2 setlinecap
gsave
360 288 57.6 43.2 clipbox
207.6 43.2 m
207.6 331.2 l
stroke
grestore
0 setlinecap
gsave
/o {
gsave
newpath
translate
0.5 setlinewidth
1 setlinejoin
0 setlinecap
0 0 m
0 -6 l

gsave
0.000 setgray
fill
grestore
stroke
grestore
} bind def
207.6 43.2 o
grestore
gsave
199.959375 24.575000 translate
0.000000 rotate
0.000000 0 m /one glyphshow
7.634766 0 m /zero glyphshow
grestore
2 setlinecap
gsave
360 288 57.6 43.2 clipbox
237.6 43.2 m
237.6 331.2 l
stroke
grestore
0 setlinecap
gsave
/o {
gsave
newpath
translate
0.5 setlinewidth
1 setlinejoin
0 setlinecap
0 0 m
0 -6 l

gsave
0.000 setgray
fill
grestore
stroke
grestore
} bind def
237.6 43.2 o
grestore
gsave
229.959375 24.575000 translate
0.000000 rotate
0.000000 0 m /one glyphshow
7.634766 0 m /two glyphshow
grestore
2 setlinecap
gsave
360 288 57.6 43.2 clipbox
267.6 43.2 m
267.6 331.2 l
stroke
grestore
0 setlinecap
gsave
/o {
gsave
newpath
translate
0.5 setlinewidth
1 setlinejoin
0 setlinecap
0 0 m
0 -6 l

gsave
0.000 setgray
fill
grestore
stroke
grestore
} bind def
267.6 43.2 o
grestore
gsave
259.959375 24.575000 translate
0.000000 rotate
0.000000 0 m /one glyphshow
7.634766 0 m /four glyphshow
grestore
2 setlinecap
gsave
360 288 57.6 43.2 clipbox
297.6 43.2 m
297.6 331.2 l
stroke
grestore
0 setlinecap
gsave
/o {
gsave
newpath
translate
0.5 setlinewidth
1 setlinejoin
0 setlinecap
0 0 m
0 -6 l

gsave
0.000 setgray
fill
grestore
stroke
grestore
} bind def
297.6 43.2 o
grestore
gsave
289.959375 24.575000 translate
0.000000 rotate
0.000000 0 m /one glyphshow
7.634766 0 m /six glyphshow
grestore
2 setlinecap
gsave
360 288 57.6 43.2 clipbox
327.6 43.2 m
327.6 331.2 l
stroke
grestore
0 setlinecap
gsave
/o {
gsave
newpath
translate
0.5 setlinewidth
1 setlinejoin
0 setlinecap
0 0 m
0 -6 l

gsave
0.000 setgray
fill
grestore
stroke
grestore
} bind def
327.6 43.2 o
grestore
gsave
319.959375 24.575000 translate
0.000000 rotate
0.000000 0 m /one glyphshow
7.634766 0 m /eight glyphshow
grestore
2 setlinecap
gsave
360 288 57.6 43.2 clipbox
357.6 43.2 m
357.6 331.2 l
stroke
grestore
0 setlinecap
gsave
/o {
gsave
newpath
translate
0.5 setlinewidth
1 setlinejoin
0 setlinecap
0 0 m
0 -6 l

gsave
0.000 setgray
fill
grestore
stroke
grestore
} bind def
357.6 43.2 o
grestore
gsave
349.959375 24.575000 translate
0.000000 rotate
0.000000 0 m /two glyphshow
7.634766 0 m /zero glyphshow
grestore
2 setlinecap
gsave
360 288 57.6 43.2 clipbox
387.6 43.2 m
387.6 331.2 l
stroke
grestore
0 setlinecap
gsave
/o {
gsave
newpath
translate
0.5 setlinewidth
1 setlinejoin
0 setlinecap
0 0 m
0 -6 l

gsave
0.000 setgray
fill
grestore
stroke
grestore
} bind def
387.6 43.2 o
grestore
gsave
379.959375 24.575000 translate
0.000000 rotate
0.000000 0 m /two glyphshow
7.634766 0 m /two glyphshow
grestore
2 setlinecap
gsave
360 288 57.6 43.2 clipbox
417.6 43.2 m
417.6 331.2 l
stroke
grestore
0 setlinecap
gsave
/o {
gsave
newpath
translate
0.5 setlinewidth
1 setlinejoin
0 setlinecap
0 0 m
0 -6 l

gsave
0.000 setgray
fill
grestore
stroke
grestore
} bind def
417.6 43.2 o
grestore
gsave
409.959375 24.575000 translate
0.000000 rotate
0.000000 0 m /two glyphshow
7.634766 0 m /four glyphshow
grestore
gsave
205.045313 8.950000 translate
0.000000 rotate
0.000000 0 m /U glyphshow
8.783203 0 m /T glyphshow
15.363281 0 m /C glyphshow
23.742188 0 m /comma glyphshow
27.556641 0 m /space glyphshow
31.371094 0 m /h glyphshow
38.976562 0 m /o glyphshow
46.318359 0 m /u glyphshow
53.923828 0 m /r glyphshow
58.857422 0 m /s glyphshow
grestore
2 setlinecap
gsave
360 288 57.6 43.2 clipbox
57.6 43.2 m
417.6 43.2 l
stroke
grestore
0 setlinecap
gsave
/o {
gsave
newpath
translate
0.5 setlinewidth
1 setlinejoin
0 setlinecap
0 0 m
-6 0 l

gsave
0.000 setgray
fill
grestore
stroke
grestore
} bind def
57.6 43.2 o
grestore
gsave
21.365625 38.637500 translate
0.000000 rotate
0.000000 0 m /zero glyphshow
7.634766 0 m /period glyphshow
11.449219 0 m /eight glyphshow
19.083984 0 m /five glyphshow
grestore
2 setlinecap
gsave
360 288 57.6 43.2 clipbox
57.6 84.342857 m
417.6 84.342857 l
stroke
grestore
0 setlinecap
gsave
/o {
gsave
newpath
translate
0.5 setlinewidth
1 setlinejoin
0 setlinecap
0 0 m
-6 0 l

gsave
0.000 setgray
fill
grestore
stroke
grestore
} bind def
57.6 84.3429 o
grestore
gsave
21.365625 79.780357 translate
0.000000 rotate
0.000000 0 m /zero glyphshow
7.634766 0 m /period glyphshow
11.449219 0 m /nine glyphshow
19.083984 0 m /zero glyphshow
grestore
2 setlinecap
gsave
360 288 57.6 43.2 clipbox
57.6 125.485714 m
417.6 125.485714 l
stroke
grestore
0 setlinecap
gsave
/o {
gsave
newpath
translate
0.5 setlinewidth
1 setlinejoin
0 setlinecap
0 0 m
-6 0 l

gsave
0.000 setgray
fill
grestore
stroke
grestore
} bind def
57.6 125.486 o
grestore
gsave
21.365625 120.923214 translate
0.000000 rotate
0.000000 0 m /zero glyphshow
7.634766 0 m /period glyphshow
11.449219 0 m /nine glyphshow
19.083984 0 m /five glyphshow
grestore
2 setlinecap
gsave
360 288 57.6 43.2 clipbox
57.6 166.628571 m
417.6 166.628571 l
stroke
grestore
0 setlinecap
gsave
/o {
gsave
newpath
translate
0.5 setlinewidth
1 setlinejoin
0 setlinecap
0 0 m
-6 0 l

gsave
0.000 setgray
fill
grestore
stroke
grestore
} bind def
57.6 166.629 o
grestore
gsave
21.365625 162.066071 translate
0.000000 rotate
0.000000 0 m /one glyphshow
7.634766 0 m /period glyphshow
11.449219 0 m /zero glyphshow
19.083984 0 m /zero glyphshow
grestore
2 setlinecap
gsave
360 288 57.6 43.2 clipbox
57.6 207.771429 m
417.6 207.771429 l
stroke
grestore
0 setlinecap
gsave
/o {
gsave
newpath
translate
0.5 setlinewidth
1 setlinejoin
0 setlinecap
0 0 m
-6 0 l

gsave
0.000 setgray
fill
grestore
stroke
grestore
} bind def
57.6 207.771 o
grestore
gsave
21.365625 203.208929 translate
0.000000 rotate
0.000000 0 m /one glyphshow
7.634766 0 m /period glyphshow
11.449219 0 m /zero glyphshow
19.083984 0 m /five glyphshow
grestore
2 setlinecap
gsave
360 288 57.6 43.2 clipbox
57.6 248.914286 m
417.6 248.914286 l
stroke
grestore
0 setlinecap
gsave
/o {
gsave
newpath
translate
0.5 setlinewidth
1 setlinejoin
0 setlinecap
0 0 m
-6 0 l

gsave
0.000 setgray
fill
grestore
stroke
grestore
} bind def
57.6 248.914 o
grestore
gsave
21.365625 244.351786 translate
0.000000 rotate
0.000000 0 m /one glyphshow
7.634766 0 m /period glyphshow
11.449219 0 m /one glyphshow
19.083984 0 m /zero glyphshow
grestore
2 setlinecap
gsave
360 288 57.6 43.2 clipbox
57.6 290.057143 m
417.6 290.057143 l
stroke
grestore
0 setlinecap
gsave
/o {
gsave
newpath
translate
0.5 setlinewidth
1 setlinejoin
0 setlinecap
0 0 m
-6 0 l

gsave
0.000 setgray
fill
grestore
stroke
grestore
} bind def
57.6 290.057 o
grestore
gsave
21.365625 285.494643 translate
0.000000 rotate
0.000000 0 m /one glyphshow
7.634766 0 m /period glyphshow
11.449219 0 m /one glyphshow
19.083984 0 m /five glyphshow
grestore
2 setlinecap
gsave
360 288 57.6 43.2 clipbox
57.6 331.2 m
417.6 331.2 l
stroke
grestore
0 setlinecap
gsave
/o {
gsave
newpath
translate
0.5 setlinewidth
1 setlinejoin
0 setlinecap
0 0 m
-6 0 l

gsave
0.000 setgray
fill
grestore
stroke
grestore
} bind def
57.6 331.2 o
grestore
gsave
21.365625 326.637500 translate
0.000000 rotate
0.000000 0 m /one glyphshow
7.634766 0 m /period glyphshow
11.449219 0 m /two glyphshow
19.083984 0 m /zero glyphshow
grestore
gsave
14.865625 46.184375 translate
90.000000 rotate
0.000000 0 m /I glyphshow
3.539062 0 m /o glyphshow
10.880859 0 m /n glyphshow
18.486328 0 m /o glyphshow
25.828125 0 m /s glyphshow
32.080078 0 m /p glyphshow
39.697266 0 m /h glyphshow
47.302734 0 m /e glyphshow
54.685547 0 m /r glyphshow
59.619141 0 m /i glyphshow
62.953125 0 m /c glyphshow
69.550781 0 m /space glyphshow
73.365234 0 m /p glyphshow
80.982422 0 m /o glyphshow
88.324219 0 m /t glyphshow
93.029297 0 m /e glyphshow
100.412109 0 m /n glyphshow
108.017578 0 m /t glyphshow
112.722656 0 m /i glyphshow
116.056641 0 m /a glyphshow
123.410156 0 m /l glyphshow
126.744141 0 m /space glyphshow
130.558594 0 m /a glyphshow
137.912109 0 m /s glyphshow
144.164062 0 m /space glyphshow
147.978516 0 m /a glyphshow
155.332031 0 m /space glyphshow
159.146484 0 m /f glyphshow
163.371094 0 m /r glyphshow
168.304688 0 m /a glyphshow
175.658203 0 m /c glyphshow
182.255859 0 m /t glyphshow
186.960938 0 m /i glyphshow
190.294922 0 m /o glyphshow
197.636719 0 m /n glyphshow
205.242188 0 m /space glyphshow
209.056641 0 m /o glyphshow
216.398438 0 m /f glyphshow
220.623047 0 m /space glyphshow
224.437500 0 m /t glyphshow
229.142578 0 m /h glyphshow
236.748047 0 m /e glyphshow
244.130859 0 m /space glyphshow
247.945312 0 m /m glyphshow
259.634766 0 m /e glyphshow
267.017578 0 m /a glyphshow
274.371094 0 m /n glyphshow
grestore
0 setlinejoin
2 setlinecap
[] 0 setdash
gsave
57.6 43.2 m
57.6 331.2 l
stroke
grestore
gsave
417.6 43.2 m
417.6 331.2 l
stroke
grestore
gsave
57.6 43.2 m
417.6 43.2 l
stroke
grestore
gsave
57.6 331.2 m
417.6 331.2 l
stroke
grestore
gsave
130.123438 337.200000 translate
0.000000 rotate
0.000000 0 m /O glyphshow
9.445312 0 m /c glyphshow
16.042969 0 m /t glyphshow
20.748047 0 m /emdash glyphshow
32.748047 0 m /F glyphshow
39.025391 0 m /e glyphshow
46.408203 0 m /b glyphshow
54.025391 0 m /comma glyphshow
57.839844 0 m /space glyphshow
61.654297 0 m /two glyphshow
69.289062 0 m /zero glyphshow
76.923828 0 m /zero glyphshow
84.558594 0 m /eight glyphshow
92.193359 0 m /endash glyphshow
98.193359 0 m /two glyphshow
105.828125 0 m /zero glyphshow
113.462891 0 m /one glyphshow
121.097656 0 m /eight glyphshow
128.732422 0 m /space glyphshow
132.546875 0 m /v glyphshow
139.648438 0 m /s glyphshow
145.900391 0 m /space glyphshow
149.714844 0 m /two glyphshow
157.349609 0 m /zero glyphshow
164.984375 0 m /one glyphshow
172.619141 0 m /five glyphshow
180.253906 0 m /slash glyphshow
184.296875 0 m /two glyphshow
191.931641 0 m /zero glyphshow
199.566406 0 m /one glyphshow
207.201172 0 m /six glyphshow
grestore
1.500 setlinewidth
1 setlinejoin
0 setlinecap
[1.5 2.475] 0 setdash
0.000 0.000 1.000 setrgbcolor
gsave
57.6 113.694264 m
72.6 94.312328 l
87.6 84.311926 l
102.6 82.039267 l
117.6 84.915866 l
132.6 89.430399 l
147.6 94.485944 l
162.6 101.810095 l
177.6 111.416932 l
192.6 115.659881 l
207.6 114.746637 l
222.6 117.879912 l
237.6 135.369478 l
252.6 178.084522 l
267.6 223.600997 l
282.6 253.027253 l
297.6 275.781971 l
312.6 284.796112 l
327.6 280.642825 l
342.6 270.319726 l
357.6 251.491582 l
372.6 224.082125 l
387.6 183.998524 l
402.6 143.173046 l
417.6 113.694264 l
stroke
grestore
gsave
57.6 120.849575 m
72.6 101.561328 l
87.6 91.632317 l
102.6 89.465088 l
117.6 92.416602 l
132.6 96.962781 l
147.6 102.024871 l
162.6 109.453169 l
177.6 119.137901 l
192.6 123.366352 l
207.6 122.448188 l
222.6 125.575193 l
237.6 143.068099 l
252.6 185.967018 l
267.6 231.671399 l
282.6 260.870482 l
297.6 283.483464 l
312.6 292.373164 l
327.6 288.014286 l
342.6 277.636012 l
357.6 258.67687 l
372.6 231.18257 l
387.6 191.039878 l
402.6 150.223206 l
417.6 120.849575 l
stroke
grestore
0.500 0.000 0.500 setrgbcolor
gsave
57.6 104.220063 m
72.6 85.192227 l
87.6 75.416795 l
102.6 70.88113 l
117.6 73.007312 l
132.6 79.251101 l
147.6 86.846922 l
162.6 100.706422 l
177.6 118.172032 l
192.6 130.902615 l
207.6 134.885544 l
222.6 141.470145 l
237.6 156.815096 l
252.6 194.161812 l
267.6 235.266797 l
282.6 249.425108 l
297.6 252.22395 l
312.6 250.021342 l
327.6 240.156365 l
342.6 229.956459 l
357.6 215.930104 l
372.6 194.747564 l
387.6 163.41656 l
402.6 128.118309 l
417.6 104.220063 l
stroke
grestore
gsave
57.6 127.678427 m
72.6 108.914003 l
87.6 99.480237 l
102.6 95.46515 l
117.6 97.743277 l
132.6 104.226942 l
147.6 111.975786 l
162.6 125.637746 l
177.6 142.759836 l
192.6 155.04814 l
207.6 158.594478 l
222.6 165.149279 l
237.6 180.744215 l
252.6 218.288578 l
267.6 259.506073 l
282.6 273.368116 l
297.6 276.168633 l
312.6 274.261082 l
327.6 263.851597 l
342.6 253.240909 l
357.6 238.906029 l
372.6 217.99793 l
387.6 186.55388 l
402.6 151.41931 l
417.6 127.678427 l
stroke
grestore
2 setlinecap
[] 0 setdash
0.000 0.000 1.000 setrgbcolor
gsave
57.6 117.27192 m
72.6 97.936828 l
87.6 87.972121 l
102.6 85.752178 l
117.6 88.666234 l
132.6 93.19659 l
147.6 98.255408 l
162.6 105.631632 l
177.6 115.277417 l
192.6 119.513117 l
207.6 118.597412 l
222.6 121.727552 l
237.6 139.218789 l
252.6 182.02577 l
267.6 227.636198 l
282.6 256.948867 l
297.6 279.632717 l
312.6 288.584638 l
327.6 284.328556 l
342.6 273.977869 l
357.6 255.084226 l
372.6 227.632347 l
387.6 187.519201 l
402.6 146.698126 l
417.6 117.27192 l
stroke
grestore
0.500 0.000 0.500 setrgbcolor
gsave
57.6 115.949245 m
72.6 97.053115 l
87.6 87.448516 l
102.6 83.17314 l
117.6 85.375294 l
132.6 91.739021 l
147.6 99.411354 l
162.6 113.172084 l
177.6 130.465934 l
192.6 142.975377 l
207.6 146.740011 l
222.6 153.309712 l
237.6 168.779655 l
252.6 206.225195 l
267.6 247.386435 l
282.6 261.396612 l
297.6 264.196292 l
312.6 262.141212 l
327.6 252.003981 l
342.6 241.598684 l
357.6 227.418067 l
372.6 206.372747 l
387.6 174.98522 l
402.6 139.768809 l
417.6 115.949245 l
stroke
grestore

end
showpage
