%!PS-Adobe-3.0 EPSF-3.0
%%Title: temporal_ip_variation.eps
%%Creator: matplotlib version 3.2.1, http://matplotlib.org/
%%CreationDate: Wed Feb 10 01:21:09 2021
%%Orientation: portrait
%%BoundingBox: -57.59999999999999 100.79999999999995 669.5999999999999 691.2
%%EndComments
%%BeginProlog
/mpldict 9 dict def
mpldict begin
/m { moveto } bind def
/l { lineto } bind def
/r { rlineto } bind def
/c { curveto } bind def
/cl { closepath } bind def
/box {
m
1 index 0 r
0 exch r
neg 0 r
cl
} bind def
/clipbox {
box
clip
newpath
} bind def
%!PS-Adobe-3.0 Resource-Font
%%Title: DejaVu Sans
%%Copyright: Copyright (c) 2003 by Bitstream, Inc. All Rights Reserved. Copyright (c) 2006 by Tavmjong Bah. All Rights Reserved. DejaVu changes are in public domain 
%%Creator: Converted from TrueType to type 3 by PPR
25 dict begin
/_d{bind def}bind def
/_m{moveto}_d
/_l{lineto}_d
/_cl{closepath eofill}_d
/_c{curveto}_d
/_sc{7 -1 roll{setcachedevice}{pop pop pop pop pop pop}ifelse}_d
/_e{exec}_d
/FontName /DejaVuSans def
/PaintType 0 def
/FontMatrix[.001 0 0 .001 0 0]def
/FontBBox[-1021 -463 1793 1232]def
/FontType 3 def
/Encoding [ /space /plus /comma /period /zero /one /two /three /four /five /six /seven /eight /nine /colon /A /C /D /I /N /S /T /U /V /Y /a /b /c /e /f /h /i /k /l /m /n /o /p /r /s /t /u /v /y /degree /ntilde /tilde /minus ] def
/FontInfo 10 dict dup begin
/FamilyName (DejaVu Sans) def
/FullName (DejaVu Sans) def
/Notice (Copyright (c) 2003 by Bitstream, Inc. All Rights Reserved. Copyright (c) 2006 by Tavmjong Bah. All Rights Reserved. DejaVu changes are in public domain ) def
/Weight (Book) def
/Version (Version 2.35) def
/ItalicAngle 0.0 def
/isFixedPitch false def
/UnderlinePosition -130 def
/UnderlineThickness 90 def
end readonly def
/CharStrings 49 dict dup begin
/.notdef 0 def
/space{318 0 0 0 0 0 _sc
}_d
/plus{838 0 106 0 732 627 _sc
460 627 _m
460 355 _l
732 355 _l
732 272 _l
460 272 _l
460 0 _l
378 0 _l
378 272 _l
106 272 _l
106 355 _l
378 355 _l
378 627 _l
460 627 _l
_cl}_d
/comma{318 0 77 -115 220 124 _sc
117 124 _m
220 124 _l
220 40 _l
140 -115 _l
77 -115 _l
117 40 _l
117 124 _l
_cl}_d
/period{318 0 107 0 210 124 _sc
107 124 _m
210 124 _l
210 0 _l
107 0 _l
107 124 _l
_cl}_d
/zero{636 0 66 -13 570 742 _sc
318 664 _m
267 664 229 639 203 589 _c
177 539 165 464 165 364 _c
165 264 177 189 203 139 _c
229 89 267 64 318 64 _c
369 64 407 89 433 139 _c
458 189 471 264 471 364 _c
471 464 458 539 433 589 _c
407 639 369 664 318 664 _c
318 742 _m
399 742 461 709 505 645 _c
548 580 570 486 570 364 _c
570 241 548 147 505 83 _c
461 19 399 -13 318 -13 _c
236 -13 173 19 130 83 _c
87 147 66 241 66 364 _c
66 486 87 580 130 645 _c
173 709 236 742 318 742 _c
_cl}_d
/one{636 0 110 0 544 729 _sc
124 83 _m
285 83 _l
285 639 _l
110 604 _l
110 694 _l
284 729 _l
383 729 _l
383 83 _l
544 83 _l
544 0 _l
124 0 _l
124 83 _l
_cl}_d
/two{{636 0 73 0 536 742 _sc
192 83 _m
536 83 _l
536 0 _l
73 0 _l
73 83 _l
110 121 161 173 226 239 _c
290 304 331 346 348 365 _c
380 400 402 430 414 455 _c
426 479 433 504 433 528 _c
433 566 419 598 392 622 _c
365 646 330 659 286 659 _c
255 659 222 653 188 643 _c
154 632 117 616 78 594 _c
78 694 _l
118 710 155 722 189 730 _c
223 738 255 742 284 742 _c
}_e{359 742 419 723 464 685 _c
509 647 532 597 532 534 _c
532 504 526 475 515 449 _c
504 422 484 390 454 354 _c
446 344 420 317 376 272 _c
332 227 271 164 192 83 _c
_cl}_e}_d
/three{{636 0 76 -13 556 742 _sc
406 393 _m
453 383 490 362 516 330 _c
542 298 556 258 556 212 _c
556 140 531 84 482 45 _c
432 6 362 -13 271 -13 _c
240 -13 208 -10 176 -4 _c
144 1 110 10 76 22 _c
76 117 _l
103 101 133 89 166 81 _c
198 73 232 69 268 69 _c
330 69 377 81 409 105 _c
441 129 458 165 458 212 _c
458 254 443 288 413 312 _c
383 336 341 349 287 349 _c
}_e{202 349 _l
202 430 _l
291 430 _l
339 430 376 439 402 459 _c
428 478 441 506 441 543 _c
441 580 427 609 401 629 _c
374 649 336 659 287 659 _c
260 659 231 656 200 650 _c
169 644 135 635 98 623 _c
98 711 _l
135 721 170 729 203 734 _c
235 739 266 742 296 742 _c
370 742 429 725 473 691 _c
517 657 539 611 539 553 _c
539 513 527 479 504 451 _c
481 423 448 403 406 393 _c
_cl}_e}_d
/four{636 0 49 0 580 729 _sc
378 643 _m
129 254 _l
378 254 _l
378 643 _l
352 729 _m
476 729 _l
476 254 _l
580 254 _l
580 172 _l
476 172 _l
476 0 _l
378 0 _l
378 172 _l
49 172 _l
49 267 _l
352 729 _l
_cl}_d
/five{{636 0 77 -13 549 729 _sc
108 729 _m
495 729 _l
495 646 _l
198 646 _l
198 467 _l
212 472 227 476 241 478 _c
255 480 270 482 284 482 _c
365 482 429 459 477 415 _c
525 370 549 310 549 234 _c
549 155 524 94 475 51 _c
426 8 357 -13 269 -13 _c
238 -13 207 -10 175 -6 _c
143 -1 111 6 77 17 _c
77 116 _l
106 100 136 88 168 80 _c
199 72 232 69 267 69 _c
}_e{323 69 368 83 401 113 _c
433 143 450 183 450 234 _c
450 284 433 324 401 354 _c
368 384 323 399 267 399 _c
241 399 214 396 188 390 _c
162 384 135 375 108 363 _c
108 729 _l
_cl}_e}_d
/six{{636 0 70 -13 573 742 _sc
330 404 _m
286 404 251 388 225 358 _c
199 328 186 286 186 234 _c
186 181 199 139 225 109 _c
251 79 286 64 330 64 _c
374 64 409 79 435 109 _c
461 139 474 181 474 234 _c
474 286 461 328 435 358 _c
409 388 374 404 330 404 _c
526 713 _m
526 623 _l
501 635 476 644 451 650 _c
425 656 400 659 376 659 _c
310 659 260 637 226 593 _c
}_e{192 549 172 482 168 394 _c
187 422 211 444 240 459 _c
269 474 301 482 336 482 _c
409 482 467 459 509 415 _c
551 371 573 310 573 234 _c
573 159 550 99 506 54 _c
462 9 403 -13 330 -13 _c
246 -13 181 19 137 83 _c
92 147 70 241 70 364 _c
70 479 97 571 152 639 _c
206 707 280 742 372 742 _c
396 742 421 739 447 735 _c
472 730 498 723 526 713 _c
_cl}_e}_d
/seven{636 0 82 0 551 729 _sc
82 729 _m
551 729 _l
551 687 _l
286 0 _l
183 0 _l
432 646 _l
82 646 _l
82 729 _l
_cl}_d
/eight{{636 0 68 -13 568 742 _sc
318 346 _m
271 346 234 333 207 308 _c
180 283 167 249 167 205 _c
167 161 180 126 207 101 _c
234 76 271 64 318 64 _c
364 64 401 76 428 102 _c
455 127 469 161 469 205 _c
469 249 455 283 429 308 _c
402 333 365 346 318 346 _c
219 388 _m
177 398 144 418 120 447 _c
96 476 85 511 85 553 _c
85 611 105 657 147 691 _c
188 725 245 742 318 742 _c
}_e{390 742 447 725 489 691 _c
530 657 551 611 551 553 _c
551 511 539 476 515 447 _c
491 418 459 398 417 388 _c
464 377 501 355 528 323 _c
554 291 568 251 568 205 _c
568 134 546 80 503 43 _c
459 5 398 -13 318 -13 _c
237 -13 175 5 132 43 _c
89 80 68 134 68 205 _c
68 251 81 291 108 323 _c
134 355 171 377 219 388 _c
183 544 _m
183 506 194 476 218 455 _c
}_e{242 434 275 424 318 424 _c
360 424 393 434 417 455 _c
441 476 453 506 453 544 _c
453 582 441 611 417 632 _c
393 653 360 664 318 664 _c
275 664 242 653 218 632 _c
194 611 183 582 183 544 _c
_cl}_e}_d
/nine{{636 0 63 -13 566 742 _sc
110 15 _m
110 105 _l
134 93 159 84 185 78 _c
210 72 235 69 260 69 _c
324 69 374 90 408 134 _c
442 178 462 244 468 334 _c
448 306 424 284 396 269 _c
367 254 335 247 300 247 _c
226 247 168 269 126 313 _c
84 357 63 417 63 494 _c
63 568 85 628 129 674 _c
173 719 232 742 306 742 _c
390 742 455 709 499 645 _c
543 580 566 486 566 364 _c
}_e{566 248 538 157 484 89 _c
429 21 356 -13 264 -13 _c
239 -13 214 -10 189 -6 _c
163 -2 137 5 110 15 _c
306 324 _m
350 324 385 339 411 369 _c
437 399 450 441 450 494 _c
450 546 437 588 411 618 _c
385 648 350 664 306 664 _c
262 664 227 648 201 618 _c
175 588 162 546 162 494 _c
162 441 175 399 201 369 _c
227 339 262 324 306 324 _c
_cl}_e}_d
/colon{337 0 117 0 220 517 _sc
117 124 _m
220 124 _l
220 0 _l
117 0 _l
117 124 _l
117 517 _m
220 517 _l
220 393 _l
117 393 _l
117 517 _l
_cl}_d
/A{684 0 8 0 676 729 _sc
342 632 _m
208 269 _l
476 269 _l
342 632 _l
286 729 _m
398 729 _l
676 0 _l
573 0 _l
507 187 _l
178 187 _l
112 0 _l
8 0 _l
286 729 _l
_cl}_d
/C{{698 0 56 -13 644 742 _sc
644 673 _m
644 569 _l
610 599 575 622 537 638 _c
499 653 460 661 418 661 _c
334 661 270 635 226 584 _c
182 533 160 460 160 364 _c
160 268 182 194 226 143 _c
270 92 334 67 418 67 _c
460 67 499 74 537 90 _c
575 105 610 128 644 159 _c
644 56 _l
609 32 572 15 534 4 _c
496 -7 455 -13 412 -13 _c
302 -13 215 20 151 87 _c
}_e{87 154 56 246 56 364 _c
56 481 87 573 151 641 _c
215 708 302 742 412 742 _c
456 742 497 736 535 725 _c
573 713 610 696 644 673 _c
_cl}_e}_d
/D{770 0 98 0 711 729 _sc
197 648 _m
197 81 _l
316 81 _l
416 81 490 103 537 149 _c
583 195 607 267 607 365 _c
607 463 583 534 537 580 _c
490 625 416 648 316 648 _c
197 648 _l
98 729 _m
301 729 _l
442 729 546 699 612 641 _c
678 582 711 490 711 365 _c
711 239 677 147 611 88 _c
545 29 441 0 301 0 _c
98 0 _l
98 729 _l
_cl}_d
/I{295 0 98 0 197 729 _sc
98 729 _m
197 729 _l
197 0 _l
98 0 _l
98 729 _l
_cl}_d
/N{748 0 98 0 650 729 _sc
98 729 _m
231 729 _l
554 119 _l
554 729 _l
650 729 _l
650 0 _l
517 0 _l
194 610 _l
194 0 _l
98 0 _l
98 729 _l
_cl}_d
/S{{635 0 66 -13 579 742 _sc
535 705 _m
535 609 _l
497 627 462 640 429 649 _c
395 657 363 662 333 662 _c
279 662 237 651 208 631 _c
179 610 165 580 165 542 _c
165 510 174 485 194 469 _c
213 452 250 439 304 429 _c
364 417 _l
437 403 491 378 526 343 _c
561 307 579 260 579 201 _c
579 130 555 77 508 41 _c
460 5 391 -13 300 -13 _c
265 -13 228 -9 189 -2 _c
}_e{150 5 110 16 69 32 _c
69 134 _l
109 111 148 94 186 83 _c
224 71 262 66 300 66 _c
356 66 399 77 430 99 _c
460 121 476 152 476 194 _c
476 230 465 258 443 278 _c
421 298 385 313 335 323 _c
275 335 _l
201 349 148 372 115 404 _c
82 435 66 478 66 534 _c
66 598 88 649 134 686 _c
179 723 242 742 322 742 _c
356 742 390 739 426 733 _c
461 727 497 717 535 705 _c
}_e{_cl}_e}_d
/T{611 0 -2 0 614 729 _sc
-2 729 _m
614 729 _l
614 646 _l
355 646 _l
355 0 _l
256 0 _l
256 646 _l
-2 646 _l
-2 729 _l
_cl}_d
/U{732 0 87 -13 645 729 _sc
87 729 _m
186 729 _l
186 286 _l
186 208 200 151 228 117 _c
256 83 302 66 366 66 _c
429 66 475 83 503 117 _c
531 151 546 208 546 286 _c
546 729 _l
645 729 _l
645 274 _l
645 178 621 107 574 59 _c
527 11 458 -13 366 -13 _c
274 -13 204 11 157 59 _c
110 107 87 178 87 274 _c
87 729 _l
_cl}_d
/V{684 0 8 0 676 729 _sc
286 0 _m
8 729 _l
111 729 _l
342 115 _l
573 729 _l
676 729 _l
398 0 _l
286 0 _l
_cl}_d
/Y{611 0 -1 0 613 729 _sc
-1 729 _m
104 729 _l
306 429 _l
507 729 _l
613 729 _l
355 347 _l
355 0 _l
256 0 _l
256 347 _l
-1 729 _l
_cl}_d
/a{{613 0 60 -13 522 560 _sc
343 275 _m
270 275 220 266 192 250 _c
164 233 150 205 150 165 _c
150 133 160 107 181 89 _c
202 70 231 61 267 61 _c
317 61 357 78 387 114 _c
417 149 432 196 432 255 _c
432 275 _l
343 275 _l
522 312 _m
522 0 _l
432 0 _l
432 83 _l
411 49 385 25 355 10 _c
325 -5 287 -13 243 -13 _c
187 -13 142 2 109 33 _c
76 64 60 106 60 159 _c
}_e{60 220 80 266 122 298 _c
163 329 224 345 306 345 _c
432 345 _l
432 354 _l
432 395 418 427 391 450 _c
364 472 326 484 277 484 _c
245 484 215 480 185 472 _c
155 464 127 453 100 439 _c
100 522 _l
132 534 164 544 195 550 _c
226 556 256 560 286 560 _c
365 560 424 539 463 498 _c
502 457 522 395 522 312 _c
_cl}_e}_d
/b{{635 0 91 -13 580 760 _sc
487 273 _m
487 339 473 390 446 428 _c
418 466 381 485 334 485 _c
286 485 249 466 222 428 _c
194 390 181 339 181 273 _c
181 207 194 155 222 117 _c
249 79 286 61 334 61 _c
381 61 418 79 446 117 _c
473 155 487 207 487 273 _c
181 464 _m
199 496 223 520 252 536 _c
281 552 316 560 356 560 _c
422 560 476 533 518 481 _c
559 428 580 359 580 273 _c
}_e{580 187 559 117 518 65 _c
476 13 422 -13 356 -13 _c
316 -13 281 -5 252 10 _c
223 25 199 49 181 82 _c
181 0 _l
91 0 _l
91 760 _l
181 760 _l
181 464 _l
_cl}_e}_d
/c{{550 0 55 -13 488 560 _sc
488 526 _m
488 442 _l
462 456 437 466 411 473 _c
385 480 360 484 334 484 _c
276 484 230 465 198 428 _c
166 391 150 339 150 273 _c
150 206 166 154 198 117 _c
230 80 276 62 334 62 _c
360 62 385 65 411 72 _c
437 79 462 90 488 104 _c
488 21 _l
462 9 436 0 410 -5 _c
383 -10 354 -13 324 -13 _c
242 -13 176 12 128 64 _c
}_e{79 115 55 185 55 273 _c
55 362 79 432 128 483 _c
177 534 244 560 330 560 _c
358 560 385 557 411 551 _c
437 545 463 537 488 526 _c
_cl}_e}_d
/e{{615 0 55 -13 562 560 _sc
562 296 _m
562 252 _l
149 252 _l
153 190 171 142 205 110 _c
238 78 284 62 344 62 _c
378 62 412 66 444 74 _c
476 82 509 95 541 113 _c
541 28 _l
509 14 476 3 442 -3 _c
408 -9 373 -13 339 -13 _c
251 -13 182 12 131 62 _c
80 112 55 181 55 268 _c
55 357 79 428 127 481 _c
175 533 241 560 323 560 _c
397 560 455 536 498 489 _c
}_e{540 441 562 377 562 296 _c
472 322 _m
471 371 457 410 431 440 _c
404 469 368 484 324 484 _c
274 484 234 469 204 441 _c
174 413 156 373 152 322 _c
472 322 _l
_cl}_e}_d
/f{352 0 23 0 371 760 _sc
371 760 _m
371 685 _l
285 685 _l
253 685 230 678 218 665 _c
205 652 199 629 199 595 _c
199 547 _l
347 547 _l
347 477 _l
199 477 _l
199 0 _l
109 0 _l
109 477 _l
23 477 _l
23 547 _l
109 547 _l
109 585 _l
109 645 123 690 151 718 _c
179 746 224 760 286 760 _c
371 760 _l
_cl}_d
/h{634 0 91 0 549 760 _sc
549 330 _m
549 0 _l
459 0 _l
459 327 _l
459 379 448 417 428 443 _c
408 469 378 482 338 482 _c
289 482 251 466 223 435 _c
195 404 181 362 181 309 _c
181 0 _l
91 0 _l
91 760 _l
181 760 _l
181 462 _l
202 494 227 519 257 535 _c
286 551 320 560 358 560 _c
420 560 468 540 500 501 _c
532 462 549 405 549 330 _c
_cl}_d
/i{278 0 94 0 184 760 _sc
94 547 _m
184 547 _l
184 0 _l
94 0 _l
94 547 _l
94 760 _m
184 760 _l
184 646 _l
94 646 _l
94 760 _l
_cl}_d
/k{579 0 91 0 576 760 _sc
91 760 _m
181 760 _l
181 311 _l
449 547 _l
564 547 _l
274 291 _l
576 0 _l
459 0 _l
181 267 _l
181 0 _l
91 0 _l
91 760 _l
_cl}_d
/l{278 0 94 0 184 760 _sc
94 760 _m
184 760 _l
184 0 _l
94 0 _l
94 760 _l
_cl}_d
/m{{974 0 91 0 889 560 _sc
520 442 _m
542 482 569 511 600 531 _c
631 550 668 560 711 560 _c
767 560 811 540 842 500 _c
873 460 889 403 889 330 _c
889 0 _l
799 0 _l
799 327 _l
799 379 789 418 771 444 _c
752 469 724 482 686 482 _c
639 482 602 466 575 435 _c
548 404 535 362 535 309 _c
535 0 _l
445 0 _l
445 327 _l
445 379 435 418 417 444 _c
398 469 369 482 331 482 _c
}_e{285 482 248 466 221 435 _c
194 404 181 362 181 309 _c
181 0 _l
91 0 _l
91 547 _l
181 547 _l
181 462 _l
201 495 226 520 255 536 _c
283 552 317 560 357 560 _c
397 560 430 550 458 530 _c
486 510 506 480 520 442 _c
_cl}_e}_d
/n{634 0 91 0 549 560 _sc
549 330 _m
549 0 _l
459 0 _l
459 327 _l
459 379 448 417 428 443 _c
408 469 378 482 338 482 _c
289 482 251 466 223 435 _c
195 404 181 362 181 309 _c
181 0 _l
91 0 _l
91 547 _l
181 547 _l
181 462 _l
202 494 227 519 257 535 _c
286 551 320 560 358 560 _c
420 560 468 540 500 501 _c
532 462 549 405 549 330 _c
_cl}_d
/o{612 0 55 -13 557 560 _sc
306 484 _m
258 484 220 465 192 427 _c
164 389 150 338 150 273 _c
150 207 163 156 191 118 _c
219 80 257 62 306 62 _c
354 62 392 80 420 118 _c
448 156 462 207 462 273 _c
462 337 448 389 420 427 _c
392 465 354 484 306 484 _c
306 560 _m
384 560 445 534 490 484 _c
534 433 557 363 557 273 _c
557 183 534 113 490 63 _c
445 12 384 -13 306 -13 _c
227 -13 165 12 121 63 _c
77 113 55 183 55 273 _c
55 363 77 433 121 484 _c
165 534 227 560 306 560 _c
_cl}_d
/p{{635 0 91 -207 580 560 _sc
181 82 _m
181 -207 _l
91 -207 _l
91 547 _l
181 547 _l
181 464 _l
199 496 223 520 252 536 _c
281 552 316 560 356 560 _c
422 560 476 533 518 481 _c
559 428 580 359 580 273 _c
580 187 559 117 518 65 _c
476 13 422 -13 356 -13 _c
316 -13 281 -5 252 10 _c
223 25 199 49 181 82 _c
487 273 _m
487 339 473 390 446 428 _c
418 466 381 485 334 485 _c
}_e{286 485 249 466 222 428 _c
194 390 181 339 181 273 _c
181 207 194 155 222 117 _c
249 79 286 61 334 61 _c
381 61 418 79 446 117 _c
473 155 487 207 487 273 _c
_cl}_e}_d
/r{411 0 91 0 411 560 _sc
411 463 _m
401 469 390 473 378 476 _c
366 478 353 480 339 480 _c
288 480 249 463 222 430 _c
194 397 181 350 181 288 _c
181 0 _l
91 0 _l
91 547 _l
181 547 _l
181 462 _l
199 495 224 520 254 536 _c
284 552 321 560 365 560 _c
371 560 378 559 386 559 _c
393 558 401 557 411 555 _c
411 463 _l
_cl}_d
/s{{521 0 54 -13 472 560 _sc
443 531 _m
443 446 _l
417 458 391 468 364 475 _c
336 481 308 485 279 485 _c
234 485 200 478 178 464 _c
156 450 145 430 145 403 _c
145 382 153 366 169 354 _c
185 342 217 330 265 320 _c
296 313 _l
360 299 405 279 432 255 _c
458 230 472 195 472 151 _c
472 100 452 60 412 31 _c
372 1 316 -13 246 -13 _c
216 -13 186 -10 154 -5 _c
}_e{122 0 89 8 54 20 _c
54 113 _l
87 95 120 82 152 74 _c
184 65 216 61 248 61 _c
290 61 323 68 346 82 _c
368 96 380 117 380 144 _c
380 168 371 187 355 200 _c
339 213 303 226 247 238 _c
216 245 _l
160 257 119 275 95 299 _c
70 323 58 356 58 399 _c
58 450 76 490 112 518 _c
148 546 200 560 268 560 _c
301 560 332 557 362 552 _c
391 547 418 540 443 531 _c
}_e{_cl}_e}_d
/t{392 0 27 0 368 702 _sc
183 702 _m
183 547 _l
368 547 _l
368 477 _l
183 477 _l
183 180 _l
183 135 189 106 201 94 _c
213 81 238 75 276 75 _c
368 75 _l
368 0 _l
276 0 _l
206 0 158 13 132 39 _c
106 65 93 112 93 180 _c
93 477 _l
27 477 _l
27 547 _l
93 547 _l
93 702 _l
183 702 _l
_cl}_d
/u{634 0 85 -13 543 560 _sc
85 216 _m
85 547 _l
175 547 _l
175 219 _l
175 167 185 129 205 103 _c
225 77 255 64 296 64 _c
344 64 383 79 411 110 _c
439 141 453 183 453 237 _c
453 547 _l
543 547 _l
543 0 _l
453 0 _l
453 84 _l
431 50 405 26 377 10 _c
348 -5 315 -13 277 -13 _c
214 -13 166 6 134 45 _c
101 83 85 140 85 216 _c
311 560 _m
311 560 _l
_cl}_d
/v{592 0 30 0 562 547 _sc
30 547 _m
125 547 _l
296 88 _l
467 547 _l
562 547 _l
357 0 _l
235 0 _l
30 547 _l
_cl}_d
/y{592 0 30 -207 562 547 _sc
322 -50 _m
296 -114 271 -157 247 -177 _c
223 -197 191 -207 151 -207 _c
79 -207 _l
79 -132 _l
132 -132 _l
156 -132 175 -126 189 -114 _c
203 -102 218 -75 235 -31 _c
251 9 _l
30 547 _l
125 547 _l
296 119 _l
467 547 _l
562 547 _l
322 -50 _l
_cl}_d
/degree{{500 0 95 432 405 742 _sc
250 679 _m
224 679 202 670 184 652 _c
166 634 157 612 157 586 _c
157 560 166 538 184 520 _c
202 502 224 494 250 494 _c
276 494 298 502 316 520 _c
334 538 343 560 343 586 _c
343 612 334 634 316 652 _c
298 670 276 679 250 679 _c
250 742 _m
270 742 290 738 310 730 _c
329 722 346 710 360 696 _c
374 681 385 664 393 646 _c
401 627 405 607 405 586 _c
}_e{405 542 389 506 359 476 _c
329 446 292 432 249 432 _c
205 432 168 446 139 476 _c
109 505 95 542 95 586 _c
95 629 110 666 140 696 _c
170 726 206 742 250 742 _c
_cl}_e}_d
/ntilde{634 0 91 0 549 777 _sc
false CharStrings /n get exec
gsave 74 0 translate
false CharStrings /tilde get exec
grestore }_d
/tilde{{500 0 89 639 411 777 _sc
248 669 _m
220 696 _l
212 702 206 707 201 710 _c
195 713 191 715 187 715 _c
174 715 165 709 159 697 _c
153 685 150 665 150 639 _c
89 639 _l
89 683 98 717 115 741 _c
131 765 154 777 184 777 _c
196 777 208 774 218 770 _c
228 765 240 757 252 747 _c
280 720 _l
287 713 293 708 299 705 _c
304 702 309 701 313 701 _c
325 701 334 707 340 719 _c
}_e{346 731 349 750 350 777 _c
411 777 _l
410 733 401 699 385 675 _c
368 651 345 639 316 639 _c
303 639 291 641 281 646 _c
271 650 260 658 248 669 _c
_cl}_e}_d
/minus{838 0 106 272 732 355 _sc
106 355 _m
732 355 _l
732 272 _l
106 272 _l
106 355 _l
_cl}_d
end readonly def

/BuildGlyph
 {exch begin
 CharStrings exch
 2 copy known not{pop /.notdef}if
 true 3 1 roll get exec
 end}_d

/BuildChar {
 1 index /Encoding get exch get
 1 index /BuildGlyph get exec
}_d

FontName currentdict end definefont pop
%!PS-Adobe-3.0 Resource-Font
%%Title: DejaVu Sans Bold
%%Copyright: Copyright (c) 2003 by Bitstream, Inc. All Rights Reserved. Copyright (c) 2006 by Tavmjong Bah. All Rights Reserved. DejaVu changes are in public domain 
%%Creator: Converted from TrueType to type 3 by PPR
25 dict begin
/_d{bind def}bind def
/_m{moveto}_d
/_l{lineto}_d
/_cl{closepath eofill}_d
/_c{curveto}_d
/_sc{7 -1 roll{setcachedevice}{pop pop pop pop pop pop}ifelse}_d
/_e{exec}_d
/FontName /DejaVuSans-Bold def
/PaintType 0 def
/FontMatrix[.001 0 0 .001 0 0]def
/FontBBox[-1069 -415 1975 1174]def
/FontType 3 def
/Encoding [ /a /b /c /d ] def
/FontInfo 10 dict dup begin
/FamilyName (DejaVu Sans) def
/FullName (DejaVu Sans Bold) def
/Notice (Copyright (c) 2003 by Bitstream, Inc. All Rights Reserved. Copyright (c) 2006 by Tavmjong Bah. All Rights Reserved. DejaVu changes are in public domain ) def
/Weight (Bold) def
/Version (Version 2.35) def
/ItalicAngle 0.0 def
/isFixedPitch false def
/UnderlinePosition -130 def
/UnderlineThickness 90 def
end readonly def
/CharStrings 5 dict dup begin
/.notdef 0 def
/a{{675 0 43 -13 596 560 _sc
329 246 _m
292 246 264 239 246 227 _c
228 215 219 197 219 173 _c
219 151 226 133 241 121 _c
256 108 277 102 303 102 _c
336 102 364 113 386 137 _c
408 161 420 190 420 226 _c
420 246 _l
329 246 _l
596 312 _m
596 0 _l
420 0 _l
420 81 _l
396 47 370 23 341 9 _c
311 -5 276 -13 234 -13 _c
177 -13 131 3 96 36 _c
60 68 43 111 43 164 _c
}_e{43 228 65 275 109 305 _c
153 335 222 350 317 350 _c
420 350 _l
420 364 _l
420 391 409 411 387 424 _c
365 437 331 444 285 444 _c
247 444 212 440 180 432 _c
148 424 118 413 91 399 _c
91 532 _l
128 541 165 548 203 553 _c
241 557 279 560 317 560 _c
415 560 486 540 530 501 _c
574 462 596 399 596 312 _c
_cl}_e}_d
/b{{716 0 84 -13 671 760 _sc
375 113 _m
412 113 440 126 460 154 _c
480 181 490 221 490 273 _c
490 325 480 364 460 392 _c
440 419 412 433 375 433 _c
337 433 309 419 289 392 _c
269 364 259 325 259 273 _c
259 221 269 181 289 154 _c
309 126 337 113 375 113 _c
259 467 _m
283 499 309 522 339 537 _c
368 552 402 560 440 560 _c
507 560 562 533 606 479 _c
649 425 671 357 671 273 _c
}_e{671 188 649 119 606 66 _c
562 13 507 -13 440 -13 _c
402 -13 368 -5 339 9 _c
309 23 283 47 259 79 _c
259 0 _l
84 0 _l
84 760 _l
259 760 _l
259 467 _l
_cl}_e}_d
/c{{593 0 43 -13 526 560 _sc
526 530 _m
526 387 _l
502 403 478 415 454 423 _c
430 431 405 435 380 435 _c
331 435 293 420 266 392 _c
238 364 225 324 225 273 _c
225 221 238 181 266 153 _c
293 125 331 111 380 111 _c
407 111 433 115 458 123 _c
482 131 505 143 526 159 _c
526 16 _l
498 6 470 -1 442 -6 _c
414 -10 386 -13 358 -13 _c
259 -13 182 12 126 62 _c
}_e{70 112 43 183 43 273 _c
43 363 70 433 126 484 _c
182 534 259 560 358 560 _c
386 560 414 557 442 552 _c
470 547 498 540 526 530 _c
_cl}_e}_d
/d{{716 0 45 -13 632 760 _sc
456 467 _m
456 760 _l
632 760 _l
632 0 _l
456 0 _l
456 79 _l
432 47 405 23 376 9 _c
347 -5 314 -13 276 -13 _c
208 -13 153 13 110 66 _c
66 119 45 188 45 273 _c
45 357 66 425 110 479 _c
153 533 208 560 276 560 _c
314 560 347 552 376 537 _c
405 522 432 499 456 467 _c
341 113 _m
378 113 406 126 426 154 _c
446 181 456 221 456 273 _c
}_e{456 325 446 364 426 392 _c
406 419 378 433 341 433 _c
303 433 275 419 255 392 _c
235 364 226 325 226 273 _c
226 221 235 181 255 154 _c
275 126 303 113 341 113 _c
_cl}_e}_d
end readonly def

/BuildGlyph
 {exch begin
 CharStrings exch
 2 copy known not{pop /.notdef}if
 true 3 1 roll get exec
 end}_d

/BuildChar {
 1 index /Encoding get exch get
 1 index /BuildGlyph get exec
}_d

FontName currentdict end definefont pop
end
%%EndProlog
mpldict begin
-57.6 100.8 translate
727.2 590.4 0 0 clipbox
gsave
0 0 m
727.2 0 l
727.2 590.4 l
0 590.4 l
cl
1.000 setgray
fill
grestore
gsave
64.8 331.2 m
338.4 331.2 l
338.4 568.8 l
64.8 568.8 l
cl
1.000 setgray
fill
grestore
gsave
273.6 237.6 64.8 331.2 clipbox
65.8944 450 m
74.6496 450 l
74.6496 421.952575 l
65.8944 421.952575 l
cl
0.000 0.500 0.000 setrgbcolor
fill
grestore
gsave
273.6 237.6 64.8 331.2 clipbox
76.8384 450 m
85.5936 450 l
85.5936 434.286156 l
76.8384 434.286156 l
cl
0.000 0.500 0.000 setrgbcolor
fill
grestore
gsave
273.6 237.6 64.8 331.2 clipbox
87.7824 450 m
96.5376 450 l
96.5376 435.974498 l
87.7824 435.974498 l
cl
0.000 0.500 0.000 setrgbcolor
fill
grestore
gsave
273.6 237.6 64.8 331.2 clipbox
98.7264 450 m
107.4816 450 l
107.4816 413.887592 l
98.7264 413.887592 l
cl
0.000 0.500 0.000 setrgbcolor
fill
grestore
gsave
273.6 237.6 64.8 331.2 clipbox
109.6704 450 m
118.4256 450 l
118.4256 403.479657 l
109.6704 403.479657 l
cl
0.000 0.500 0.000 setrgbcolor
fill
grestore
gsave
273.6 237.6 64.8 331.2 clipbox
120.6144 450 m
129.3696 450 l
129.3696 395.503999 l
120.6144 395.503999 l
cl
0.000 0.500 0.000 setrgbcolor
fill
grestore
gsave
273.6 237.6 64.8 331.2 clipbox
131.5584 450 m
140.3136 450 l
140.3136 392.989947 l
131.5584 392.989947 l
cl
0.000 0.500 0.000 setrgbcolor
fill
grestore
gsave
273.6 237.6 64.8 331.2 clipbox
142.5024 450 m
151.2576 450 l
151.2576 417.952568 l
142.5024 417.952568 l
cl
0.000 0.500 0.000 setrgbcolor
fill
grestore
gsave
273.6 237.6 64.8 331.2 clipbox
153.4464 450 m
162.2016 450 l
162.2016 459.363839 l
153.4464 459.363839 l
cl
0.000 0.500 0.000 setrgbcolor
fill
grestore
gsave
273.6 237.6 64.8 331.2 clipbox
164.3904 450 m
173.1456 450 l
173.1456 509.300158 l
164.3904 509.300158 l
cl
0.000 0.500 0.000 setrgbcolor
fill
grestore
gsave
273.6 237.6 64.8 331.2 clipbox
175.3344 450 m
184.0896 450 l
184.0896 539.983925 l
175.3344 539.983925 l
cl
0.000 0.500 0.000 setrgbcolor
fill
grestore
gsave
273.6 237.6 64.8 331.2 clipbox
186.2784 450 m
195.0336 450 l
195.0336 550.293069 l
186.2784 550.293069 l
cl
0.000 0.500 0.000 setrgbcolor
fill
grestore
gsave
273.6 237.6 64.8 331.2 clipbox
197.2224 450 m
205.9776 450 l
205.9776 555.959609 l
197.2224 555.959609 l
cl
0.000 0.500 0.000 setrgbcolor
fill
grestore
gsave
273.6 237.6 64.8 331.2 clipbox
208.1664 450 m
216.9216 450 l
216.9216 557.346351 l
208.1664 557.346351 l
cl
0.000 0.500 0.000 setrgbcolor
fill
grestore
gsave
273.6 237.6 64.8 331.2 clipbox
219.1104 450 m
227.8656 450 l
227.8656 548.709096 l
219.1104 548.709096 l
cl
0.000 0.500 0.000 setrgbcolor
fill
grestore
gsave
273.6 237.6 64.8 331.2 clipbox
230.0544 450 m
238.8096 450 l
238.8096 523.984456 l
230.0544 523.984456 l
cl
0.000 0.500 0.000 setrgbcolor
fill
grestore
gsave
273.6 237.6 64.8 331.2 clipbox
240.9984 450 m
249.7536 450 l
249.7536 446.00312 l
240.9984 446.00312 l
cl
0.000 0.500 0.000 setrgbcolor
fill
grestore
gsave
273.6 237.6 64.8 331.2 clipbox
251.9424 450 m
260.6976 450 l
260.6976 394.476777 l
251.9424 394.476777 l
cl
0.000 0.500 0.000 setrgbcolor
fill
grestore
gsave
273.6 237.6 64.8 331.2 clipbox
262.8864 450 m
271.6416 450 l
271.6416 369.551466 l
262.8864 369.551466 l
cl
0.000 0.500 0.000 setrgbcolor
fill
grestore
gsave
273.6 237.6 64.8 331.2 clipbox
273.8304 450 m
282.5856 450 l
282.5856 359.607391 l
273.8304 359.607391 l
cl
0.000 0.500 0.000 setrgbcolor
fill
grestore
gsave
273.6 237.6 64.8 331.2 clipbox
284.7744 450 m
293.5296 450 l
293.5296 353.763554 l
284.7744 353.763554 l
cl
0.000 0.500 0.000 setrgbcolor
fill
grestore
gsave
273.6 237.6 64.8 331.2 clipbox
295.7184 450 m
304.4736 450 l
304.4736 350.803778 l
295.7184 350.803778 l
cl
0.000 0.500 0.000 setrgbcolor
fill
grestore
gsave
273.6 237.6 64.8 331.2 clipbox
306.6624 450 m
315.4176 450 l
315.4176 362.628059 l
306.6624 362.628059 l
cl
0.000 0.500 0.000 setrgbcolor
fill
grestore
gsave
273.6 237.6 64.8 331.2 clipbox
317.6064 450 m
326.3616 450 l
326.3616 385.062097 l
317.6064 385.062097 l
cl
0.000 0.500 0.000 setrgbcolor
fill
grestore
gsave
273.6 237.6 64.8 331.2 clipbox
328.5504 450 m
337.3056 450 l
337.3056 421.952575 l
328.5504 421.952575 l
cl
0.000 0.500 0.000 setrgbcolor
fill
grestore
0.500 setlinewidth
1 setlinejoin
0 setlinecap
[] 0 setdash
0.000 setgray
gsave
/o {
gsave
newpath
translate
0.5 setlinewidth
1 setlinejoin
0 setlinecap
0 0 m
0 -6 l

gsave
0.000 setgray
fill
grestore
stroke
grestore
} bind def
70.272 331.2 o
grestore
/DejaVuSans findfont
12.000 scalefont
setfont
gsave
66.451687 312.575000 translate
0.000000 rotate
0.000000 0 m /zero glyphshow
grestore
gsave
/o {
gsave
newpath
translate
0.5 setlinewidth
1 setlinejoin
0 setlinecap
0 0 m
0 -6 l

gsave
0.000 setgray
fill
grestore
stroke
grestore
} bind def
92.16 331.2 o
grestore
gsave
88.339687 312.575000 translate
0.000000 rotate
0.000000 0 m /two glyphshow
grestore
gsave
/o {
gsave
newpath
translate
0.5 setlinewidth
1 setlinejoin
0 setlinecap
0 0 m
0 -6 l

gsave
0.000 setgray
fill
grestore
stroke
grestore
} bind def
114.048 331.2 o
grestore
gsave
110.227687 312.575000 translate
0.000000 rotate
0.000000 0 m /four glyphshow
grestore
gsave
/o {
gsave
newpath
translate
0.5 setlinewidth
1 setlinejoin
0 setlinecap
0 0 m
0 -6 l

gsave
0.000 setgray
fill
grestore
stroke
grestore
} bind def
135.936 331.2 o
grestore
gsave
132.115687 312.575000 translate
0.000000 rotate
0.000000 0 m /six glyphshow
grestore
gsave
/o {
gsave
newpath
translate
0.5 setlinewidth
1 setlinejoin
0 setlinecap
0 0 m
0 -6 l

gsave
0.000 setgray
fill
grestore
stroke
grestore
} bind def
157.824 331.2 o
grestore
gsave
154.003687 312.575000 translate
0.000000 rotate
0.000000 0 m /eight glyphshow
grestore
gsave
/o {
gsave
newpath
translate
0.5 setlinewidth
1 setlinejoin
0 setlinecap
0 0 m
0 -6 l

gsave
0.000 setgray
fill
grestore
stroke
grestore
} bind def
179.712 331.2 o
grestore
gsave
172.071375 312.575000 translate
0.000000 rotate
0.000000 0 m /one glyphshow
7.634766 0 m /zero glyphshow
grestore
gsave
/o {
gsave
newpath
translate
0.5 setlinewidth
1 setlinejoin
0 setlinecap
0 0 m
0 -6 l

gsave
0.000 setgray
fill
grestore
stroke
grestore
} bind def
201.6 331.2 o
grestore
gsave
193.959375 312.575000 translate
0.000000 rotate
0.000000 0 m /one glyphshow
7.634766 0 m /two glyphshow
grestore
gsave
/o {
gsave
newpath
translate
0.5 setlinewidth
1 setlinejoin
0 setlinecap
0 0 m
0 -6 l

gsave
0.000 setgray
fill
grestore
stroke
grestore
} bind def
223.488 331.2 o
grestore
gsave
215.847375 312.575000 translate
0.000000 rotate
0.000000 0 m /one glyphshow
7.634766 0 m /four glyphshow
grestore
gsave
/o {
gsave
newpath
translate
0.5 setlinewidth
1 setlinejoin
0 setlinecap
0 0 m
0 -6 l

gsave
0.000 setgray
fill
grestore
stroke
grestore
} bind def
245.376 331.2 o
grestore
gsave
237.735375 312.575000 translate
0.000000 rotate
0.000000 0 m /one glyphshow
7.634766 0 m /six glyphshow
grestore
gsave
/o {
gsave
newpath
translate
0.5 setlinewidth
1 setlinejoin
0 setlinecap
0 0 m
0 -6 l

gsave
0.000 setgray
fill
grestore
stroke
grestore
} bind def
267.264 331.2 o
grestore
gsave
259.623375 312.575000 translate
0.000000 rotate
0.000000 0 m /one glyphshow
7.634766 0 m /eight glyphshow
grestore
gsave
/o {
gsave
newpath
translate
0.5 setlinewidth
1 setlinejoin
0 setlinecap
0 0 m
0 -6 l

gsave
0.000 setgray
fill
grestore
stroke
grestore
} bind def
289.152 331.2 o
grestore
gsave
281.511375 312.575000 translate
0.000000 rotate
0.000000 0 m /two glyphshow
7.634766 0 m /zero glyphshow
grestore
gsave
/o {
gsave
newpath
translate
0.5 setlinewidth
1 setlinejoin
0 setlinecap
0 0 m
0 -6 l

gsave
0.000 setgray
fill
grestore
stroke
grestore
} bind def
311.04 331.2 o
grestore
gsave
303.399375 312.575000 translate
0.000000 rotate
0.000000 0 m /two glyphshow
7.634766 0 m /two glyphshow
grestore
gsave
/o {
gsave
newpath
translate
0.5 setlinewidth
1 setlinejoin
0 setlinecap
0 0 m
0 -6 l

gsave
0.000 setgray
fill
grestore
stroke
grestore
} bind def
332.928 331.2 o
grestore
gsave
325.287375 312.575000 translate
0.000000 rotate
0.000000 0 m /two glyphshow
7.634766 0 m /four glyphshow
grestore
gsave
169.045312 296.950000 translate
0.000000 rotate
0.000000 0 m /U glyphshow
8.783203 0 m /T glyphshow
15.363281 0 m /C glyphshow
23.742188 0 m /comma glyphshow
27.556641 0 m /space glyphshow
31.371094 0 m /h glyphshow
38.976562 0 m /o glyphshow
46.318359 0 m /u glyphshow
53.923828 0 m /r glyphshow
58.857422 0 m /s glyphshow
grestore
2 setlinecap
gsave
273.6 237.6 64.8 331.2 clipbox
64.8 331.2 m
338.4 331.2 l
stroke
grestore
0 setlinecap
gsave
/o {
gsave
newpath
translate
0.5 setlinewidth
1 setlinejoin
0 setlinecap
0 0 m
-6 0 l

gsave
0.000 setgray
fill
grestore
stroke
grestore
} bind def
64.8 331.2 o
grestore
gsave
26.143750 326.637500 translate
0.000000 rotate
0.000000 0 m /minus glyphshow
10.054688 0 m /one glyphshow
17.689453 0 m /period glyphshow
21.503906 0 m /zero glyphshow
grestore
2 setlinecap
gsave
273.6 237.6 64.8 331.2 clipbox
64.8 354.96 m
338.4 354.96 l
stroke
grestore
0 setlinecap
gsave
/o {
gsave
newpath
translate
0.5 setlinewidth
1 setlinejoin
0 setlinecap
0 0 m
-6 0 l

gsave
0.000 setgray
fill
grestore
stroke
grestore
} bind def
64.8 354.96 o
grestore
gsave
26.143750 350.397500 translate
0.000000 rotate
0.000000 0 m /minus glyphshow
10.054688 0 m /zero glyphshow
17.689453 0 m /period glyphshow
21.503906 0 m /eight glyphshow
grestore
2 setlinecap
gsave
273.6 237.6 64.8 331.2 clipbox
64.8 378.72 m
338.4 378.72 l
stroke
grestore
0 setlinecap
gsave
/o {
gsave
newpath
translate
0.5 setlinewidth
1 setlinejoin
0 setlinecap
0 0 m
-6 0 l

gsave
0.000 setgray
fill
grestore
stroke
grestore
} bind def
64.8 378.72 o
grestore
gsave
26.143750 374.157500 translate
0.000000 rotate
0.000000 0 m /minus glyphshow
10.054688 0 m /zero glyphshow
17.689453 0 m /period glyphshow
21.503906 0 m /six glyphshow
grestore
2 setlinecap
gsave
273.6 237.6 64.8 331.2 clipbox
64.8 402.48 m
338.4 402.48 l
stroke
grestore
0 setlinecap
gsave
/o {
gsave
newpath
translate
0.5 setlinewidth
1 setlinejoin
0 setlinecap
0 0 m
-6 0 l

gsave
0.000 setgray
fill
grestore
stroke
grestore
} bind def
64.8 402.48 o
grestore
gsave
26.143750 397.917500 translate
0.000000 rotate
0.000000 0 m /minus glyphshow
10.054688 0 m /zero glyphshow
17.689453 0 m /period glyphshow
21.503906 0 m /four glyphshow
grestore
2 setlinecap
gsave
273.6 237.6 64.8 331.2 clipbox
64.8 426.24 m
338.4 426.24 l
stroke
grestore
0 setlinecap
gsave
/o {
gsave
newpath
translate
0.5 setlinewidth
1 setlinejoin
0 setlinecap
0 0 m
-6 0 l

gsave
0.000 setgray
fill
grestore
stroke
grestore
} bind def
64.8 426.24 o
grestore
gsave
26.143750 421.677500 translate
0.000000 rotate
0.000000 0 m /minus glyphshow
10.054688 0 m /zero glyphshow
17.689453 0 m /period glyphshow
21.503906 0 m /two glyphshow
grestore
2 setlinecap
gsave
273.6 237.6 64.8 331.2 clipbox
64.8 450 m
338.4 450 l
stroke
grestore
0 setlinecap
gsave
/o {
gsave
newpath
translate
0.5 setlinewidth
1 setlinejoin
0 setlinecap
0 0 m
-6 0 l

gsave
0.000 setgray
fill
grestore
stroke
grestore
} bind def
64.8 450 o
grestore
gsave
36.206250 445.437500 translate
0.000000 rotate
0.000000 0 m /zero glyphshow
7.634766 0 m /period glyphshow
11.449219 0 m /zero glyphshow
grestore
2 setlinecap
gsave
273.6 237.6 64.8 331.2 clipbox
64.8 473.76 m
338.4 473.76 l
stroke
grestore
0 setlinecap
gsave
/o {
gsave
newpath
translate
0.5 setlinewidth
1 setlinejoin
0 setlinecap
0 0 m
-6 0 l

gsave
0.000 setgray
fill
grestore
stroke
grestore
} bind def
64.8 473.76 o
grestore
gsave
26.143750 469.197500 translate
0.000000 rotate
0.000000 0 m /plus glyphshow
10.054688 0 m /zero glyphshow
17.689453 0 m /period glyphshow
21.503906 0 m /two glyphshow
grestore
2 setlinecap
gsave
273.6 237.6 64.8 331.2 clipbox
64.8 497.52 m
338.4 497.52 l
stroke
grestore
0 setlinecap
gsave
/o {
gsave
newpath
translate
0.5 setlinewidth
1 setlinejoin
0 setlinecap
0 0 m
-6 0 l

gsave
0.000 setgray
fill
grestore
stroke
grestore
} bind def
64.8 497.52 o
grestore
gsave
26.143750 492.957500 translate
0.000000 rotate
0.000000 0 m /plus glyphshow
10.054688 0 m /zero glyphshow
17.689453 0 m /period glyphshow
21.503906 0 m /four glyphshow
grestore
2 setlinecap
gsave
273.6 237.6 64.8 331.2 clipbox
64.8 521.28 m
338.4 521.28 l
stroke
grestore
0 setlinecap
gsave
/o {
gsave
newpath
translate
0.5 setlinewidth
1 setlinejoin
0 setlinecap
0 0 m
-6 0 l

gsave
0.000 setgray
fill
grestore
stroke
grestore
} bind def
64.8 521.28 o
grestore
gsave
26.143750 516.717500 translate
0.000000 rotate
0.000000 0 m /plus glyphshow
10.054688 0 m /zero glyphshow
17.689453 0 m /period glyphshow
21.503906 0 m /six glyphshow
grestore
2 setlinecap
gsave
273.6 237.6 64.8 331.2 clipbox
64.8 545.04 m
338.4 545.04 l
stroke
grestore
0 setlinecap
gsave
/o {
gsave
newpath
translate
0.5 setlinewidth
1 setlinejoin
0 setlinecap
0 0 m
-6 0 l

gsave
0.000 setgray
fill
grestore
stroke
grestore
} bind def
64.8 545.04 o
grestore
gsave
26.143750 540.477500 translate
0.000000 rotate
0.000000 0 m /plus glyphshow
10.054688 0 m /zero glyphshow
17.689453 0 m /period glyphshow
21.503906 0 m /eight glyphshow
grestore
2 setlinecap
gsave
273.6 237.6 64.8 331.2 clipbox
64.8 568.8 m
338.4 568.8 l
stroke
grestore
0 setlinecap
gsave
/o {
gsave
newpath
translate
0.5 setlinewidth
1 setlinejoin
0 setlinecap
0 0 m
-6 0 l

gsave
0.000 setgray
fill
grestore
stroke
grestore
} bind def
64.8 568.8 o
grestore
gsave
26.143750 564.237500 translate
0.000000 rotate
0.000000 0 m /plus glyphshow
10.054688 0 m /one glyphshow
17.689453 0 m /period glyphshow
21.503906 0 m /zero glyphshow
grestore
gsave
19.388000 383.656250 translate
90.000000 rotate
0.000000 0 m /C glyphshow
8.378906 0 m /o glyphshow
15.720703 0 m /r glyphshow
20.404297 0 m /r glyphshow
25.087891 0 m /e glyphshow
32.470703 0 m /l glyphshow
35.804688 0 m /a glyphshow
43.158203 0 m /t glyphshow
47.863281 0 m /i glyphshow
51.197266 0 m /o glyphshow
58.539062 0 m /n glyphshow
66.144531 0 m /space glyphshow
69.958984 0 m /c glyphshow
76.556641 0 m /o glyphshow
83.898438 0 m /e glyphshow
91.281250 0 m /f glyphshow
95.505859 0 m /f glyphshow
99.730469 0 m /i glyphshow
103.064453 0 m /c glyphshow
109.662109 0 m /i glyphshow
112.996094 0 m /e glyphshow
120.378906 0 m /n glyphshow
127.984375 0 m /t glyphshow
grestore
0 setlinejoin
2 setlinecap
[] 0 setdash
gsave
64.8 331.2 m
64.8 568.8 l
stroke
grestore
gsave
338.4 331.2 m
338.4 568.8 l
stroke
grestore
gsave
64.8 331.2 m
338.4 331.2 l
stroke
grestore
gsave
64.8 568.8 m
338.4 568.8 l
stroke
grestore
/DejaVuSans-Bold findfont
14.400 scalefont
setfont
gsave
7.632000 576.552000 translate
0.000000 rotate
0.000000 0 m /a glyphshow
grestore
gsave
403.2 331.2 m
640.8 331.2 l
640.8 568.8 l
403.2 568.8 l
cl
1.000 setgray
fill
grestore
gsave
237.6 237.6 403.2 331.2 clipbox
432.884875 450 m
432.9 450.071469 l
434.7 458.545352 l
436.5 466.83202 l
438.3 472.268868 l
440.1 480.33753 l
441.9 487.683522 l
443.7 497.331004 l
445.5 502.478545 l
447.3 505.746709 l
449.1 500.489491 l
450.9 488.053621 l
452.7 468.431605 l
454.375253 450 l
452.7 450 l
450.9 450 l
449.1 450 l
447.3 450 l
445.5 450 l
443.7 450 l
441.9 450 l
440.1 450 l
438.3 450 l
436.5 450 l
434.7 450 l
432.9 450 l
cl
1.000 0.500 0.500 setrgbcolor
fill
grestore
gsave
237.6 237.6 403.2 331.2 clipbox
537.950616 450 m
539.1 452.639768 l
540.9 456.664732 l
542.7 458.51539 l
544.5 459.973289 l
546.3 460.593342 l
548.1 462.098375 l
549.9 466.403408 l
551.7 472.392193 l
553.5 475.719125 l
555.3 478.225147 l
557.1 480.180821 l
558.9 482.11769 l
560.7 484.327245 l
562.5 488.21459 l
564.3 497.378276 l
566.1 506.769879 l
567.9 517.649001 l
569.7 528.746449 l
571.5 538.12864 l
573.3 545.735303 l
575.1 548.956238 l
576.9 543.834372 l
578.7 532.224101 l
580.5 514.147613 l
582.3 490.685842 l
584.1 467.842042 l
585.677373 450 l
584.1 450 l
582.3 450 l
580.5 450 l
578.7 450 l
576.9 450 l
575.1 450 l
573.3 450 l
571.5 450 l
569.7 450 l
567.9 450 l
566.1 450 l
564.3 450 l
562.5 450 l
560.7 450 l
558.9 450 l
557.1 450 l
555.3 450 l
553.5 450 l
551.7 450 l
549.9 450 l
548.1 450 l
546.3 450 l
544.5 450 l
542.7 450 l
540.9 450 l
539.1 450 l
cl
1.000 0.500 0.500 setrgbcolor
fill
grestore
gsave
237.6 237.6 403.2 331.2 clipbox
/o {
gsave
newpath
translate
454.375253 450 m
454.5 448.627493 l
456.3 429.338268 l
458.1 412.265433 l
459.9 399.363426 l
461.7 390.689538 l
463.5 384.545714 l
465.3 384.250236 l
467.1 387.822544 l
468.9 394.798987 l
470.7 402.249814 l
472.5 412.192629 l
474.3 420.104834 l
476.1 425.373146 l
477.9 427.664326 l
479.7 427.732015 l
481.5 425.332622 l
483.3 418.9417 l
485.1 412.555687 l
486.9 411.662216 l
488.7 412.62339 l
490.5 416.536401 l
492.3 422.45766 l
494.1 429.867892 l
495.9 436.277226 l
497.7 443.27379 l
499.172648 450 l
497.7 450 l
495.9 450 l
494.1 450 l
492.3 450 l
490.5 450 l
488.7 450 l
486.9 450 l
485.1 450 l
483.3 450 l
481.5 450 l
479.7 450 l
477.9 450 l
476.1 450 l
474.3 450 l
472.5 450 l
470.7 450 l
468.9 450 l
467.1 450 l
465.3 450 l
463.5 450 l
461.7 450 l
459.9 450 l
458.1 450 l
456.3 450 l
454.5 450 l
cl

0.500 0.900 0.900 setrgbcolor
fill
grestore
} bind def
0 0 o
grestore
1 setlinejoin
[] 0 setdash
gsave
237.6 237.6 403.2 331.2 clipbox
403.2 331.2 m
403.2 568.8 l
stroke
grestore
0 setlinecap
gsave
/o {
gsave
newpath
translate
0.5 setlinewidth
1 setlinejoin
0 setlinecap
0 0 m
0 -6 l

gsave
0.000 setgray
fill
grestore
stroke
grestore
} bind def
403.2 331.2 o
grestore
2 setlinecap
gsave
237.6 237.6 403.2 331.2 clipbox
424.8 331.2 m
424.8 568.8 l
stroke
grestore
0 setlinecap
gsave
/o {
gsave
newpath
translate
0.5 setlinewidth
1 setlinejoin
0 setlinecap
0 0 m
0 -6 l

gsave
0.000 setgray
fill
grestore
stroke
grestore
} bind def
424.8 331.2 o
grestore
2 setlinecap
gsave
237.6 237.6 403.2 331.2 clipbox
446.4 331.2 m
446.4 568.8 l
stroke
grestore
0 setlinecap
gsave
/o {
gsave
newpath
translate
0.5 setlinewidth
1 setlinejoin
0 setlinecap
0 0 m
0 -6 l

gsave
0.000 setgray
fill
grestore
stroke
grestore
} bind def
446.4 331.2 o
grestore
2 setlinecap
gsave
237.6 237.6 403.2 331.2 clipbox
468 331.2 m
468 568.8 l
stroke
grestore
0 setlinecap
gsave
/o {
gsave
newpath
translate
0.5 setlinewidth
1 setlinejoin
0 setlinecap
0 0 m
0 -6 l

gsave
0.000 setgray
fill
grestore
stroke
grestore
} bind def
468 331.2 o
grestore
2 setlinecap
gsave
237.6 237.6 403.2 331.2 clipbox
489.6 331.2 m
489.6 568.8 l
stroke
grestore
0 setlinecap
gsave
/o {
gsave
newpath
translate
0.5 setlinewidth
1 setlinejoin
0 setlinecap
0 0 m
0 -6 l

gsave
0.000 setgray
fill
grestore
stroke
grestore
} bind def
489.6 331.2 o
grestore
2 setlinecap
gsave
237.6 237.6 403.2 331.2 clipbox
511.2 331.2 m
511.2 568.8 l
stroke
grestore
0 setlinecap
gsave
/o {
gsave
newpath
translate
0.5 setlinewidth
1 setlinejoin
0 setlinecap
0 0 m
0 -6 l

gsave
0.000 setgray
fill
grestore
stroke
grestore
} bind def
511.2 331.2 o
grestore
2 setlinecap
gsave
237.6 237.6 403.2 331.2 clipbox
532.8 331.2 m
532.8 568.8 l
stroke
grestore
0 setlinecap
gsave
/o {
gsave
newpath
translate
0.5 setlinewidth
1 setlinejoin
0 setlinecap
0 0 m
0 -6 l

gsave
0.000 setgray
fill
grestore
stroke
grestore
} bind def
532.8 331.2 o
grestore
2 setlinecap
gsave
237.6 237.6 403.2 331.2 clipbox
554.4 331.2 m
554.4 568.8 l
stroke
grestore
0 setlinecap
gsave
/o {
gsave
newpath
translate
0.5 setlinewidth
1 setlinejoin
0 setlinecap
0 0 m
0 -6 l

gsave
0.000 setgray
fill
grestore
stroke
grestore
} bind def
554.4 331.2 o
grestore
2 setlinecap
gsave
237.6 237.6 403.2 331.2 clipbox
576 331.2 m
576 568.8 l
stroke
grestore
0 setlinecap
gsave
/o {
gsave
newpath
translate
0.5 setlinewidth
1 setlinejoin
0 setlinecap
0 0 m
0 -6 l

gsave
0.000 setgray
fill
grestore
stroke
grestore
} bind def
576 331.2 o
grestore
2 setlinecap
gsave
237.6 237.6 403.2 331.2 clipbox
597.6 331.2 m
597.6 568.8 l
stroke
grestore
0 setlinecap
gsave
/o {
gsave
newpath
translate
0.5 setlinewidth
1 setlinejoin
0 setlinecap
0 0 m
0 -6 l

gsave
0.000 setgray
fill
grestore
stroke
grestore
} bind def
597.6 331.2 o
grestore
2 setlinecap
gsave
237.6 237.6 403.2 331.2 clipbox
619.2 331.2 m
619.2 568.8 l
stroke
grestore
0 setlinecap
gsave
/o {
gsave
newpath
translate
0.5 setlinewidth
1 setlinejoin
0 setlinecap
0 0 m
0 -6 l

gsave
0.000 setgray
fill
grestore
stroke
grestore
} bind def
619.2 331.2 o
grestore
2 setlinecap
gsave
237.6 237.6 403.2 331.2 clipbox
640.8 331.2 m
640.8 568.8 l
stroke
grestore
0 setlinecap
gsave
/o {
gsave
newpath
translate
0.5 setlinewidth
1 setlinejoin
0 setlinecap
0 0 m
0 -6 l

gsave
0.000 setgray
fill
grestore
stroke
grestore
} bind def
640.8 331.2 o
grestore
/DejaVuSans findfont
12.000 scalefont
setfont
gsave
406.359375 312.575000 translate
0.000000 rotate
0.000000 0 m /zero glyphshow
7.634766 0 m /eight glyphshow
grestore
gsave
427.959375 312.575000 translate
0.000000 rotate
0.000000 0 m /zero glyphshow
7.634766 0 m /nine glyphshow
grestore
gsave
449.559375 312.575000 translate
0.000000 rotate
0.000000 0 m /one glyphshow
7.634766 0 m /zero glyphshow
grestore
gsave
471.159375 312.575000 translate
0.000000 rotate
0.000000 0 m /one glyphshow
7.634766 0 m /one glyphshow
grestore
gsave
492.759375 312.575000 translate
0.000000 rotate
0.000000 0 m /one glyphshow
7.634766 0 m /two glyphshow
grestore
gsave
514.359375 312.575000 translate
0.000000 rotate
0.000000 0 m /one glyphshow
7.634766 0 m /three glyphshow
grestore
gsave
535.959375 312.575000 translate
0.000000 rotate
0.000000 0 m /one glyphshow
7.634766 0 m /four glyphshow
grestore
gsave
557.559375 312.575000 translate
0.000000 rotate
0.000000 0 m /one glyphshow
7.634766 0 m /five glyphshow
grestore
gsave
579.159375 312.575000 translate
0.000000 rotate
0.000000 0 m /one glyphshow
7.634766 0 m /six glyphshow
grestore
gsave
600.759375 312.575000 translate
0.000000 rotate
0.000000 0 m /one glyphshow
7.634766 0 m /seven glyphshow
grestore
gsave
622.359375 312.575000 translate
0.000000 rotate
0.000000 0 m /one glyphshow
7.634766 0 m /eight glyphshow
grestore
gsave
509.304687 296.950000 translate
0.000000 rotate
0.000000 0 m /Y glyphshow
5.705078 0 m /e glyphshow
13.087891 0 m /a glyphshow
20.441406 0 m /r glyphshow
grestore
2 setlinecap
gsave
237.6 237.6 403.2 331.2 clipbox
403.2 331.2 m
640.8 331.2 l
stroke
grestore
0 setlinecap
gsave
/o {
gsave
newpath
translate
0.5 setlinewidth
1 setlinejoin
0 setlinecap
0 0 m
-6 0 l

gsave
0.000 setgray
fill
grestore
stroke
grestore
} bind def
403.2 331.2 o
grestore
gsave
375.996875 326.637500 translate
0.000000 rotate
0.000000 0 m /minus glyphshow
10.054688 0 m /three glyphshow
grestore
2 setlinecap
gsave
237.6 237.6 403.2 331.2 clipbox
403.2 370.8 m
640.8 370.8 l
stroke
grestore
0 setlinecap
gsave
/o {
gsave
newpath
translate
0.5 setlinewidth
1 setlinejoin
0 setlinecap
0 0 m
-6 0 l

gsave
0.000 setgray
fill
grestore
stroke
grestore
} bind def
403.2 370.8 o
grestore
gsave
375.996875 366.237500 translate
0.000000 rotate
0.000000 0 m /minus glyphshow
10.054688 0 m /two glyphshow
grestore
2 setlinecap
gsave
237.6 237.6 403.2 331.2 clipbox
403.2 410.4 m
640.8 410.4 l
stroke
grestore
0 setlinecap
gsave
/o {
gsave
newpath
translate
0.5 setlinewidth
1 setlinejoin
0 setlinecap
0 0 m
-6 0 l

gsave
0.000 setgray
fill
grestore
stroke
grestore
} bind def
403.2 410.4 o
grestore
gsave
375.996875 405.837500 translate
0.000000 rotate
0.000000 0 m /minus glyphshow
10.054688 0 m /one glyphshow
grestore
2 setlinecap
gsave
237.6 237.6 403.2 331.2 clipbox
403.2 450 m
640.8 450 l
stroke
grestore
0 setlinecap
gsave
/o {
gsave
newpath
translate
0.5 setlinewidth
1 setlinejoin
0 setlinecap
0 0 m
-6 0 l

gsave
0.000 setgray
fill
grestore
stroke
grestore
} bind def
403.2 450 o
grestore
gsave
386.059375 445.437500 translate
0.000000 rotate
0.000000 0 m /zero glyphshow
grestore
2 setlinecap
gsave
237.6 237.6 403.2 331.2 clipbox
403.2 489.6 m
640.8 489.6 l
stroke
grestore
0 setlinecap
gsave
/o {
gsave
newpath
translate
0.5 setlinewidth
1 setlinejoin
0 setlinecap
0 0 m
-6 0 l

gsave
0.000 setgray
fill
grestore
stroke
grestore
} bind def
403.2 489.6 o
grestore
gsave
375.996875 485.037500 translate
0.000000 rotate
0.000000 0 m /plus glyphshow
10.054688 0 m /one glyphshow
grestore
2 setlinecap
gsave
237.6 237.6 403.2 331.2 clipbox
403.2 529.2 m
640.8 529.2 l
stroke
grestore
0 setlinecap
gsave
/o {
gsave
newpath
translate
0.5 setlinewidth
1 setlinejoin
0 setlinecap
0 0 m
-6 0 l

gsave
0.000 setgray
fill
grestore
stroke
grestore
} bind def
403.2 529.2 o
grestore
gsave
375.996875 524.637500 translate
0.000000 rotate
0.000000 0 m /plus glyphshow
10.054688 0 m /two glyphshow
grestore
2 setlinecap
gsave
237.6 237.6 403.2 331.2 clipbox
403.2 568.8 m
640.8 568.8 l
stroke
grestore
0 setlinecap
gsave
/o {
gsave
newpath
translate
0.5 setlinewidth
1 setlinejoin
0 setlinecap
0 0 m
-6 0 l

gsave
0.000 setgray
fill
grestore
stroke
grestore
} bind def
403.2 568.8 o
grestore
gsave
375.996875 564.237500 translate
0.000000 rotate
0.000000 0 m /plus glyphshow
10.054688 0 m /three glyphshow
grestore
0.500 0.000 0.500 setrgbcolor
gsave
369.496875 353.359375 translate
90.000000 rotate
0.000000 0 m /A glyphshow
8.208984 0 m /n glyphshow
15.814453 0 m /o glyphshow
23.156250 0 m /m glyphshow
34.845703 0 m /a glyphshow
42.199219 0 m /l glyphshow
45.533203 0 m /y glyphshow
52.634766 0 m /space glyphshow
56.449219 0 m /i glyphshow
59.783203 0 m /n glyphshow
67.388672 0 m /space glyphshow
71.203125 0 m /t glyphshow
75.908203 0 m /h glyphshow
83.513672 0 m /e glyphshow
90.896484 0 m /space glyphshow
94.710938 0 m /N glyphshow
103.687500 0 m /i glyphshow
107.021484 0 m /ntilde glyphshow
114.626953 0 m /o glyphshow
121.968750 0 m /space glyphshow
125.783203 0 m /three glyphshow
133.417969 0 m /period glyphshow
137.232422 0 m /four glyphshow
144.867188 0 m /space glyphshow
148.681641 0 m /S glyphshow
156.298828 0 m /S glyphshow
163.916016 0 m /T glyphshow
171.246094 0 m /comma glyphshow
175.060547 0 m /space glyphshow
178.875000 0 m /degree glyphshow
184.875000 0 m /C glyphshow
grestore
0 setlinejoin
2 setlinecap
[] 0 setdash
0.000 setgray
gsave
403.2 331.2 m
403.2 568.8 l
stroke
grestore
gsave
640.8 331.2 m
640.8 568.8 l
stroke
grestore
gsave
403.2 331.2 m
640.8 331.2 l
stroke
grestore
gsave
403.2 568.8 m
640.8 568.8 l
stroke
grestore
/DejaVuSans-Bold findfont
14.400 scalefont
setfont
gsave
358.056000 576.552000 translate
0.000000 rotate
0.000000 0 m /c glyphshow
grestore
1.500 setlinewidth
1 setlinejoin
[] 0 setdash
0.500 0.000 0.500 setrgbcolor
gsave
407.7 401.651968 m
409.5 408.815063 l
411.3 419.251609 l
413.1 428.569204 l
414.9 434.058367 l
416.7 437.192758 l
418.5 438.369786 l
420.3 433.781464 l
422.1 427.556128 l
423.9 425.383931 l
425.7 424.21981 l
427.5 425.304391 l
429.3 433.139464 l
436.5 466.83202 l
438.3 472.268868 l
440.1 480.33753 l
441.9 487.683522 l
443.7 497.331004 l
445.5 502.478545 l
447.3 505.746709 l
449.1 500.489491 l
450.9 488.053621 l
456.3 429.338268 l
458.1 412.265433 l
459.9 399.363426 l
461.7 390.689538 l
463.5 384.545714 l
465.3 384.250236 l
467.1 387.822544 l
468.9 394.798987 l
470.7 402.249814 l
472.5 412.192629 l
474.3 420.104834 l
476.1 425.373146 l
477.9 427.664326 l
479.7 427.732015 l
481.5 425.332622 l
485.1 412.555687 l
486.9 411.662216 l
488.7 412.62339 l
490.5 416.536401 l
492.3 422.45766 l
494.1 429.867892 l
495.9 436.277226 l
497.7 443.27379 l
499.5 451.495156 l
501.3 458.648064 l
503.1 461.732706 l
504.9 463.170372 l
506.7 459.621777 l
510.3 449.029973 l
512.1 446.562381 l
513.9 443.894968 l
515.7 443.359615 l
521.1 436.881962 l
522.9 437.12843 l
524.7 435.988687 l
526.5 437.364446 l
528.3 440.272965 l
530.1 442.234816 l
531.9 440.537109 l
533.7 441.835659 l
535.5 444.939564 l
537.3 448.505743 l
540.9 456.664732 l
542.7 458.51539 l
544.5 459.973289 l
546.3 460.593342 l
548.1 462.098375 l
549.9 466.403408 l
551.7 472.392193 l
553.5 475.719125 l
555.3 478.225147 l
558.9 482.11769 l
560.7 484.327245 l
562.5 488.21459 l
566.1 506.769879 l
569.7 528.746449 l
571.5 538.12864 l
573.3 545.735303 l
575.1 548.956238 l
576.9 543.834372 l
578.7 532.224101 l
580.5 514.147613 l
584.1 467.842042 l
585.9 447.481808 l
587.7 433.542804 l
589.5 426.169657 l
591.3 421.791528 l
593.1 422.882645 l
594.9 428.296724 l
598.5 443.580831 l
600.3 452.214999 l
602.1 459.610457 l
603.9 462.667583 l
605.7 461.783307 l
607.5 459.628474 l
609.3 454.07481 l
611.1 447.1186 l
612.9 437.215825 l
614.7 428.035445 l
616.5 425.000977 l
618.3 424.38319 l
620.1 424.385672 l
621.9 430.68461 l
623.7 437.717769 l
625.5 443.282289 l
627.3 449.842119 l
630.9 458.974889 l
632.7 466.590334 l
636.3 476.088733 l
636.3 476.088733 l
stroke
grestore
0.500 setlinewidth
0 setlinecap
0.000 setgray
gsave
/o {
gsave
newpath
translate
0.5 setlinewidth
1 setlinejoin
0 setlinecap
0 0 m
6 0 l

gsave
0.000 setgray
fill
grestore
stroke
grestore
} bind def
640.8 331.2 o
grestore
/DejaVuSans findfont
12.000 scalefont
setfont
gsave
650.300000 326.637500 translate
0.000000 rotate
0.000000 0 m /minus glyphshow
10.054688 0 m /zero glyphshow
17.689453 0 m /period glyphshow
21.503906 0 m /zero glyphshow
29.138672 0 m /three glyphshow
grestore
gsave
/o {
gsave
newpath
translate
0.5 setlinewidth
1 setlinejoin
0 setlinecap
0 0 m
6 0 l

gsave
0.000 setgray
fill
grestore
stroke
grestore
} bind def
640.8 370.8 o
grestore
gsave
650.300000 366.237500 translate
0.000000 rotate
0.000000 0 m /minus glyphshow
10.054688 0 m /zero glyphshow
17.689453 0 m /period glyphshow
21.503906 0 m /zero glyphshow
29.138672 0 m /two glyphshow
grestore
gsave
/o {
gsave
newpath
translate
0.5 setlinewidth
1 setlinejoin
0 setlinecap
0 0 m
6 0 l

gsave
0.000 setgray
fill
grestore
stroke
grestore
} bind def
640.8 410.4 o
grestore
gsave
650.300000 405.837500 translate
0.000000 rotate
0.000000 0 m /minus glyphshow
10.054688 0 m /zero glyphshow
17.689453 0 m /period glyphshow
21.503906 0 m /zero glyphshow
29.138672 0 m /one glyphshow
grestore
gsave
/o {
gsave
newpath
translate
0.5 setlinewidth
1 setlinejoin
0 setlinecap
0 0 m
6 0 l

gsave
0.000 setgray
fill
grestore
stroke
grestore
} bind def
640.8 450 o
grestore
gsave
650.300000 445.437500 translate
0.000000 rotate
0.000000 0 m /zero glyphshow
7.634766 0 m /period glyphshow
11.449219 0 m /zero glyphshow
19.083984 0 m /zero glyphshow
grestore
gsave
/o {
gsave
newpath
translate
0.5 setlinewidth
1 setlinejoin
0 setlinecap
0 0 m
6 0 l

gsave
0.000 setgray
fill
grestore
stroke
grestore
} bind def
640.8 489.6 o
grestore
gsave
650.300000 485.037500 translate
0.000000 rotate
0.000000 0 m /plus glyphshow
10.054688 0 m /zero glyphshow
17.689453 0 m /period glyphshow
21.503906 0 m /zero glyphshow
29.138672 0 m /one glyphshow
grestore
gsave
/o {
gsave
newpath
translate
0.5 setlinewidth
1 setlinejoin
0 setlinecap
0 0 m
6 0 l

gsave
0.000 setgray
fill
grestore
stroke
grestore
} bind def
640.8 529.2 o
grestore
gsave
650.300000 524.637500 translate
0.000000 rotate
0.000000 0 m /plus glyphshow
10.054688 0 m /zero glyphshow
17.689453 0 m /period glyphshow
21.503906 0 m /zero glyphshow
29.138672 0 m /two glyphshow
grestore
gsave
/o {
gsave
newpath
translate
0.5 setlinewidth
1 setlinejoin
0 setlinecap
0 0 m
6 0 l

gsave
0.000 setgray
fill
grestore
stroke
grestore
} bind def
640.8 568.8 o
grestore
gsave
650.300000 564.237500 translate
0.000000 rotate
0.000000 0 m /plus glyphshow
10.054688 0 m /zero glyphshow
17.689453 0 m /period glyphshow
21.503906 0 m /zero glyphshow
29.138672 0 m /three glyphshow
grestore
0.000 0.000 1.000 setrgbcolor
gsave
707.046875 520.007812 translate
270.000000 rotate
0.000000 0 m /A glyphshow
8.208984 0 m /n glyphshow
15.814453 0 m /o glyphshow
23.156250 0 m /m glyphshow
34.845703 0 m /a glyphshow
42.199219 0 m /l glyphshow
45.533203 0 m /y glyphshow
52.634766 0 m /space glyphshow
56.449219 0 m /i glyphshow
59.783203 0 m /n glyphshow
67.388672 0 m /space glyphshow
71.203125 0 m /t glyphshow
75.908203 0 m /h glyphshow
83.513672 0 m /e glyphshow
90.896484 0 m /space glyphshow
94.710938 0 m /r glyphshow
99.394531 0 m /e glyphshow
106.777344 0 m /l glyphshow
110.111328 0 m /a glyphshow
117.464844 0 m /t glyphshow
122.169922 0 m /i glyphshow
125.503906 0 m /v glyphshow
132.605469 0 m /e glyphshow
grestore
gsave
693.596875 554.203125 translate
270.000000 rotate
0.000000 0 m /i glyphshow
3.333984 0 m /o glyphshow
10.675781 0 m /n glyphshow
18.281250 0 m /o glyphshow
25.623047 0 m /s glyphshow
31.875000 0 m /p glyphshow
39.492188 0 m /h glyphshow
47.097656 0 m /e glyphshow
54.480469 0 m /r glyphshow
59.414062 0 m /i glyphshow
62.748047 0 m /c glyphshow
69.345703 0 m /space glyphshow
73.160156 0 m /p glyphshow
80.777344 0 m /o glyphshow
88.119141 0 m /t glyphshow
92.824219 0 m /e glyphshow
100.207031 0 m /n glyphshow
107.812500 0 m /t glyphshow
112.517578 0 m /i glyphshow
115.851562 0 m /a glyphshow
123.205078 0 m /l glyphshow
126.539062 0 m /space glyphshow
130.353516 0 m /a glyphshow
137.707031 0 m /t glyphshow
142.412109 0 m /space glyphshow
146.226562 0 m /one glyphshow
153.861328 0 m /three glyphshow
161.496094 0 m /colon glyphshow
165.539062 0 m /zero glyphshow
173.173828 0 m /zero glyphshow
180.808594 0 m /space glyphshow
184.623047 0 m /U glyphshow
193.406250 0 m /T glyphshow
199.986328 0 m /C glyphshow
grestore
1.500 setlinewidth
2 setlinecap
gsave
407.7 365.924841 m
409.5 357.557865 l
411.3 386.991923 l
413.1 433.189323 l
414.9 454.699034 l
416.7 456.772832 l
418.5 444.372636 l
420.3 442.570161 l
422.1 410.637579 l
423.9 392.419169 l
425.7 387.432079 l
427.5 393.743788 l
429.3 401.172636 l
431.1 422.283013 l
432.9 446.854948 l
434.7 463.227346 l
436.5 491.636733 l
438.3 517.210093 l
440.1 533.293359 l
441.9 528.248193 l
443.7 531.63723 l
445.5 545.959718 l
447.3 543.815172 l
449.1 524.563607 l
450.9 522.030309 l
452.7 510.997551 l
454.5 456.753096 l
458.1 394.89599 l
461.7 345.572009 l
463.5 347.259767 l
465.3 338.372021 l
467.1 355.34575 l
468.9 344.893247 l
470.7 346.136139 l
472.5 358.528514 l
474.3 364.428624 l
476.1 369.568276 l
477.9 406.439209 l
479.7 431.459835 l
481.5 434.065246 l
483.3 452.044667 l
485.1 443.973417 l
486.9 420.538622 l
488.7 386.375446 l
490.5 375.989008 l
492.3 358.019302 l
494.1 375.777522 l
495.9 418.245458 l
497.7 451.948198 l
499.5 465.41574 l
501.3 477.50039 l
503.1 480.517949 l
504.9 468.013937 l
506.7 470.320478 l
508.5 498.982365 l
510.3 484.927931 l
512.1 496.62656 l
515.7 465.878957 l
517.5 427.580007 l
519.3 435.564935 l
521.1 417.484312 l
522.9 422.632831 l
524.7 429.225748 l
526.5 429.787494 l
528.3 443.320926 l
530.1 460.251902 l
531.9 471.82067 l
533.7 479.554143 l
535.5 508.833599 l
537.3 514.200243 l
540.9 474.524377 l
542.7 467.412351 l
544.5 449.69304 l
546.3 445.716093 l
548.1 456.092258 l
549.9 465.268856 l
551.7 467.06225 l
553.5 476.010728 l
555.3 474.50173 l
557.1 504.489928 l
558.9 516.76176 l
560.7 523.174598 l
562.5 531.796325 l
564.3 533.753899 l
566.1 527.620713 l
567.9 539.335781 l
569.7 548.025807 l
571.5 554.736902 l
575.1 566.459733 l
576.9 576.519306 l
578.7 582.506875 l
582.3 528.516934 l
584.1 513.105697 l
585.9 464.411682 l
587.7 428.115041 l
589.5 406.970093 l
591.3 410.403246 l
593.1 385.449171 l
594.9 398.402309 l
596.7 416.32655 l
598.5 435.641238 l
600.3 445.268835 l
602.1 449.6226 l
603.9 459.246677 l
605.7 460.613231 l
609.3 440.8294 l
611.1 440.102039 l
612.9 426.667689 l
614.7 417.517065 l
616.5 402.554196 l
618.3 416.665773 l
620.1 429.861148 l
621.9 420.155482 l
623.7 418.666402 l
625.5 436.768281 l
627.3 421.158711 l
629.1 421.301002 l
630.9 429.1803 l
632.7 426.707432 l
634.5 430.719711 l
636.3 439.28325 l
636.3 439.28325 l
stroke
grestore
gsave
50.4 43.2 m
288 43.2 l
288 280.8 l
50.4 280.8 l
cl
1.000 setgray
fill
grestore
gsave
237.6 237.6 50.4 43.2 clipbox
52.56 -907.2 m
61.2 -907.2 l
61.2 119.919049 l
52.56 119.919049 l
cl
0.500 0.000 0.500 setrgbcolor
fill
grestore
gsave
237.6 237.6 50.4 43.2 clipbox
74.16 -907.2 m
82.8 -907.2 l
82.8 212.679466 l
74.16 212.679466 l
cl
0.500 0.000 0.500 setrgbcolor
fill
grestore
gsave
237.6 237.6 50.4 43.2 clipbox
95.76 -907.2 m
104.4 -907.2 l
104.4 83.371682 l
95.76 83.371682 l
cl
0.500 0.000 0.500 setrgbcolor
fill
grestore
gsave
237.6 237.6 50.4 43.2 clipbox
117.36 -907.2 m
126 -907.2 l
126 105.709159 l
117.36 105.709159 l
cl
0.500 0.000 0.500 setrgbcolor
fill
grestore
gsave
237.6 237.6 50.4 43.2 clipbox
138.96 -907.2 m
147.6 -907.2 l
147.6 146.421829 l
138.96 146.421829 l
cl
0.500 0.000 0.500 setrgbcolor
fill
grestore
gsave
237.6 237.6 50.4 43.2 clipbox
160.56 -907.2 m
169.2 -907.2 l
169.2 148.668195 l
160.56 148.668195 l
cl
0.500 0.000 0.500 setrgbcolor
fill
grestore
gsave
237.6 237.6 50.4 43.2 clipbox
182.16 -907.2 m
190.8 -907.2 l
190.8 180.028893 l
182.16 180.028893 l
cl
0.500 0.000 0.500 setrgbcolor
fill
grestore
gsave
237.6 237.6 50.4 43.2 clipbox
203.76 -907.2 m
212.4 -907.2 l
212.4 252.849752 l
203.76 252.849752 l
cl
0.500 0.000 0.500 setrgbcolor
fill
grestore
gsave
237.6 237.6 50.4 43.2 clipbox
225.36 -907.2 m
234 -907.2 l
234 133.271314 l
225.36 133.271314 l
cl
0.500 0.000 0.500 setrgbcolor
fill
grestore
gsave
237.6 237.6 50.4 43.2 clipbox
246.96 -907.2 m
255.6 -907.2 l
255.6 115.301398 l
246.96 115.301398 l
cl
0.500 0.000 0.500 setrgbcolor
fill
grestore
gsave
237.6 237.6 50.4 43.2 clipbox
268.56 -907.2 m
277.2 -907.2 l
277.2 188.149322 l
268.56 188.149322 l
cl
0.500 0.000 0.500 setrgbcolor
fill
grestore
0.500 setlinewidth
0 setlinecap
0.000 setgray
gsave
/o {
gsave
newpath
translate
0.5 setlinewidth
1 setlinejoin
0 setlinecap
0 0 m
0 -6 l

gsave
0.000 setgray
fill
grestore
stroke
grestore
} bind def
61.2 43.2 o
grestore
gsave
53.559375 24.575000 translate
0.000000 rotate
0.000000 0 m /zero glyphshow
7.634766 0 m /eight glyphshow
grestore
gsave
/o {
gsave
newpath
translate
0.5 setlinewidth
1 setlinejoin
0 setlinecap
0 0 m
0 -6 l

gsave
0.000 setgray
fill
grestore
stroke
grestore
} bind def
82.8 43.2 o
grestore
gsave
75.159375 24.575000 translate
0.000000 rotate
0.000000 0 m /zero glyphshow
7.634766 0 m /nine glyphshow
grestore
gsave
/o {
gsave
newpath
translate
0.5 setlinewidth
1 setlinejoin
0 setlinecap
0 0 m
0 -6 l

gsave
0.000 setgray
fill
grestore
stroke
grestore
} bind def
104.4 43.2 o
grestore
gsave
96.759375 24.575000 translate
0.000000 rotate
0.000000 0 m /one glyphshow
7.634766 0 m /zero glyphshow
grestore
gsave
/o {
gsave
newpath
translate
0.5 setlinewidth
1 setlinejoin
0 setlinecap
0 0 m
0 -6 l

gsave
0.000 setgray
fill
grestore
stroke
grestore
} bind def
126 43.2 o
grestore
gsave
118.359375 24.575000 translate
0.000000 rotate
0.000000 0 m /one glyphshow
7.634766 0 m /one glyphshow
grestore
gsave
/o {
gsave
newpath
translate
0.5 setlinewidth
1 setlinejoin
0 setlinecap
0 0 m
0 -6 l

gsave
0.000 setgray
fill
grestore
stroke
grestore
} bind def
147.6 43.2 o
grestore
gsave
139.959375 24.575000 translate
0.000000 rotate
0.000000 0 m /one glyphshow
7.634766 0 m /two glyphshow
grestore
gsave
/o {
gsave
newpath
translate
0.5 setlinewidth
1 setlinejoin
0 setlinecap
0 0 m
0 -6 l

gsave
0.000 setgray
fill
grestore
stroke
grestore
} bind def
169.2 43.2 o
grestore
gsave
161.559375 24.575000 translate
0.000000 rotate
0.000000 0 m /one glyphshow
7.634766 0 m /three glyphshow
grestore
gsave
/o {
gsave
newpath
translate
0.5 setlinewidth
1 setlinejoin
0 setlinecap
0 0 m
0 -6 l

gsave
0.000 setgray
fill
grestore
stroke
grestore
} bind def
190.8 43.2 o
grestore
gsave
183.159375 24.575000 translate
0.000000 rotate
0.000000 0 m /one glyphshow
7.634766 0 m /four glyphshow
grestore
gsave
/o {
gsave
newpath
translate
0.5 setlinewidth
1 setlinejoin
0 setlinecap
0 0 m
0 -6 l

gsave
0.000 setgray
fill
grestore
stroke
grestore
} bind def
212.4 43.2 o
grestore
gsave
204.759375 24.575000 translate
0.000000 rotate
0.000000 0 m /one glyphshow
7.634766 0 m /five glyphshow
grestore
gsave
/o {
gsave
newpath
translate
0.5 setlinewidth
1 setlinejoin
0 setlinecap
0 0 m
0 -6 l

gsave
0.000 setgray
fill
grestore
stroke
grestore
} bind def
234 43.2 o
grestore
gsave
226.359375 24.575000 translate
0.000000 rotate
0.000000 0 m /one glyphshow
7.634766 0 m /six glyphshow
grestore
gsave
/o {
gsave
newpath
translate
0.5 setlinewidth
1 setlinejoin
0 setlinecap
0 0 m
0 -6 l

gsave
0.000 setgray
fill
grestore
stroke
grestore
} bind def
255.6 43.2 o
grestore
gsave
247.959375 24.575000 translate
0.000000 rotate
0.000000 0 m /one glyphshow
7.634766 0 m /seven glyphshow
grestore
gsave
/o {
gsave
newpath
translate
0.5 setlinewidth
1 setlinejoin
0 setlinecap
0 0 m
0 -6 l

gsave
0.000 setgray
fill
grestore
stroke
grestore
} bind def
277.2 43.2 o
grestore
gsave
269.559375 24.575000 translate
0.000000 rotate
0.000000 0 m /one glyphshow
7.634766 0 m /eight glyphshow
grestore
gsave
156.504687 8.950000 translate
0.000000 rotate
0.000000 0 m /Y glyphshow
5.705078 0 m /e glyphshow
13.087891 0 m /a glyphshow
20.441406 0 m /r glyphshow
grestore
gsave
/o {
gsave
newpath
translate
0.5 setlinewidth
1 setlinejoin
0 setlinecap
0 0 m
-6 0 l

gsave
0.000 setgray
fill
grestore
stroke
grestore
} bind def
50.4 43.2 o
grestore
gsave
25.618750 38.637500 translate
0.000000 rotate
0.000000 0 m /two glyphshow
7.634766 0 m /four glyphshow
grestore
gsave
/o {
gsave
newpath
translate
0.5 setlinewidth
1 setlinejoin
0 setlinecap
0 0 m
-6 0 l

gsave
0.000 setgray
fill
grestore
stroke
grestore
} bind def
50.4 82.8 o
grestore
gsave
25.618750 78.237500 translate
0.000000 rotate
0.000000 0 m /two glyphshow
7.634766 0 m /five glyphshow
grestore
gsave
/o {
gsave
newpath
translate
0.5 setlinewidth
1 setlinejoin
0 setlinecap
0 0 m
-6 0 l

gsave
0.000 setgray
fill
grestore
stroke
grestore
} bind def
50.4 122.4 o
grestore
gsave
25.618750 117.837500 translate
0.000000 rotate
0.000000 0 m /two glyphshow
7.634766 0 m /six glyphshow
grestore
gsave
/o {
gsave
newpath
translate
0.5 setlinewidth
1 setlinejoin
0 setlinecap
0 0 m
-6 0 l

gsave
0.000 setgray
fill
grestore
stroke
grestore
} bind def
50.4 162 o
grestore
gsave
25.618750 157.437500 translate
0.000000 rotate
0.000000 0 m /two glyphshow
7.634766 0 m /seven glyphshow
grestore
gsave
/o {
gsave
newpath
translate
0.5 setlinewidth
1 setlinejoin
0 setlinecap
0 0 m
-6 0 l

gsave
0.000 setgray
fill
grestore
stroke
grestore
} bind def
50.4 201.6 o
grestore
gsave
25.618750 197.037500 translate
0.000000 rotate
0.000000 0 m /two glyphshow
7.634766 0 m /eight glyphshow
grestore
gsave
/o {
gsave
newpath
translate
0.5 setlinewidth
1 setlinejoin
0 setlinecap
0 0 m
-6 0 l

gsave
0.000 setgray
fill
grestore
stroke
grestore
} bind def
50.4 241.2 o
grestore
gsave
25.618750 236.637500 translate
0.000000 rotate
0.000000 0 m /two glyphshow
7.634766 0 m /nine glyphshow
grestore
gsave
/o {
gsave
newpath
translate
0.5 setlinewidth
1 setlinejoin
0 setlinecap
0 0 m
-6 0 l

gsave
0.000 setgray
fill
grestore
stroke
grestore
} bind def
50.4 280.8 o
grestore
gsave
25.618750 276.237500 translate
0.000000 rotate
0.000000 0 m /three glyphshow
7.634766 0 m /zero glyphshow
grestore
0.500 0.000 0.500 setrgbcolor
gsave
19.388000 72.312500 translate
90.000000 rotate
0.000000 0 m /N glyphshow
8.976562 0 m /i glyphshow
12.310547 0 m /ntilde glyphshow
19.916016 0 m /o glyphshow
27.257812 0 m /space glyphshow
31.072266 0 m /three glyphshow
38.707031 0 m /period glyphshow
42.521484 0 m /four glyphshow
50.156250 0 m /space glyphshow
53.970703 0 m /S glyphshow
61.587891 0 m /S glyphshow
69.205078 0 m /T glyphshow
76.535156 0 m /space glyphshow
80.349609 0 m /i glyphshow
83.683594 0 m /n glyphshow
91.289062 0 m /space glyphshow
95.103516 0 m /D glyphshow
104.343750 0 m /e glyphshow
111.726562 0 m /c glyphshow
118.324219 0 m /e glyphshow
125.707031 0 m /m glyphshow
137.396484 0 m /b glyphshow
145.013672 0 m /e glyphshow
152.396484 0 m /r glyphshow
157.330078 0 m /comma glyphshow
161.144531 0 m /space glyphshow
164.958984 0 m /degree glyphshow
170.958984 0 m /C glyphshow
grestore
0 setlinejoin
2 setlinecap
[] 0 setdash
0.000 setgray
gsave
50.4 43.2 m
50.4 280.8 l
stroke
grestore
gsave
288 43.2 m
288 280.8 l
stroke
grestore
gsave
50.4 43.2 m
288 43.2 l
stroke
grestore
gsave
50.4 280.8 m
288 280.8 l
stroke
grestore
/DejaVuSans-Bold findfont
14.400 scalefont
setfont
gsave
7.632000 288.552000 translate
0.000000 rotate
0.000000 0 m /b glyphshow
grestore
gsave
237.6 237.6 50.4 43.2 clipbox
61.2 -788.4 m
69.84 -788.4 l
69.84 220.572664 l
61.2 220.572664 l
cl
0.000 0.000 1.000 setrgbcolor
fill
grestore
gsave
237.6 237.6 50.4 43.2 clipbox
82.8 -788.4 m
91.44 -788.4 l
91.44 223.059624 l
82.8 223.059624 l
cl
0.000 0.000 1.000 setrgbcolor
fill
grestore
gsave
237.6 237.6 50.4 43.2 clipbox
104.4 -788.4 m
113.04 -788.4 l
113.04 86.597765 l
104.4 86.597765 l
cl
0.000 0.000 1.000 setrgbcolor
fill
grestore
gsave
237.6 237.6 50.4 43.2 clipbox
126 -788.4 m
134.64 -788.4 l
134.64 56.850778 l
126 56.850778 l
cl
0.000 0.000 1.000 setrgbcolor
fill
grestore
gsave
237.6 237.6 50.4 43.2 clipbox
147.6 -788.4 m
156.24 -788.4 l
156.24 164.768296 l
147.6 164.768296 l
cl
0.000 0.000 1.000 setrgbcolor
fill
grestore
gsave
237.6 237.6 50.4 43.2 clipbox
169.2 -788.4 m
177.84 -788.4 l
177.84 152.92936 l
169.2 152.92936 l
cl
0.000 0.000 1.000 setrgbcolor
fill
grestore
gsave
237.6 237.6 50.4 43.2 clipbox
190.8 -788.4 m
199.44 -788.4 l
199.44 155.676609 l
190.8 155.676609 l
cl
0.000 0.000 1.000 setrgbcolor
fill
grestore
gsave
237.6 237.6 50.4 43.2 clipbox
212.4 -788.4 m
221.04 -788.4 l
221.04 207.731861 l
212.4 207.731861 l
cl
0.000 0.000 1.000 setrgbcolor
fill
grestore
gsave
237.6 237.6 50.4 43.2 clipbox
234 -788.4 m
242.64 -788.4 l
242.64 170.652792 l
234 170.652792 l
cl
0.000 0.000 1.000 setrgbcolor
fill
grestore
gsave
237.6 237.6 50.4 43.2 clipbox
255.6 -788.4 m
264.24 -788.4 l
264.24 127.278955 l
255.6 127.278955 l
cl
0.000 0.000 1.000 setrgbcolor
fill
grestore
gsave
237.6 237.6 50.4 43.2 clipbox
277.2 -788.4 m
285.84 -788.4 l
285.84 218.412599 l
277.2 218.412599 l
cl
0.000 0.000 1.000 setrgbcolor
fill
grestore
1 setlinejoin
[] 0 setdash
gsave
237.6 237.6 50.4 43.2 clipbox
50.4 43.2 m
288 43.2 l
stroke
grestore
0 setlinecap
gsave
/o {
gsave
newpath
translate
0.5 setlinewidth
1 setlinejoin
0 setlinecap
0 0 m
6 0 l

gsave
0.000 setgray
fill
grestore
stroke
grestore
} bind def
288 43.2 o
grestore
/DejaVuSans findfont
12.000 scalefont
setfont
gsave
297.500000 38.637500 translate
0.000000 rotate
0.000000 0 m /two glyphshow
7.634766 0 m /one glyphshow
15.269531 0 m /zero glyphshow
grestore
2 setlinecap
gsave
237.6 237.6 50.4 43.2 clipbox
50.4 82.8 m
288 82.8 l
stroke
grestore
0 setlinecap
gsave
/o {
gsave
newpath
translate
0.5 setlinewidth
1 setlinejoin
0 setlinecap
0 0 m
6 0 l

gsave
0.000 setgray
fill
grestore
stroke
grestore
} bind def
288 82.8 o
grestore
gsave
297.500000 78.237500 translate
0.000000 rotate
0.000000 0 m /two glyphshow
7.634766 0 m /two glyphshow
15.269531 0 m /zero glyphshow
grestore
2 setlinecap
gsave
237.6 237.6 50.4 43.2 clipbox
50.4 122.4 m
288 122.4 l
stroke
grestore
0 setlinecap
gsave
/o {
gsave
newpath
translate
0.5 setlinewidth
1 setlinejoin
0 setlinecap
0 0 m
6 0 l

gsave
0.000 setgray
fill
grestore
stroke
grestore
} bind def
288 122.4 o
grestore
gsave
297.500000 117.837500 translate
0.000000 rotate
0.000000 0 m /two glyphshow
7.634766 0 m /three glyphshow
15.269531 0 m /zero glyphshow
grestore
2 setlinecap
gsave
237.6 237.6 50.4 43.2 clipbox
50.4 162 m
288 162 l
stroke
grestore
0 setlinecap
gsave
/o {
gsave
newpath
translate
0.5 setlinewidth
1 setlinejoin
0 setlinecap
0 0 m
6 0 l

gsave
0.000 setgray
fill
grestore
stroke
grestore
} bind def
288 162 o
grestore
gsave
297.500000 157.437500 translate
0.000000 rotate
0.000000 0 m /two glyphshow
7.634766 0 m /four glyphshow
15.269531 0 m /zero glyphshow
grestore
2 setlinecap
gsave
237.6 237.6 50.4 43.2 clipbox
50.4 201.6 m
288 201.6 l
stroke
grestore
0 setlinecap
gsave
/o {
gsave
newpath
translate
0.5 setlinewidth
1 setlinejoin
0 setlinecap
0 0 m
6 0 l

gsave
0.000 setgray
fill
grestore
stroke
grestore
} bind def
288 201.6 o
grestore
gsave
297.500000 197.037500 translate
0.000000 rotate
0.000000 0 m /two glyphshow
7.634766 0 m /five glyphshow
15.269531 0 m /zero glyphshow
grestore
2 setlinecap
gsave
237.6 237.6 50.4 43.2 clipbox
50.4 241.2 m
288 241.2 l
stroke
grestore
0 setlinecap
gsave
/o {
gsave
newpath
translate
0.5 setlinewidth
1 setlinejoin
0 setlinecap
0 0 m
6 0 l

gsave
0.000 setgray
fill
grestore
stroke
grestore
} bind def
288 241.2 o
grestore
gsave
297.500000 236.637500 translate
0.000000 rotate
0.000000 0 m /two glyphshow
7.634766 0 m /six glyphshow
15.269531 0 m /zero glyphshow
grestore
2 setlinecap
gsave
237.6 237.6 50.4 43.2 clipbox
50.4 280.8 m
288 280.8 l
stroke
grestore
0 setlinecap
gsave
/o {
gsave
newpath
translate
0.5 setlinewidth
1 setlinejoin
0 setlinecap
0 0 m
6 0 l

gsave
0.000 setgray
fill
grestore
stroke
grestore
} bind def
288 280.8 o
grestore
gsave
297.500000 276.237500 translate
0.000000 rotate
0.000000 0 m /two glyphshow
7.634766 0 m /seven glyphshow
15.269531 0 m /zero glyphshow
grestore
0.000 0.000 1.000 setrgbcolor
gsave
326.921875 277.187500 translate
270.000000 rotate
0.000000 0 m /I glyphshow
3.539062 0 m /o glyphshow
10.880859 0 m /n glyphshow
18.486328 0 m /o glyphshow
25.828125 0 m /s glyphshow
32.080078 0 m /p glyphshow
39.697266 0 m /h glyphshow
47.302734 0 m /e glyphshow
54.685547 0 m /r glyphshow
59.619141 0 m /i glyphshow
62.953125 0 m /c glyphshow
69.550781 0 m /space glyphshow
73.365234 0 m /p glyphshow
80.982422 0 m /o glyphshow
88.324219 0 m /t glyphshow
93.029297 0 m /e glyphshow
100.412109 0 m /n glyphshow
108.017578 0 m /t glyphshow
112.722656 0 m /i glyphshow
116.056641 0 m /a glyphshow
123.410156 0 m /l glyphshow
126.744141 0 m /space glyphshow
130.558594 0 m /i glyphshow
133.892578 0 m /n glyphshow
141.498047 0 m /space glyphshow
145.312500 0 m /D glyphshow
154.552734 0 m /e glyphshow
161.935547 0 m /c glyphshow
168.533203 0 m /e glyphshow
175.916016 0 m /m glyphshow
187.605469 0 m /b glyphshow
195.222656 0 m /e glyphshow
202.605469 0 m /r glyphshow
207.539062 0 m /comma glyphshow
211.353516 0 m /space glyphshow
215.167969 0 m /k glyphshow
222.117188 0 m /V glyphshow
grestore
gsave
403.2 43.2 m
640.8 43.2 l
640.8 280.8 l
403.2 280.8 l
cl
1.000 setgray
fill
grestore
gsave
237.6 237.6 403.2 43.2 clipbox
432.884875 162 m
432.9 162.071469 l
434.7 170.545352 l
436.5 178.83202 l
438.3 184.268868 l
440.1 192.33753 l
441.9 199.683522 l
443.7 209.331004 l
445.5 214.478545 l
447.3 217.746709 l
449.1 212.489491 l
450.9 200.053621 l
452.7 180.431605 l
454.375253 162 l
452.7 162 l
450.9 162 l
449.1 162 l
447.3 162 l
445.5 162 l
443.7 162 l
441.9 162 l
440.1 162 l
438.3 162 l
436.5 162 l
434.7 162 l
432.9 162 l
cl
1.000 0.500 0.500 setrgbcolor
fill
grestore
gsave
237.6 237.6 403.2 43.2 clipbox
537.950616 162 m
539.1 164.639768 l
540.9 168.664732 l
542.7 170.51539 l
544.5 171.973289 l
546.3 172.593342 l
548.1 174.098375 l
549.9 178.403408 l
551.7 184.392193 l
553.5 187.719125 l
555.3 190.225147 l
557.1 192.180821 l
558.9 194.11769 l
560.7 196.327245 l
562.5 200.21459 l
564.3 209.378276 l
566.1 218.769879 l
567.9 229.649001 l
569.7 240.746449 l
571.5 250.12864 l
573.3 257.735303 l
575.1 260.956238 l
576.9 255.834372 l
578.7 244.224101 l
580.5 226.147613 l
582.3 202.685842 l
584.1 179.842042 l
585.677373 162 l
584.1 162 l
582.3 162 l
580.5 162 l
578.7 162 l
576.9 162 l
575.1 162 l
573.3 162 l
571.5 162 l
569.7 162 l
567.9 162 l
566.1 162 l
564.3 162 l
562.5 162 l
560.7 162 l
558.9 162 l
557.1 162 l
555.3 162 l
553.5 162 l
551.7 162 l
549.9 162 l
548.1 162 l
546.3 162 l
544.5 162 l
542.7 162 l
540.9 162 l
539.1 162 l
cl
1.000 0.500 0.500 setrgbcolor
fill
grestore
gsave
237.6 237.6 403.2 43.2 clipbox
/o {
gsave
newpath
translate
454.375253 162 m
454.5 160.627493 l
456.3 141.338268 l
458.1 124.265433 l
459.9 111.363426 l
461.7 102.689538 l
463.5 96.545714 l
465.3 96.250236 l
467.1 99.822544 l
468.9 106.798987 l
470.7 114.249814 l
472.5 124.192629 l
474.3 132.104834 l
476.1 137.373146 l
477.9 139.664326 l
479.7 139.732015 l
481.5 137.332622 l
483.3 130.9417 l
485.1 124.555687 l
486.9 123.662216 l
488.7 124.62339 l
490.5 128.536401 l
492.3 134.45766 l
494.1 141.867892 l
495.9 148.277226 l
497.7 155.27379 l
499.172648 162 l
497.7 162 l
495.9 162 l
494.1 162 l
492.3 162 l
490.5 162 l
488.7 162 l
486.9 162 l
485.1 162 l
483.3 162 l
481.5 162 l
479.7 162 l
477.9 162 l
476.1 162 l
474.3 162 l
472.5 162 l
470.7 162 l
468.9 162 l
467.1 162 l
465.3 162 l
463.5 162 l
461.7 162 l
459.9 162 l
458.1 162 l
456.3 162 l
454.5 162 l
cl

0.500 0.900 0.900 setrgbcolor
fill
grestore
} bind def
0 0 o
grestore
2 setlinecap
0.000 setgray
gsave
237.6 237.6 403.2 43.2 clipbox
403.2 43.2 m
403.2 280.8 l
stroke
grestore
0 setlinecap
gsave
/o {
gsave
newpath
translate
0.5 setlinewidth
1 setlinejoin
0 setlinecap
0 0 m
0 -6 l

gsave
0.000 setgray
fill
grestore
stroke
grestore
} bind def
403.2 43.2 o
grestore
2 setlinecap
gsave
237.6 237.6 403.2 43.2 clipbox
424.8 43.2 m
424.8 280.8 l
stroke
grestore
0 setlinecap
gsave
/o {
gsave
newpath
translate
0.5 setlinewidth
1 setlinejoin
0 setlinecap
0 0 m
0 -6 l

gsave
0.000 setgray
fill
grestore
stroke
grestore
} bind def
424.8 43.2 o
grestore
2 setlinecap
gsave
237.6 237.6 403.2 43.2 clipbox
446.4 43.2 m
446.4 280.8 l
stroke
grestore
0 setlinecap
gsave
/o {
gsave
newpath
translate
0.5 setlinewidth
1 setlinejoin
0 setlinecap
0 0 m
0 -6 l

gsave
0.000 setgray
fill
grestore
stroke
grestore
} bind def
446.4 43.2 o
grestore
2 setlinecap
gsave
237.6 237.6 403.2 43.2 clipbox
468 43.2 m
468 280.8 l
stroke
grestore
0 setlinecap
gsave
/o {
gsave
newpath
translate
0.5 setlinewidth
1 setlinejoin
0 setlinecap
0 0 m
0 -6 l

gsave
0.000 setgray
fill
grestore
stroke
grestore
} bind def
468 43.2 o
grestore
2 setlinecap
gsave
237.6 237.6 403.2 43.2 clipbox
489.6 43.2 m
489.6 280.8 l
stroke
grestore
0 setlinecap
gsave
/o {
gsave
newpath
translate
0.5 setlinewidth
1 setlinejoin
0 setlinecap
0 0 m
0 -6 l

gsave
0.000 setgray
fill
grestore
stroke
grestore
} bind def
489.6 43.2 o
grestore
2 setlinecap
gsave
237.6 237.6 403.2 43.2 clipbox
511.2 43.2 m
511.2 280.8 l
stroke
grestore
0 setlinecap
gsave
/o {
gsave
newpath
translate
0.5 setlinewidth
1 setlinejoin
0 setlinecap
0 0 m
0 -6 l

gsave
0.000 setgray
fill
grestore
stroke
grestore
} bind def
511.2 43.2 o
grestore
2 setlinecap
gsave
237.6 237.6 403.2 43.2 clipbox
532.8 43.2 m
532.8 280.8 l
stroke
grestore
0 setlinecap
gsave
/o {
gsave
newpath
translate
0.5 setlinewidth
1 setlinejoin
0 setlinecap
0 0 m
0 -6 l

gsave
0.000 setgray
fill
grestore
stroke
grestore
} bind def
532.8 43.2 o
grestore
2 setlinecap
gsave
237.6 237.6 403.2 43.2 clipbox
554.4 43.2 m
554.4 280.8 l
stroke
grestore
0 setlinecap
gsave
/o {
gsave
newpath
translate
0.5 setlinewidth
1 setlinejoin
0 setlinecap
0 0 m
0 -6 l

gsave
0.000 setgray
fill
grestore
stroke
grestore
} bind def
554.4 43.2 o
grestore
2 setlinecap
gsave
237.6 237.6 403.2 43.2 clipbox
576 43.2 m
576 280.8 l
stroke
grestore
0 setlinecap
gsave
/o {
gsave
newpath
translate
0.5 setlinewidth
1 setlinejoin
0 setlinecap
0 0 m
0 -6 l

gsave
0.000 setgray
fill
grestore
stroke
grestore
} bind def
576 43.2 o
grestore
2 setlinecap
gsave
237.6 237.6 403.2 43.2 clipbox
597.6 43.2 m
597.6 280.8 l
stroke
grestore
0 setlinecap
gsave
/o {
gsave
newpath
translate
0.5 setlinewidth
1 setlinejoin
0 setlinecap
0 0 m
0 -6 l

gsave
0.000 setgray
fill
grestore
stroke
grestore
} bind def
597.6 43.2 o
grestore
2 setlinecap
gsave
237.6 237.6 403.2 43.2 clipbox
619.2 43.2 m
619.2 280.8 l
stroke
grestore
0 setlinecap
gsave
/o {
gsave
newpath
translate
0.5 setlinewidth
1 setlinejoin
0 setlinecap
0 0 m
0 -6 l

gsave
0.000 setgray
fill
grestore
stroke
grestore
} bind def
619.2 43.2 o
grestore
2 setlinecap
gsave
237.6 237.6 403.2 43.2 clipbox
640.8 43.2 m
640.8 280.8 l
stroke
grestore
0 setlinecap
gsave
/o {
gsave
newpath
translate
0.5 setlinewidth
1 setlinejoin
0 setlinecap
0 0 m
0 -6 l

gsave
0.000 setgray
fill
grestore
stroke
grestore
} bind def
640.8 43.2 o
grestore
gsave
406.359375 24.575000 translate
0.000000 rotate
0.000000 0 m /zero glyphshow
7.634766 0 m /eight glyphshow
grestore
gsave
427.959375 24.575000 translate
0.000000 rotate
0.000000 0 m /zero glyphshow
7.634766 0 m /nine glyphshow
grestore
gsave
449.559375 24.575000 translate
0.000000 rotate
0.000000 0 m /one glyphshow
7.634766 0 m /zero glyphshow
grestore
gsave
471.159375 24.575000 translate
0.000000 rotate
0.000000 0 m /one glyphshow
7.634766 0 m /one glyphshow
grestore
gsave
492.759375 24.575000 translate
0.000000 rotate
0.000000 0 m /one glyphshow
7.634766 0 m /two glyphshow
grestore
gsave
514.359375 24.575000 translate
0.000000 rotate
0.000000 0 m /one glyphshow
7.634766 0 m /three glyphshow
grestore
gsave
535.959375 24.575000 translate
0.000000 rotate
0.000000 0 m /one glyphshow
7.634766 0 m /four glyphshow
grestore
gsave
557.559375 24.575000 translate
0.000000 rotate
0.000000 0 m /one glyphshow
7.634766 0 m /five glyphshow
grestore
gsave
579.159375 24.575000 translate
0.000000 rotate
0.000000 0 m /one glyphshow
7.634766 0 m /six glyphshow
grestore
gsave
600.759375 24.575000 translate
0.000000 rotate
0.000000 0 m /one glyphshow
7.634766 0 m /seven glyphshow
grestore
gsave
622.359375 24.575000 translate
0.000000 rotate
0.000000 0 m /one glyphshow
7.634766 0 m /eight glyphshow
grestore
gsave
509.304687 8.950000 translate
0.000000 rotate
0.000000 0 m /Y glyphshow
5.705078 0 m /e glyphshow
13.087891 0 m /a glyphshow
20.441406 0 m /r glyphshow
grestore
2 setlinecap
gsave
237.6 237.6 403.2 43.2 clipbox
403.2 43.2 m
640.8 43.2 l
stroke
grestore
0 setlinecap
gsave
/o {
gsave
newpath
translate
0.5 setlinewidth
1 setlinejoin
0 setlinecap
0 0 m
-6 0 l

gsave
0.000 setgray
fill
grestore
stroke
grestore
} bind def
403.2 43.2 o
grestore
gsave
375.996875 38.637500 translate
0.000000 rotate
0.000000 0 m /minus glyphshow
10.054688 0 m /three glyphshow
grestore
2 setlinecap
gsave
237.6 237.6 403.2 43.2 clipbox
403.2 82.8 m
640.8 82.8 l
stroke
grestore
0 setlinecap
gsave
/o {
gsave
newpath
translate
0.5 setlinewidth
1 setlinejoin
0 setlinecap
0 0 m
-6 0 l

gsave
0.000 setgray
fill
grestore
stroke
grestore
} bind def
403.2 82.8 o
grestore
gsave
375.996875 78.237500 translate
0.000000 rotate
0.000000 0 m /minus glyphshow
10.054688 0 m /two glyphshow
grestore
2 setlinecap
gsave
237.6 237.6 403.2 43.2 clipbox
403.2 122.4 m
640.8 122.4 l
stroke
grestore
0 setlinecap
gsave
/o {
gsave
newpath
translate
0.5 setlinewidth
1 setlinejoin
0 setlinecap
0 0 m
-6 0 l

gsave
0.000 setgray
fill
grestore
stroke
grestore
} bind def
403.2 122.4 o
grestore
gsave
375.996875 117.837500 translate
0.000000 rotate
0.000000 0 m /minus glyphshow
10.054688 0 m /one glyphshow
grestore
2 setlinecap
gsave
237.6 237.6 403.2 43.2 clipbox
403.2 162 m
640.8 162 l
stroke
grestore
0 setlinecap
gsave
/o {
gsave
newpath
translate
0.5 setlinewidth
1 setlinejoin
0 setlinecap
0 0 m
-6 0 l

gsave
0.000 setgray
fill
grestore
stroke
grestore
} bind def
403.2 162 o
grestore
gsave
386.059375 157.437500 translate
0.000000 rotate
0.000000 0 m /zero glyphshow
grestore
2 setlinecap
gsave
237.6 237.6 403.2 43.2 clipbox
403.2 201.6 m
640.8 201.6 l
stroke
grestore
0 setlinecap
gsave
/o {
gsave
newpath
translate
0.5 setlinewidth
1 setlinejoin
0 setlinecap
0 0 m
-6 0 l

gsave
0.000 setgray
fill
grestore
stroke
grestore
} bind def
403.2 201.6 o
grestore
gsave
375.996875 197.037500 translate
0.000000 rotate
0.000000 0 m /plus glyphshow
10.054688 0 m /one glyphshow
grestore
2 setlinecap
gsave
237.6 237.6 403.2 43.2 clipbox
403.2 241.2 m
640.8 241.2 l
stroke
grestore
0 setlinecap
gsave
/o {
gsave
newpath
translate
0.5 setlinewidth
1 setlinejoin
0 setlinecap
0 0 m
-6 0 l

gsave
0.000 setgray
fill
grestore
stroke
grestore
} bind def
403.2 241.2 o
grestore
gsave
375.996875 236.637500 translate
0.000000 rotate
0.000000 0 m /plus glyphshow
10.054688 0 m /two glyphshow
grestore
2 setlinecap
gsave
237.6 237.6 403.2 43.2 clipbox
403.2 280.8 m
640.8 280.8 l
stroke
grestore
0 setlinecap
gsave
/o {
gsave
newpath
translate
0.5 setlinewidth
1 setlinejoin
0 setlinecap
0 0 m
-6 0 l

gsave
0.000 setgray
fill
grestore
stroke
grestore
} bind def
403.2 280.8 o
grestore
gsave
375.996875 276.237500 translate
0.000000 rotate
0.000000 0 m /plus glyphshow
10.054688 0 m /three glyphshow
grestore
0.500 0.000 0.500 setrgbcolor
gsave
369.496875 65.359375 translate
90.000000 rotate
0.000000 0 m /A glyphshow
8.208984 0 m /n glyphshow
15.814453 0 m /o glyphshow
23.156250 0 m /m glyphshow
34.845703 0 m /a glyphshow
42.199219 0 m /l glyphshow
45.533203 0 m /y glyphshow
52.634766 0 m /space glyphshow
56.449219 0 m /i glyphshow
59.783203 0 m /n glyphshow
67.388672 0 m /space glyphshow
71.203125 0 m /t glyphshow
75.908203 0 m /h glyphshow
83.513672 0 m /e glyphshow
90.896484 0 m /space glyphshow
94.710938 0 m /N glyphshow
103.687500 0 m /i glyphshow
107.021484 0 m /ntilde glyphshow
114.626953 0 m /o glyphshow
121.968750 0 m /space glyphshow
125.783203 0 m /three glyphshow
133.417969 0 m /period glyphshow
137.232422 0 m /four glyphshow
144.867188 0 m /space glyphshow
148.681641 0 m /S glyphshow
156.298828 0 m /S glyphshow
163.916016 0 m /T glyphshow
171.246094 0 m /comma glyphshow
175.060547 0 m /space glyphshow
178.875000 0 m /degree glyphshow
184.875000 0 m /C glyphshow
grestore
0 setlinejoin
2 setlinecap
[] 0 setdash
0.000 setgray
gsave
403.2 43.2 m
403.2 280.8 l
stroke
grestore
gsave
640.8 43.2 m
640.8 280.8 l
stroke
grestore
gsave
403.2 43.2 m
640.8 43.2 l
stroke
grestore
gsave
403.2 280.8 m
640.8 280.8 l
stroke
grestore
/DejaVuSans-Bold findfont
14.400 scalefont
setfont
gsave
358.056000 288.552000 translate
0.000000 rotate
0.000000 0 m /d glyphshow
grestore
1.500 setlinewidth
1 setlinejoin
[] 0 setdash
0.500 0.000 0.500 setrgbcolor
gsave
407.7 113.651968 m
409.5 120.815063 l
411.3 131.251609 l
413.1 140.569204 l
414.9 146.058367 l
416.7 149.192758 l
418.5 150.369786 l
420.3 145.781464 l
422.1 139.556128 l
423.9 137.383931 l
425.7 136.21981 l
427.5 137.304391 l
429.3 145.139464 l
436.5 178.83202 l
438.3 184.268868 l
440.1 192.33753 l
441.9 199.683522 l
443.7 209.331004 l
445.5 214.478545 l
447.3 217.746709 l
449.1 212.489491 l
450.9 200.053621 l
456.3 141.338268 l
458.1 124.265433 l
459.9 111.363426 l
461.7 102.689538 l
463.5 96.545714 l
465.3 96.250236 l
467.1 99.822544 l
468.9 106.798987 l
470.7 114.249814 l
472.5 124.192629 l
474.3 132.104834 l
476.1 137.373146 l
477.9 139.664326 l
479.7 139.732015 l
481.5 137.332622 l
485.1 124.555687 l
486.9 123.662216 l
488.7 124.62339 l
490.5 128.536401 l
492.3 134.45766 l
494.1 141.867892 l
495.9 148.277226 l
497.7 155.27379 l
499.5 163.495156 l
501.3 170.648064 l
503.1 173.732706 l
504.9 175.170372 l
506.7 171.621777 l
510.3 161.029973 l
512.1 158.562381 l
513.9 155.894968 l
515.7 155.359615 l
521.1 148.881962 l
522.9 149.12843 l
524.7 147.988687 l
526.5 149.364446 l
528.3 152.272965 l
530.1 154.234816 l
531.9 152.537109 l
533.7 153.835659 l
535.5 156.939564 l
537.3 160.505743 l
540.9 168.664732 l
542.7 170.51539 l
544.5 171.973289 l
546.3 172.593342 l
548.1 174.098375 l
549.9 178.403408 l
551.7 184.392193 l
553.5 187.719125 l
555.3 190.225147 l
558.9 194.11769 l
560.7 196.327245 l
562.5 200.21459 l
566.1 218.769879 l
569.7 240.746449 l
571.5 250.12864 l
573.3 257.735303 l
575.1 260.956238 l
576.9 255.834372 l
578.7 244.224101 l
580.5 226.147613 l
584.1 179.842042 l
585.9 159.481808 l
587.7 145.542804 l
589.5 138.169657 l
591.3 133.791528 l
593.1 134.882645 l
594.9 140.296724 l
598.5 155.580831 l
600.3 164.214999 l
602.1 171.610457 l
603.9 174.667583 l
605.7 173.783307 l
607.5 171.628474 l
609.3 166.07481 l
611.1 159.1186 l
612.9 149.215825 l
614.7 140.035445 l
616.5 137.000977 l
618.3 136.38319 l
620.1 136.385672 l
621.9 142.68461 l
623.7 149.717769 l
625.5 155.282289 l
627.3 161.842119 l
630.9 170.974889 l
632.7 178.590334 l
636.3 188.088733 l
636.3 188.088733 l
stroke
grestore
0.500 setlinewidth
0 setlinecap
0.000 setgray
gsave
/o {
gsave
newpath
translate
0.5 setlinewidth
1 setlinejoin
0 setlinecap
0 0 m
6 0 l

gsave
0.000 setgray
fill
grestore
stroke
grestore
} bind def
640.8 43.2 o
grestore
/DejaVuSans findfont
12.000 scalefont
setfont
gsave
650.300000 38.637500 translate
0.000000 rotate
0.000000 0 m /minus glyphshow
10.054688 0 m /zero glyphshow
17.689453 0 m /period glyphshow
21.503906 0 m /zero glyphshow
29.138672 0 m /three glyphshow
grestore
gsave
/o {
gsave
newpath
translate
0.5 setlinewidth
1 setlinejoin
0 setlinecap
0 0 m
6 0 l

gsave
0.000 setgray
fill
grestore
stroke
grestore
} bind def
640.8 82.8 o
grestore
gsave
650.300000 78.237500 translate
0.000000 rotate
0.000000 0 m /minus glyphshow
10.054688 0 m /zero glyphshow
17.689453 0 m /period glyphshow
21.503906 0 m /zero glyphshow
29.138672 0 m /two glyphshow
grestore
gsave
/o {
gsave
newpath
translate
0.5 setlinewidth
1 setlinejoin
0 setlinecap
0 0 m
6 0 l

gsave
0.000 setgray
fill
grestore
stroke
grestore
} bind def
640.8 122.4 o
grestore
gsave
650.300000 117.837500 translate
0.000000 rotate
0.000000 0 m /minus glyphshow
10.054688 0 m /zero glyphshow
17.689453 0 m /period glyphshow
21.503906 0 m /zero glyphshow
29.138672 0 m /one glyphshow
grestore
gsave
/o {
gsave
newpath
translate
0.5 setlinewidth
1 setlinejoin
0 setlinecap
0 0 m
6 0 l

gsave
0.000 setgray
fill
grestore
stroke
grestore
} bind def
640.8 162 o
grestore
gsave
650.300000 157.437500 translate
0.000000 rotate
0.000000 0 m /zero glyphshow
7.634766 0 m /period glyphshow
11.449219 0 m /zero glyphshow
19.083984 0 m /zero glyphshow
grestore
gsave
/o {
gsave
newpath
translate
0.5 setlinewidth
1 setlinejoin
0 setlinecap
0 0 m
6 0 l

gsave
0.000 setgray
fill
grestore
stroke
grestore
} bind def
640.8 201.6 o
grestore
gsave
650.300000 197.037500 translate
0.000000 rotate
0.000000 0 m /plus glyphshow
10.054688 0 m /zero glyphshow
17.689453 0 m /period glyphshow
21.503906 0 m /zero glyphshow
29.138672 0 m /one glyphshow
grestore
gsave
/o {
gsave
newpath
translate
0.5 setlinewidth
1 setlinejoin
0 setlinecap
0 0 m
6 0 l

gsave
0.000 setgray
fill
grestore
stroke
grestore
} bind def
640.8 241.2 o
grestore
gsave
650.300000 236.637500 translate
0.000000 rotate
0.000000 0 m /plus glyphshow
10.054688 0 m /zero glyphshow
17.689453 0 m /period glyphshow
21.503906 0 m /zero glyphshow
29.138672 0 m /two glyphshow
grestore
gsave
/o {
gsave
newpath
translate
0.5 setlinewidth
1 setlinejoin
0 setlinecap
0 0 m
6 0 l

gsave
0.000 setgray
fill
grestore
stroke
grestore
} bind def
640.8 280.8 o
grestore
gsave
650.300000 276.237500 translate
0.000000 rotate
0.000000 0 m /plus glyphshow
10.054688 0 m /zero glyphshow
17.689453 0 m /period glyphshow
21.503906 0 m /zero glyphshow
29.138672 0 m /three glyphshow
grestore
0.000 0.000 1.000 setrgbcolor
gsave
707.046875 232.007812 translate
270.000000 rotate
0.000000 0 m /A glyphshow
8.208984 0 m /n glyphshow
15.814453 0 m /o glyphshow
23.156250 0 m /m glyphshow
34.845703 0 m /a glyphshow
42.199219 0 m /l glyphshow
45.533203 0 m /y glyphshow
52.634766 0 m /space glyphshow
56.449219 0 m /i glyphshow
59.783203 0 m /n glyphshow
67.388672 0 m /space glyphshow
71.203125 0 m /t glyphshow
75.908203 0 m /h glyphshow
83.513672 0 m /e glyphshow
90.896484 0 m /space glyphshow
94.710938 0 m /r glyphshow
99.394531 0 m /e glyphshow
106.777344 0 m /l glyphshow
110.111328 0 m /a glyphshow
117.464844 0 m /t glyphshow
122.169922 0 m /i glyphshow
125.503906 0 m /v glyphshow
132.605469 0 m /e glyphshow
grestore
gsave
693.596875 266.203125 translate
270.000000 rotate
0.000000 0 m /i glyphshow
3.333984 0 m /o glyphshow
10.675781 0 m /n glyphshow
18.281250 0 m /o glyphshow
25.623047 0 m /s glyphshow
31.875000 0 m /p glyphshow
39.492188 0 m /h glyphshow
47.097656 0 m /e glyphshow
54.480469 0 m /r glyphshow
59.414062 0 m /i glyphshow
62.748047 0 m /c glyphshow
69.345703 0 m /space glyphshow
73.160156 0 m /p glyphshow
80.777344 0 m /o glyphshow
88.119141 0 m /t glyphshow
92.824219 0 m /e glyphshow
100.207031 0 m /n glyphshow
107.812500 0 m /t glyphshow
112.517578 0 m /i glyphshow
115.851562 0 m /a glyphshow
123.205078 0 m /l glyphshow
126.539062 0 m /space glyphshow
130.353516 0 m /a glyphshow
137.707031 0 m /t glyphshow
142.412109 0 m /space glyphshow
146.226562 0 m /two glyphshow
153.861328 0 m /one glyphshow
161.496094 0 m /colon glyphshow
165.539062 0 m /zero glyphshow
173.173828 0 m /zero glyphshow
180.808594 0 m /space glyphshow
184.623047 0 m /U glyphshow
193.406250 0 m /T glyphshow
199.986328 0 m /C glyphshow
grestore
1.500 setlinewidth
2 setlinecap
gsave
407.7 164.956162 m
409.5 155.698858 l
411.3 156.090682 l
413.1 145.893152 l
414.9 161.908197 l
416.7 171.963147 l
418.5 182.97346 l
420.3 167.964457 l
422.1 176.269923 l
423.9 185.829211 l
425.7 179.623932 l
427.5 168.398757 l
429.3 159.027104 l
431.1 158.125154 l
432.9 129.885486 l
434.7 127.589771 l
436.5 126.599686 l
438.3 123.810577 l
440.1 116.533355 l
441.9 128.169268 l
443.7 123.288985 l
445.5 106.207929 l
447.3 100.986924 l
449.1 110.289466 l
450.9 112.200035 l
452.7 122.635081 l
456.3 184.885729 l
459.9 208.608724 l
461.7 222.472173 l
463.5 225.783321 l
465.3 214.890096 l
467.1 219.63464 l
468.9 241.288756 l
470.7 244.219739 l
472.5 237.629869 l
474.3 236.721807 l
476.1 233.754959 l
477.9 185.553632 l
479.7 155.604845 l
483.3 168.441173 l
485.1 183.46096 l
486.9 229.502257 l
488.7 257.960163 l
490.5 249.512881 l
492.3 261.227892 l
495.9 194.39001 l
497.7 176.129344 l
499.5 166.69834 l
501.3 150.970551 l
503.1 151.085309 l
504.9 155.802864 l
506.7 144.772459 l
508.5 144.349708 l
512.1 172.79619 l
513.9 175.794689 l
515.7 199.157528 l
517.5 205.70246 l
519.3 200.405093 l
521.1 201.513745 l
522.9 202.156047 l
524.7 198.023073 l
526.5 201.044353 l
528.3 195.571007 l
530.1 176.209109 l
531.9 166.945776 l
533.7 169.043064 l
535.5 163.741397 l
537.3 151.183841 l
539.1 179.872765 l
540.9 172.845929 l
542.7 169.630794 l
544.5 171.12258 l
546.3 183.465074 l
548.1 165.346671 l
549.9 182.553321 l
553.5 155.153855 l
555.3 150.501346 l
557.1 133.302171 l
558.9 114.089893 l
560.7 115.038209 l
562.5 131.912454 l
564.3 118.76119 l
566.1 120.118114 l
567.9 116.903764 l
569.7 105.366162 l
571.5 77.320606 l
573.3 69.995526 l
575.1 59.688172 l
576.9 53.772833 l
578.7 61.433551 l
580.5 93.296046 l
582.3 107.66837 l
584.1 117.751251 l
585.9 157.081041 l
587.7 172.391764 l
589.5 169.937834 l
591.3 168.568358 l
593.1 181.743595 l
594.9 164.620513 l
596.7 155.618216 l
598.5 145.54744 l
600.3 144.904223 l
602.1 150.32278 l
603.9 142.792141 l
605.7 147.138434 l
607.5 150.743508 l
609.3 150.208896 l
611.1 135.800772 l
612.9 143.468005 l
614.7 145.177036 l
616.5 162.664818 l
618.3 161.997759 l
620.1 165.011766 l
621.9 177.328808 l
623.7 187.030121 l
625.5 177.938925 l
627.3 174.711199 l
629.1 179.0114 l
630.9 174.570562 l
632.7 159.985684 l
634.5 153.196618 l
636.3 156.772604 l
636.3 156.772604 l
stroke
grestore

end
showpage
