%!PS-Adobe-3.0 EPSF-3.0
%%Title: long-term_regression_oct-feb_main.eps
%%Creator: matplotlib version 3.3.0, http://matplotlib.org/
%%CreationDate: Mon Apr 19 19:09:24 2021
%%Orientation: portrait
%%BoundingBox: -121.19796874999989 153.18401000000006 733.1979687499999 638.8159899999999
%%EndComments
%%BeginProlog
/mpldict 9 dict def
mpldict begin
/m { moveto } bind def
/l { lineto } bind def
/r { rlineto } bind def
/c { curveto } bind def
/cl { closepath } bind def
/box {
      m
      1 index 0 r
      0 exch r
      neg 0 r
      cl
    } bind def
/clipbox {
      box
      clip
      newpath
    } bind def
%!PS-Adobe-3.0 Resource-Font
%%Title: DejaVu Sans
%%Copyright: Copyright (c) 2003 by Bitstream, Inc. All Rights Reserved. Copyright (c) 2006 by Tavmjong Bah. All Rights Reserved. DejaVu changes are in public domain 
%%Creator: Converted from TrueType to type 3 by PPR
25 dict begin
/_d{bind def}bind def
/_m{moveto}_d
/_l{lineto}_d
/_cl{closepath eofill}_d
/_c{curveto}_d
/_sc{7 -1 roll{setcachedevice}{pop pop pop pop pop pop}ifelse}_d
/_e{exec}_d
/FontName /DejaVuSans def
/PaintType 0 def
/FontMatrix[.001 0 0 .001 0 0]def
/FontBBox[-1021 -463 1793 1232]def
/FontType 3 def
/Encoding [ /space /parenleft /parenright /hyphen /period /zero /one /two /three /four /five /six /seven /eight /nine /equal /A /C /E /F /I /M /N /O /P /S /T /W /a /b /c /d /e /f /g /h /i /l /m /n /o /p /r /s /t /u /ntilde /tilde /emdash /minus ] def
/FontInfo 10 dict dup begin
/FamilyName (DejaVu Sans) def
/FullName (DejaVu Sans) def
/Notice (Copyright (c) 2003 by Bitstream, Inc. All Rights Reserved. Copyright (c) 2006 by Tavmjong Bah. All Rights Reserved. DejaVu changes are in public domain ) def
/Weight (Book) def
/Version (Version 2.35) def
/ItalicAngle 0.0 def
/isFixedPitch false def
/UnderlinePosition -130 def
/UnderlineThickness 90 def
end readonly def
/CharStrings 51 dict dup begin
/.notdef 0 def
/space{318 0 0 0 0 0 _sc
}_d
/parenleft{390 0 86 -131 310 759 _sc
310 759 _m
266 683 234 609 213 536 _c
191 463 181 389 181 314 _c
181 238 191 164 213 91 _c
234 17 266 -56 310 -131 _c
232 -131 _l
183 -54 146 20 122 94 _c
98 168 86 241 86 314 _c
86 386 98 459 122 533 _c
146 607 182 682 232 759 _c
310 759 _l
_cl}_d
/parenright{390 0 80 -131 304 759 _sc
80 759 _m
158 759 _l
206 682 243 607 267 533 _c
291 459 304 386 304 314 _c
304 241 291 168 267 94 _c
243 20 206 -54 158 -131 _c
80 -131 _l
123 -56 155 17 177 91 _c
198 164 209 238 209 314 _c
209 389 198 463 177 536 _c
155 609 123 683 80 759 _c
_cl}_d
/hyphen{361 0 49 234 312 314 _sc
49 314 _m
312 314 _l
312 234 _l
49 234 _l
49 314 _l
_cl}_d
/period{318 0 107 0 210 124 _sc
107 124 _m
210 124 _l
210 0 _l
107 0 _l
107 124 _l
_cl}_d
/zero{636 0 66 -13 570 742 _sc
318 664 _m
267 664 229 639 203 589 _c
177 539 165 464 165 364 _c
165 264 177 189 203 139 _c
229 89 267 64 318 64 _c
369 64 407 89 433 139 _c
458 189 471 264 471 364 _c
471 464 458 539 433 589 _c
407 639 369 664 318 664 _c
318 742 _m
399 742 461 709 505 645 _c
548 580 570 486 570 364 _c
570 241 548 147 505 83 _c
461 19 399 -13 318 -13 _c
236 -13 173 19 130 83 _c
87 147 66 241 66 364 _c
66 486 87 580 130 645 _c
173 709 236 742 318 742 _c
_cl}_d
/one{636 0 110 0 544 729 _sc
124 83 _m
285 83 _l
285 639 _l
110 604 _l
110 694 _l
284 729 _l
383 729 _l
383 83 _l
544 83 _l
544 0 _l
124 0 _l
124 83 _l
_cl}_d
/two{{636 0 73 0 536 742 _sc
192 83 _m
536 83 _l
536 0 _l
73 0 _l
73 83 _l
110 121 161 173 226 239 _c
290 304 331 346 348 365 _c
380 400 402 430 414 455 _c
426 479 433 504 433 528 _c
433 566 419 598 392 622 _c
365 646 330 659 286 659 _c
255 659 222 653 188 643 _c
154 632 117 616 78 594 _c
78 694 _l
118 710 155 722 189 730 _c
223 738 255 742 284 742 _c
}_e{359 742 419 723 464 685 _c
509 647 532 597 532 534 _c
532 504 526 475 515 449 _c
504 422 484 390 454 354 _c
446 344 420 317 376 272 _c
332 227 271 164 192 83 _c
_cl}_e}_d
/three{{636 0 76 -13 556 742 _sc
406 393 _m
453 383 490 362 516 330 _c
542 298 556 258 556 212 _c
556 140 531 84 482 45 _c
432 6 362 -13 271 -13 _c
240 -13 208 -10 176 -4 _c
144 1 110 10 76 22 _c
76 117 _l
103 101 133 89 166 81 _c
198 73 232 69 268 69 _c
330 69 377 81 409 105 _c
441 129 458 165 458 212 _c
458 254 443 288 413 312 _c
383 336 341 349 287 349 _c
}_e{202 349 _l
202 430 _l
291 430 _l
339 430 376 439 402 459 _c
428 478 441 506 441 543 _c
441 580 427 609 401 629 _c
374 649 336 659 287 659 _c
260 659 231 656 200 650 _c
169 644 135 635 98 623 _c
98 711 _l
135 721 170 729 203 734 _c
235 739 266 742 296 742 _c
370 742 429 725 473 691 _c
517 657 539 611 539 553 _c
539 513 527 479 504 451 _c
481 423 448 403 406 393 _c
_cl}_e}_d
/four{636 0 49 0 580 729 _sc
378 643 _m
129 254 _l
378 254 _l
378 643 _l
352 729 _m
476 729 _l
476 254 _l
580 254 _l
580 172 _l
476 172 _l
476 0 _l
378 0 _l
378 172 _l
49 172 _l
49 267 _l
352 729 _l
_cl}_d
/five{{636 0 77 -13 549 729 _sc
108 729 _m
495 729 _l
495 646 _l
198 646 _l
198 467 _l
212 472 227 476 241 478 _c
255 480 270 482 284 482 _c
365 482 429 459 477 415 _c
525 370 549 310 549 234 _c
549 155 524 94 475 51 _c
426 8 357 -13 269 -13 _c
238 -13 207 -10 175 -6 _c
143 -1 111 6 77 17 _c
77 116 _l
106 100 136 88 168 80 _c
199 72 232 69 267 69 _c
}_e{323 69 368 83 401 113 _c
433 143 450 183 450 234 _c
450 284 433 324 401 354 _c
368 384 323 399 267 399 _c
241 399 214 396 188 390 _c
162 384 135 375 108 363 _c
108 729 _l
_cl}_e}_d
/six{{636 0 70 -13 573 742 _sc
330 404 _m
286 404 251 388 225 358 _c
199 328 186 286 186 234 _c
186 181 199 139 225 109 _c
251 79 286 64 330 64 _c
374 64 409 79 435 109 _c
461 139 474 181 474 234 _c
474 286 461 328 435 358 _c
409 388 374 404 330 404 _c
526 713 _m
526 623 _l
501 635 476 644 451 650 _c
425 656 400 659 376 659 _c
310 659 260 637 226 593 _c
}_e{192 549 172 482 168 394 _c
187 422 211 444 240 459 _c
269 474 301 482 336 482 _c
409 482 467 459 509 415 _c
551 371 573 310 573 234 _c
573 159 550 99 506 54 _c
462 9 403 -13 330 -13 _c
246 -13 181 19 137 83 _c
92 147 70 241 70 364 _c
70 479 97 571 152 639 _c
206 707 280 742 372 742 _c
396 742 421 739 447 735 _c
472 730 498 723 526 713 _c
_cl}_e}_d
/seven{636 0 82 0 551 729 _sc
82 729 _m
551 729 _l
551 687 _l
286 0 _l
183 0 _l
432 646 _l
82 646 _l
82 729 _l
_cl}_d
/eight{{636 0 68 -13 568 742 _sc
318 346 _m
271 346 234 333 207 308 _c
180 283 167 249 167 205 _c
167 161 180 126 207 101 _c
234 76 271 64 318 64 _c
364 64 401 76 428 102 _c
455 127 469 161 469 205 _c
469 249 455 283 429 308 _c
402 333 365 346 318 346 _c
219 388 _m
177 398 144 418 120 447 _c
96 476 85 511 85 553 _c
85 611 105 657 147 691 _c
188 725 245 742 318 742 _c
}_e{390 742 447 725 489 691 _c
530 657 551 611 551 553 _c
551 511 539 476 515 447 _c
491 418 459 398 417 388 _c
464 377 501 355 528 323 _c
554 291 568 251 568 205 _c
568 134 546 80 503 43 _c
459 5 398 -13 318 -13 _c
237 -13 175 5 132 43 _c
89 80 68 134 68 205 _c
68 251 81 291 108 323 _c
134 355 171 377 219 388 _c
183 544 _m
183 506 194 476 218 455 _c
}_e{242 434 275 424 318 424 _c
360 424 393 434 417 455 _c
441 476 453 506 453 544 _c
453 582 441 611 417 632 _c
393 653 360 664 318 664 _c
275 664 242 653 218 632 _c
194 611 183 582 183 544 _c
_cl}_e}_d
/nine{{636 0 63 -13 566 742 _sc
110 15 _m
110 105 _l
134 93 159 84 185 78 _c
210 72 235 69 260 69 _c
324 69 374 90 408 134 _c
442 178 462 244 468 334 _c
448 306 424 284 396 269 _c
367 254 335 247 300 247 _c
226 247 168 269 126 313 _c
84 357 63 417 63 494 _c
63 568 85 628 129 674 _c
173 719 232 742 306 742 _c
390 742 455 709 499 645 _c
543 580 566 486 566 364 _c
}_e{566 248 538 157 484 89 _c
429 21 356 -13 264 -13 _c
239 -13 214 -10 189 -6 _c
163 -2 137 5 110 15 _c
306 324 _m
350 324 385 339 411 369 _c
437 399 450 441 450 494 _c
450 546 437 588 411 618 _c
385 648 350 664 306 664 _c
262 664 227 648 201 618 _c
175 588 162 546 162 494 _c
162 441 175 399 201 369 _c
227 339 262 324 306 324 _c
_cl}_e}_d
/equal{838 0 106 172 732 454 _sc
106 454 _m
732 454 _l
732 372 _l
106 372 _l
106 454 _l
106 255 _m
732 255 _l
732 172 _l
106 172 _l
106 255 _l
_cl}_d
/A{684 0 8 0 676 729 _sc
342 632 _m
208 269 _l
476 269 _l
342 632 _l
286 729 _m
398 729 _l
676 0 _l
573 0 _l
507 187 _l
178 187 _l
112 0 _l
8 0 _l
286 729 _l
_cl}_d
/C{{698 0 56 -13 644 742 _sc
644 673 _m
644 569 _l
610 599 575 622 537 638 _c
499 653 460 661 418 661 _c
334 661 270 635 226 584 _c
182 533 160 460 160 364 _c
160 268 182 194 226 143 _c
270 92 334 67 418 67 _c
460 67 499 74 537 90 _c
575 105 610 128 644 159 _c
644 56 _l
609 32 572 15 534 4 _c
496 -7 455 -13 412 -13 _c
302 -13 215 20 151 87 _c
}_e{87 154 56 246 56 364 _c
56 481 87 573 151 641 _c
215 708 302 742 412 742 _c
456 742 497 736 535 725 _c
573 713 610 696 644 673 _c
_cl}_e}_d
/E{632 0 98 0 568 729 _sc
98 729 _m
559 729 _l
559 646 _l
197 646 _l
197 430 _l
544 430 _l
544 347 _l
197 347 _l
197 83 _l
568 83 _l
568 0 _l
98 0 _l
98 729 _l
_cl}_d
/F{575 0 98 0 517 729 _sc
98 729 _m
517 729 _l
517 646 _l
197 646 _l
197 431 _l
486 431 _l
486 348 _l
197 348 _l
197 0 _l
98 0 _l
98 729 _l
_cl}_d
/I{295 0 98 0 197 729 _sc
98 729 _m
197 729 _l
197 0 _l
98 0 _l
98 729 _l
_cl}_d
/M{863 0 98 0 765 729 _sc
98 729 _m
245 729 _l
431 233 _l
618 729 _l
765 729 _l
765 0 _l
669 0 _l
669 640 _l
481 140 _l
382 140 _l
194 640 _l
194 0 _l
98 0 _l
98 729 _l
_cl}_d
/N{748 0 98 0 650 729 _sc
98 729 _m
231 729 _l
554 119 _l
554 729 _l
650 729 _l
650 0 _l
517 0 _l
194 610 _l
194 0 _l
98 0 _l
98 729 _l
_cl}_d
/O{787 0 56 -13 731 742 _sc
394 662 _m
322 662 265 635 223 582 _c
181 528 160 456 160 364 _c
160 272 181 199 223 146 _c
265 92 322 66 394 66 _c
465 66 522 92 564 146 _c
606 199 627 272 627 364 _c
627 456 606 528 564 582 _c
522 635 465 662 394 662 _c
394 742 _m
496 742 577 707 639 639 _c
700 571 731 479 731 364 _c
731 248 700 157 639 89 _c
577 21 496 -13 394 -13 _c
291 -13 209 21 148 89 _c
86 157 56 248 56 364 _c
56 479 86 571 148 639 _c
209 707 291 742 394 742 _c
_cl}_d
/P{603 0 98 0 569 729 _sc
197 648 _m
197 374 _l
321 374 _l
367 374 402 385 427 409 _c
452 433 465 467 465 511 _c
465 555 452 588 427 612 _c
402 636 367 648 321 648 _c
197 648 _l
98 729 _m
321 729 _l
402 729 464 710 506 673 _c
548 636 569 582 569 511 _c
569 439 548 384 506 348 _c
464 311 402 293 321 293 _c
197 293 _l
197 0 _l
98 0 _l
98 729 _l
_cl}_d
/S{{635 0 66 -13 579 742 _sc
535 705 _m
535 609 _l
497 627 462 640 429 649 _c
395 657 363 662 333 662 _c
279 662 237 651 208 631 _c
179 610 165 580 165 542 _c
165 510 174 485 194 469 _c
213 452 250 439 304 429 _c
364 417 _l
437 403 491 378 526 343 _c
561 307 579 260 579 201 _c
579 130 555 77 508 41 _c
460 5 391 -13 300 -13 _c
265 -13 228 -9 189 -2 _c
}_e{150 5 110 16 69 32 _c
69 134 _l
109 111 148 94 186 83 _c
224 71 262 66 300 66 _c
356 66 399 77 430 99 _c
460 121 476 152 476 194 _c
476 230 465 258 443 278 _c
421 298 385 313 335 323 _c
275 335 _l
201 349 148 372 115 404 _c
82 435 66 478 66 534 _c
66 598 88 649 134 686 _c
179 723 242 742 322 742 _c
356 742 390 739 426 733 _c
461 727 497 717 535 705 _c
}_e{_cl}_e}_d
/T{611 0 -2 0 614 729 _sc
-2 729 _m
614 729 _l
614 646 _l
355 646 _l
355 0 _l
256 0 _l
256 646 _l
-2 646 _l
-2 729 _l
_cl}_d
/W{989 0 33 0 956 729 _sc
33 729 _m
133 729 _l
286 113 _l
439 729 _l
550 729 _l
703 113 _l
856 729 _l
956 729 _l
773 0 _l
649 0 _l
495 633 _l
340 0 _l
216 0 _l
33 729 _l
_cl}_d
/a{{613 0 60 -13 522 560 _sc
343 275 _m
270 275 220 266 192 250 _c
164 233 150 205 150 165 _c
150 133 160 107 181 89 _c
202 70 231 61 267 61 _c
317 61 357 78 387 114 _c
417 149 432 196 432 255 _c
432 275 _l
343 275 _l
522 312 _m
522 0 _l
432 0 _l
432 83 _l
411 49 385 25 355 10 _c
325 -5 287 -13 243 -13 _c
187 -13 142 2 109 33 _c
76 64 60 106 60 159 _c
}_e{60 220 80 266 122 298 _c
163 329 224 345 306 345 _c
432 345 _l
432 354 _l
432 395 418 427 391 450 _c
364 472 326 484 277 484 _c
245 484 215 480 185 472 _c
155 464 127 453 100 439 _c
100 522 _l
132 534 164 544 195 550 _c
226 556 256 560 286 560 _c
365 560 424 539 463 498 _c
502 457 522 395 522 312 _c
_cl}_e}_d
/b{{635 0 91 -13 580 760 _sc
487 273 _m
487 339 473 390 446 428 _c
418 466 381 485 334 485 _c
286 485 249 466 222 428 _c
194 390 181 339 181 273 _c
181 207 194 155 222 117 _c
249 79 286 61 334 61 _c
381 61 418 79 446 117 _c
473 155 487 207 487 273 _c
181 464 _m
199 496 223 520 252 536 _c
281 552 316 560 356 560 _c
422 560 476 533 518 481 _c
559 428 580 359 580 273 _c
}_e{580 187 559 117 518 65 _c
476 13 422 -13 356 -13 _c
316 -13 281 -5 252 10 _c
223 25 199 49 181 82 _c
181 0 _l
91 0 _l
91 760 _l
181 760 _l
181 464 _l
_cl}_e}_d
/c{{550 0 55 -13 488 560 _sc
488 526 _m
488 442 _l
462 456 437 466 411 473 _c
385 480 360 484 334 484 _c
276 484 230 465 198 428 _c
166 391 150 339 150 273 _c
150 206 166 154 198 117 _c
230 80 276 62 334 62 _c
360 62 385 65 411 72 _c
437 79 462 90 488 104 _c
488 21 _l
462 9 436 0 410 -5 _c
383 -10 354 -13 324 -13 _c
242 -13 176 12 128 64 _c
}_e{79 115 55 185 55 273 _c
55 362 79 432 128 483 _c
177 534 244 560 330 560 _c
358 560 385 557 411 551 _c
437 545 463 537 488 526 _c
_cl}_e}_d
/d{{635 0 55 -13 544 760 _sc
454 464 _m
454 760 _l
544 760 _l
544 0 _l
454 0 _l
454 82 _l
435 49 411 25 382 10 _c
353 -5 319 -13 279 -13 _c
213 -13 159 13 117 65 _c
75 117 55 187 55 273 _c
55 359 75 428 117 481 _c
159 533 213 560 279 560 _c
319 560 353 552 382 536 _c
411 520 435 496 454 464 _c
148 273 _m
148 207 161 155 188 117 _c
215 79 253 61 301 61 _c
}_e{348 61 385 79 413 117 _c
440 155 454 207 454 273 _c
454 339 440 390 413 428 _c
385 466 348 485 301 485 _c
253 485 215 466 188 428 _c
161 390 148 339 148 273 _c
_cl}_e}_d
/e{{615 0 55 -13 562 560 _sc
562 296 _m
562 252 _l
149 252 _l
153 190 171 142 205 110 _c
238 78 284 62 344 62 _c
378 62 412 66 444 74 _c
476 82 509 95 541 113 _c
541 28 _l
509 14 476 3 442 -3 _c
408 -9 373 -13 339 -13 _c
251 -13 182 12 131 62 _c
80 112 55 181 55 268 _c
55 357 79 428 127 481 _c
175 533 241 560 323 560 _c
397 560 455 536 498 489 _c
}_e{540 441 562 377 562 296 _c
472 322 _m
471 371 457 410 431 440 _c
404 469 368 484 324 484 _c
274 484 234 469 204 441 _c
174 413 156 373 152 322 _c
472 322 _l
_cl}_e}_d
/f{352 0 23 0 371 760 _sc
371 760 _m
371 685 _l
285 685 _l
253 685 230 678 218 665 _c
205 652 199 629 199 595 _c
199 547 _l
347 547 _l
347 477 _l
199 477 _l
199 0 _l
109 0 _l
109 477 _l
23 477 _l
23 547 _l
109 547 _l
109 585 _l
109 645 123 690 151 718 _c
179 746 224 760 286 760 _c
371 760 _l
_cl}_d
/g{{635 0 55 -207 544 560 _sc
454 280 _m
454 344 440 395 414 431 _c
387 467 349 485 301 485 _c
253 485 215 467 188 431 _c
161 395 148 344 148 280 _c
148 215 161 165 188 129 _c
215 93 253 75 301 75 _c
349 75 387 93 414 129 _c
440 165 454 215 454 280 _c
544 68 _m
544 -24 523 -93 482 -139 _c
440 -184 377 -207 292 -207 _c
260 -207 231 -204 203 -200 _c
175 -195 147 -188 121 -178 _c
}_e{121 -91 _l
147 -105 173 -115 199 -122 _c
225 -129 251 -133 278 -133 _c
336 -133 380 -117 410 -87 _c
439 -56 454 -10 454 52 _c
454 96 _l
435 64 411 40 382 24 _c
353 8 319 0 279 0 _c
211 0 157 25 116 76 _c
75 127 55 195 55 280 _c
55 364 75 432 116 483 _c
157 534 211 560 279 560 _c
319 560 353 552 382 536 _c
411 520 435 496 454 464 _c
454 547 _l
544 547 _l
}_e{544 68 _l
_cl}_e}_d
/h{634 0 91 0 549 760 _sc
549 330 _m
549 0 _l
459 0 _l
459 327 _l
459 379 448 417 428 443 _c
408 469 378 482 338 482 _c
289 482 251 466 223 435 _c
195 404 181 362 181 309 _c
181 0 _l
91 0 _l
91 760 _l
181 760 _l
181 462 _l
202 494 227 519 257 535 _c
286 551 320 560 358 560 _c
420 560 468 540 500 501 _c
532 462 549 405 549 330 _c
_cl}_d
/i{278 0 94 0 184 760 _sc
94 547 _m
184 547 _l
184 0 _l
94 0 _l
94 547 _l
94 760 _m
184 760 _l
184 646 _l
94 646 _l
94 760 _l
_cl}_d
/l{278 0 94 0 184 760 _sc
94 760 _m
184 760 _l
184 0 _l
94 0 _l
94 760 _l
_cl}_d
/m{{974 0 91 0 889 560 _sc
520 442 _m
542 482 569 511 600 531 _c
631 550 668 560 711 560 _c
767 560 811 540 842 500 _c
873 460 889 403 889 330 _c
889 0 _l
799 0 _l
799 327 _l
799 379 789 418 771 444 _c
752 469 724 482 686 482 _c
639 482 602 466 575 435 _c
548 404 535 362 535 309 _c
535 0 _l
445 0 _l
445 327 _l
445 379 435 418 417 444 _c
398 469 369 482 331 482 _c
}_e{285 482 248 466 221 435 _c
194 404 181 362 181 309 _c
181 0 _l
91 0 _l
91 547 _l
181 547 _l
181 462 _l
201 495 226 520 255 536 _c
283 552 317 560 357 560 _c
397 560 430 550 458 530 _c
486 510 506 480 520 442 _c
_cl}_e}_d
/n{634 0 91 0 549 560 _sc
549 330 _m
549 0 _l
459 0 _l
459 327 _l
459 379 448 417 428 443 _c
408 469 378 482 338 482 _c
289 482 251 466 223 435 _c
195 404 181 362 181 309 _c
181 0 _l
91 0 _l
91 547 _l
181 547 _l
181 462 _l
202 494 227 519 257 535 _c
286 551 320 560 358 560 _c
420 560 468 540 500 501 _c
532 462 549 405 549 330 _c
_cl}_d
/o{612 0 55 -13 557 560 _sc
306 484 _m
258 484 220 465 192 427 _c
164 389 150 338 150 273 _c
150 207 163 156 191 118 _c
219 80 257 62 306 62 _c
354 62 392 80 420 118 _c
448 156 462 207 462 273 _c
462 337 448 389 420 427 _c
392 465 354 484 306 484 _c
306 560 _m
384 560 445 534 490 484 _c
534 433 557 363 557 273 _c
557 183 534 113 490 63 _c
445 12 384 -13 306 -13 _c
227 -13 165 12 121 63 _c
77 113 55 183 55 273 _c
55 363 77 433 121 484 _c
165 534 227 560 306 560 _c
_cl}_d
/p{{635 0 91 -207 580 560 _sc
181 82 _m
181 -207 _l
91 -207 _l
91 547 _l
181 547 _l
181 464 _l
199 496 223 520 252 536 _c
281 552 316 560 356 560 _c
422 560 476 533 518 481 _c
559 428 580 359 580 273 _c
580 187 559 117 518 65 _c
476 13 422 -13 356 -13 _c
316 -13 281 -5 252 10 _c
223 25 199 49 181 82 _c
487 273 _m
487 339 473 390 446 428 _c
418 466 381 485 334 485 _c
}_e{286 485 249 466 222 428 _c
194 390 181 339 181 273 _c
181 207 194 155 222 117 _c
249 79 286 61 334 61 _c
381 61 418 79 446 117 _c
473 155 487 207 487 273 _c
_cl}_e}_d
/r{411 0 91 0 411 560 _sc
411 463 _m
401 469 390 473 378 476 _c
366 478 353 480 339 480 _c
288 480 249 463 222 430 _c
194 397 181 350 181 288 _c
181 0 _l
91 0 _l
91 547 _l
181 547 _l
181 462 _l
199 495 224 520 254 536 _c
284 552 321 560 365 560 _c
371 560 378 559 386 559 _c
393 558 401 557 411 555 _c
411 463 _l
_cl}_d
/s{{521 0 54 -13 472 560 _sc
443 531 _m
443 446 _l
417 458 391 468 364 475 _c
336 481 308 485 279 485 _c
234 485 200 478 178 464 _c
156 450 145 430 145 403 _c
145 382 153 366 169 354 _c
185 342 217 330 265 320 _c
296 313 _l
360 299 405 279 432 255 _c
458 230 472 195 472 151 _c
472 100 452 60 412 31 _c
372 1 316 -13 246 -13 _c
216 -13 186 -10 154 -5 _c
}_e{122 0 89 8 54 20 _c
54 113 _l
87 95 120 82 152 74 _c
184 65 216 61 248 61 _c
290 61 323 68 346 82 _c
368 96 380 117 380 144 _c
380 168 371 187 355 200 _c
339 213 303 226 247 238 _c
216 245 _l
160 257 119 275 95 299 _c
70 323 58 356 58 399 _c
58 450 76 490 112 518 _c
148 546 200 560 268 560 _c
301 560 332 557 362 552 _c
391 547 418 540 443 531 _c
}_e{_cl}_e}_d
/t{392 0 27 0 368 702 _sc
183 702 _m
183 547 _l
368 547 _l
368 477 _l
183 477 _l
183 180 _l
183 135 189 106 201 94 _c
213 81 238 75 276 75 _c
368 75 _l
368 0 _l
276 0 _l
206 0 158 13 132 39 _c
106 65 93 112 93 180 _c
93 477 _l
27 477 _l
27 547 _l
93 547 _l
93 702 _l
183 702 _l
_cl}_d
/u{634 0 85 -13 543 560 _sc
85 216 _m
85 547 _l
175 547 _l
175 219 _l
175 167 185 129 205 103 _c
225 77 255 64 296 64 _c
344 64 383 79 411 110 _c
439 141 453 183 453 237 _c
453 547 _l
543 547 _l
543 0 _l
453 0 _l
453 84 _l
431 50 405 26 377 10 _c
348 -5 315 -13 277 -13 _c
214 -13 166 6 134 45 _c
101 83 85 140 85 216 _c
311 560 _m
311 560 _l
_cl}_d
/ntilde{634 0 91 0 549 777 _sc
false CharStrings /n get exec
gsave 74 0 translate
false CharStrings /tilde get exec
grestore }_d
/tilde{{500 0 89 639 411 777 _sc
248 669 _m
220 696 _l
212 702 206 707 201 710 _c
195 713 191 715 187 715 _c
174 715 165 709 159 697 _c
153 685 150 665 150 639 _c
89 639 _l
89 683 98 717 115 741 _c
131 765 154 777 184 777 _c
196 777 208 774 218 770 _c
228 765 240 757 252 747 _c
280 720 _l
287 713 293 708 299 705 _c
304 702 309 701 313 701 _c
325 701 334 707 340 719 _c
}_e{346 731 349 750 350 777 _c
411 777 _l
410 733 401 699 385 675 _c
368 651 345 639 316 639 _c
303 639 291 641 281 646 _c
271 650 260 658 248 669 _c
_cl}_e}_d
/emdash{1000 0 49 239 951 309 _sc
49 309 _m
951 309 _l
951 239 _l
49 239 _l
49 309 _l
_cl}_d
/minus{838 0 106 272 732 355 _sc
106 355 _m
732 355 _l
732 272 _l
106 272 _l
106 355 _l
_cl}_d
end readonly def

/BuildGlyph
 {exch begin
 CharStrings exch
 2 copy known not{pop /.notdef}if
 true 3 1 roll get exec
 end}_d

/BuildChar {
 1 index /Encoding get exch get
 1 index /BuildGlyph get exec
}_d

FontName currentdict end definefont pop
%!PS-Adobe-3.0 Resource-Font
%%Title: DejaVu Sans Bold
%%Copyright: Copyright (c) 2003 by Bitstream, Inc. All Rights Reserved. Copyright (c) 2006 by Tavmjong Bah. All Rights Reserved. DejaVu changes are in public domain 
%%Creator: Converted from TrueType to type 3 by PPR
25 dict begin
/_d{bind def}bind def
/_m{moveto}_d
/_l{lineto}_d
/_cl{closepath eofill}_d
/_c{curveto}_d
/_sc{7 -1 roll{setcachedevice}{pop pop pop pop pop pop}ifelse}_d
/_e{exec}_d
/FontName /DejaVuSans-Bold def
/PaintType 0 def
/FontMatrix[.001 0 0 .001 0 0]def
/FontBBox[-1069 -415 1975 1174]def
/FontType 3 def
/Encoding [ /a /b /c /d /e /f ] def
/FontInfo 10 dict dup begin
/FamilyName (DejaVu Sans) def
/FullName (DejaVu Sans Bold) def
/Notice (Copyright (c) 2003 by Bitstream, Inc. All Rights Reserved. Copyright (c) 2006 by Tavmjong Bah. All Rights Reserved. DejaVu changes are in public domain ) def
/Weight (Bold) def
/Version (Version 2.35) def
/ItalicAngle 0.0 def
/isFixedPitch false def
/UnderlinePosition -130 def
/UnderlineThickness 90 def
end readonly def
/CharStrings 7 dict dup begin
/.notdef 0 def
/a{{675 0 43 -13 596 560 _sc
329 246 _m
292 246 264 239 246 227 _c
228 215 219 197 219 173 _c
219 151 226 133 241 121 _c
256 108 277 102 303 102 _c
336 102 364 113 386 137 _c
408 161 420 190 420 226 _c
420 246 _l
329 246 _l
596 312 _m
596 0 _l
420 0 _l
420 81 _l
396 47 370 23 341 9 _c
311 -5 276 -13 234 -13 _c
177 -13 131 3 96 36 _c
60 68 43 111 43 164 _c
}_e{43 228 65 275 109 305 _c
153 335 222 350 317 350 _c
420 350 _l
420 364 _l
420 391 409 411 387 424 _c
365 437 331 444 285 444 _c
247 444 212 440 180 432 _c
148 424 118 413 91 399 _c
91 532 _l
128 541 165 548 203 553 _c
241 557 279 560 317 560 _c
415 560 486 540 530 501 _c
574 462 596 399 596 312 _c
_cl}_e}_d
/b{{716 0 84 -13 671 760 _sc
375 113 _m
412 113 440 126 460 154 _c
480 181 490 221 490 273 _c
490 325 480 364 460 392 _c
440 419 412 433 375 433 _c
337 433 309 419 289 392 _c
269 364 259 325 259 273 _c
259 221 269 181 289 154 _c
309 126 337 113 375 113 _c
259 467 _m
283 499 309 522 339 537 _c
368 552 402 560 440 560 _c
507 560 562 533 606 479 _c
649 425 671 357 671 273 _c
}_e{671 188 649 119 606 66 _c
562 13 507 -13 440 -13 _c
402 -13 368 -5 339 9 _c
309 23 283 47 259 79 _c
259 0 _l
84 0 _l
84 760 _l
259 760 _l
259 467 _l
_cl}_e}_d
/c{{593 0 43 -13 526 560 _sc
526 530 _m
526 387 _l
502 403 478 415 454 423 _c
430 431 405 435 380 435 _c
331 435 293 420 266 392 _c
238 364 225 324 225 273 _c
225 221 238 181 266 153 _c
293 125 331 111 380 111 _c
407 111 433 115 458 123 _c
482 131 505 143 526 159 _c
526 16 _l
498 6 470 -1 442 -6 _c
414 -10 386 -13 358 -13 _c
259 -13 182 12 126 62 _c
}_e{70 112 43 183 43 273 _c
43 363 70 433 126 484 _c
182 534 259 560 358 560 _c
386 560 414 557 442 552 _c
470 547 498 540 526 530 _c
_cl}_e}_d
/d{{716 0 45 -13 632 760 _sc
456 467 _m
456 760 _l
632 760 _l
632 0 _l
456 0 _l
456 79 _l
432 47 405 23 376 9 _c
347 -5 314 -13 276 -13 _c
208 -13 153 13 110 66 _c
66 119 45 188 45 273 _c
45 357 66 425 110 479 _c
153 533 208 560 276 560 _c
314 560 347 552 376 537 _c
405 522 432 499 456 467 _c
341 113 _m
378 113 406 126 426 154 _c
446 181 456 221 456 273 _c
}_e{456 325 446 364 426 392 _c
406 419 378 433 341 433 _c
303 433 275 419 255 392 _c
235 364 226 325 226 273 _c
226 221 235 181 255 154 _c
275 126 303 113 341 113 _c
_cl}_e}_d
/e{{678 0 43 -13 630 560 _sc
630 275 _m
630 225 _l
221 225 _l
225 184 240 153 266 133 _c
291 112 326 102 372 102 _c
408 102 446 107 485 118 _c
523 129 563 146 604 168 _c
604 33 _l
562 17 521 6 480 -1 _c
438 -9 397 -13 356 -13 _c
257 -13 180 12 125 62 _c
70 112 43 182 43 273 _c
43 362 70 432 124 483 _c
178 534 252 560 346 560 _c
432 560 500 534 552 482 _c
}_e{604 430 630 361 630 275 _c
450 333 _m
450 366 440 393 421 413 _c
401 433 376 444 345 444 _c
311 444 283 434 262 415 _c
241 396 228 369 223 333 _c
450 333 _l
_cl}_e}_d
/f{435 0 19 0 444 760 _sc
444 760 _m
444 645 _l
347 645 _l
322 645 305 640 295 631 _c
285 622 281 607 281 585 _c
281 547 _l
430 547 _l
430 422 _l
281 422 _l
281 0 _l
106 0 _l
106 422 _l
19 422 _l
19 547 _l
106 547 _l
106 585 _l
106 644 122 688 156 717 _c
189 745 240 760 310 760 _c
444 760 _l
_cl}_d
end readonly def

/BuildGlyph
 {exch begin
 CharStrings exch
 2 copy known not{pop /.notdef}if
 true 3 1 roll get exec
 end}_d

/BuildChar {
 1 index /Encoding get exch get
 1 index /BuildGlyph get exec
}_d

FontName currentdict end definefont pop
end
%%EndProlog
mpldict begin
-121.198 153.184 translate
854.396 485.632 0 0 clipbox
gsave
0 0 m
854.395937 0 l
854.395937 485.63198 l
0 485.63198 l
cl
1.000 setgray
fill
grestore
gsave
64.86875 280.6 m
280.86875 280.6 l
280.86875 452.464 l
64.86875 452.464 l
cl
1.000 setgray
fill
grestore
0.500 setlinewidth
1 setlinejoin
2 setlinecap
[] 0 setdash
0.000 setgray
gsave
216 171.9 64.87 280.6 clipbox
64.86875 280.6 m
64.86875 452.464 l
stroke
grestore
0 setlinecap
gsave
/o {
gsave
newpath
translate
0.5 setlinewidth
1 setlinejoin
0 setlinecap
0 0 m
0 -6 l

gsave
0.000 setgray
fill
grestore
stroke
grestore
} bind def
64.8687 280.6 o
grestore
/DejaVuSans findfont
12.000 scalefont
setfont
gsave
51.501562 261.975000 translate
0.000000 rotate
0.000000 0 m /zero glyphshow
7.634766 0 m /period glyphshow
11.449219 0 m /nine glyphshow
19.083984 0 m /zero glyphshow
grestore
2 setlinecap
gsave
216 171.9 64.87 280.6 clipbox
118.86875 280.6 m
118.86875 452.464 l
stroke
grestore
0 setlinecap
gsave
/o {
gsave
newpath
translate
0.5 setlinewidth
1 setlinejoin
0 setlinecap
0 0 m
0 -6 l

gsave
0.000 setgray
fill
grestore
stroke
grestore
} bind def
118.869 280.6 o
grestore
gsave
105.501562 261.975000 translate
0.000000 rotate
0.000000 0 m /zero glyphshow
7.634766 0 m /period glyphshow
11.449219 0 m /nine glyphshow
19.083984 0 m /five glyphshow
grestore
2 setlinecap
gsave
216 171.9 64.87 280.6 clipbox
172.86875 280.6 m
172.86875 452.464 l
stroke
grestore
0 setlinecap
gsave
/o {
gsave
newpath
translate
0.5 setlinewidth
1 setlinejoin
0 setlinecap
0 0 m
0 -6 l

gsave
0.000 setgray
fill
grestore
stroke
grestore
} bind def
172.869 280.6 o
grestore
gsave
159.501562 261.975000 translate
0.000000 rotate
0.000000 0 m /one glyphshow
7.634766 0 m /period glyphshow
11.449219 0 m /zero glyphshow
19.083984 0 m /zero glyphshow
grestore
2 setlinecap
gsave
216 171.9 64.87 280.6 clipbox
226.86875 280.6 m
226.86875 452.464 l
stroke
grestore
0 setlinecap
gsave
/o {
gsave
newpath
translate
0.5 setlinewidth
1 setlinejoin
0 setlinecap
0 0 m
0 -6 l

gsave
0.000 setgray
fill
grestore
stroke
grestore
} bind def
226.869 280.6 o
grestore
gsave
213.501563 261.975000 translate
0.000000 rotate
0.000000 0 m /one glyphshow
7.634766 0 m /period glyphshow
11.449219 0 m /zero glyphshow
19.083984 0 m /five glyphshow
grestore
2 setlinecap
gsave
216 171.9 64.87 280.6 clipbox
280.86875 280.6 m
280.86875 452.464 l
stroke
grestore
0 setlinecap
gsave
/o {
gsave
newpath
translate
0.5 setlinewidth
1 setlinejoin
0 setlinecap
0 0 m
0 -6 l

gsave
0.000 setgray
fill
grestore
stroke
grestore
} bind def
280.869 280.6 o
grestore
gsave
267.501562 261.975000 translate
0.000000 rotate
0.000000 0 m /one glyphshow
7.634766 0 m /period glyphshow
11.449219 0 m /one glyphshow
19.083984 0 m /zero glyphshow
grestore
2 setlinecap
gsave
216 171.9 64.87 280.6 clipbox
64.86875 280.6 m
280.86875 280.6 l
stroke
grestore
0 setlinecap
gsave
/o {
gsave
newpath
translate
0.5 setlinewidth
1 setlinejoin
0 setlinecap
-0 0 m
-6 0 l

gsave
0.000 setgray
fill
grestore
stroke
grestore
} bind def
64.8688 280.6 o
grestore
gsave
36.275000 276.037500 translate
0.000000 rotate
0.000000 0 m /zero glyphshow
7.634766 0 m /period glyphshow
11.449219 0 m /seven glyphshow
grestore
2 setlinecap
gsave
216 171.9 64.87 280.6 clipbox
64.86875 309.244 m
280.86875 309.244 l
stroke
grestore
0 setlinecap
gsave
/o {
gsave
newpath
translate
0.5 setlinewidth
1 setlinejoin
0 setlinecap
-0 0 m
-6 0 l

gsave
0.000 setgray
fill
grestore
stroke
grestore
} bind def
64.8688 309.244 o
grestore
gsave
36.275000 304.681500 translate
0.000000 rotate
0.000000 0 m /zero glyphshow
7.634766 0 m /period glyphshow
11.449219 0 m /eight glyphshow
grestore
2 setlinecap
gsave
216 171.9 64.87 280.6 clipbox
64.86875 337.888 m
280.86875 337.888 l
stroke
grestore
0 setlinecap
gsave
/o {
gsave
newpath
translate
0.5 setlinewidth
1 setlinejoin
0 setlinecap
-0 0 m
-6 0 l

gsave
0.000 setgray
fill
grestore
stroke
grestore
} bind def
64.8688 337.888 o
grestore
gsave
36.275000 333.325500 translate
0.000000 rotate
0.000000 0 m /zero glyphshow
7.634766 0 m /period glyphshow
11.449219 0 m /nine glyphshow
grestore
2 setlinecap
gsave
216 171.9 64.87 280.6 clipbox
64.86875 366.532 m
280.86875 366.532 l
stroke
grestore
0 setlinecap
gsave
/o {
gsave
newpath
translate
0.5 setlinewidth
1 setlinejoin
0 setlinecap
-0 0 m
-6 0 l

gsave
0.000 setgray
fill
grestore
stroke
grestore
} bind def
64.8688 366.532 o
grestore
gsave
36.275000 361.969500 translate
0.000000 rotate
0.000000 0 m /one glyphshow
7.634766 0 m /period glyphshow
11.449219 0 m /zero glyphshow
grestore
2 setlinecap
gsave
216 171.9 64.87 280.6 clipbox
64.86875 395.176 m
280.86875 395.176 l
stroke
grestore
0 setlinecap
gsave
/o {
gsave
newpath
translate
0.5 setlinewidth
1 setlinejoin
0 setlinecap
-0 0 m
-6 0 l

gsave
0.000 setgray
fill
grestore
stroke
grestore
} bind def
64.8688 395.176 o
grestore
gsave
36.275000 390.613500 translate
0.000000 rotate
0.000000 0 m /one glyphshow
7.634766 0 m /period glyphshow
11.449219 0 m /one glyphshow
grestore
2 setlinecap
gsave
216 171.9 64.87 280.6 clipbox
64.86875 423.82 m
280.86875 423.82 l
stroke
grestore
0 setlinecap
gsave
/o {
gsave
newpath
translate
0.5 setlinewidth
1 setlinejoin
0 setlinecap
-0 0 m
-6 0 l

gsave
0.000 setgray
fill
grestore
stroke
grestore
} bind def
64.8688 423.82 o
grestore
gsave
36.275000 419.257500 translate
0.000000 rotate
0.000000 0 m /one glyphshow
7.634766 0 m /period glyphshow
11.449219 0 m /two glyphshow
grestore
2 setlinecap
gsave
216 171.9 64.87 280.6 clipbox
64.86875 452.464 m
280.86875 452.464 l
stroke
grestore
0 setlinecap
gsave
/o {
gsave
newpath
translate
0.5 setlinewidth
1 setlinejoin
0 setlinecap
-0 0 m
-6 0 l

gsave
0.000 setgray
fill
grestore
stroke
grestore
} bind def
64.8688 452.464 o
grestore
gsave
36.275000 447.901500 translate
0.000000 rotate
0.000000 0 m /one glyphshow
7.634766 0 m /period glyphshow
11.449219 0 m /three glyphshow
grestore
gsave
16.325000 276.172625 translate
90.000000 rotate
0.000000 0 m /I glyphshow
3.539062 0 m /o glyphshow
10.880859 0 m /n glyphshow
18.486328 0 m /period glyphshow
22.300781 0 m /space glyphshow
26.115234 0 m /p glyphshow
33.732422 0 m /o glyphshow
41.074219 0 m /t glyphshow
45.779297 0 m /e glyphshow
53.162109 0 m /n glyphshow
60.767578 0 m /t glyphshow
65.472656 0 m /i glyphshow
68.806641 0 m /a glyphshow
76.160156 0 m /l glyphshow
79.494141 0 m /space glyphshow
83.308594 0 m /i glyphshow
86.642578 0 m /n glyphshow
94.248047 0 m /space glyphshow
98.062500 0 m /O glyphshow
107.507812 0 m /c glyphshow
114.105469 0 m /t glyphshow
118.810547 0 m /emdash glyphshow
130.810547 0 m /F glyphshow
137.087891 0 m /e glyphshow
144.470703 0 m /b glyphshow
152.087891 0 m /space glyphshow
155.902344 0 m /a glyphshow
163.255859 0 m /s glyphshow
169.507812 0 m /space glyphshow
173.322266 0 m /a glyphshow
grestore
gsave
29.775000 273.852313 translate
90.000000 rotate
0.000000 0 m /f glyphshow
4.224609 0 m /r glyphshow
9.158203 0 m /a glyphshow
16.511719 0 m /c glyphshow
23.109375 0 m /t glyphshow
27.814453 0 m /i glyphshow
31.148438 0 m /o glyphshow
38.490234 0 m /n glyphshow
46.095703 0 m /space glyphshow
49.910156 0 m /o glyphshow
57.251953 0 m /f glyphshow
61.476562 0 m /space glyphshow
65.291016 0 m /t glyphshow
69.996094 0 m /h glyphshow
77.601562 0 m /e glyphshow
84.984375 0 m /space glyphshow
88.798828 0 m /l glyphshow
92.132812 0 m /o glyphshow
99.474609 0 m /n glyphshow
107.080078 0 m /g glyphshow
114.697266 0 m /hyphen glyphshow
119.027344 0 m /t glyphshow
123.732422 0 m /e glyphshow
131.115234 0 m /r glyphshow
135.798828 0 m /m glyphshow
147.488281 0 m /space glyphshow
151.302734 0 m /m glyphshow
162.992188 0 m /e glyphshow
170.375000 0 m /a glyphshow
177.728516 0 m /n glyphshow
grestore
1.250 setlinewidth
2 setlinecap
0.494 0.078 0.086 setrgbcolor
gsave
216 171.9 64.87 280.6 clipbox
64.86875 424.53956 m
75.66875 418.737193 l
86.46875 412.934826 l
97.26875 407.132459 l
108.06875 401.330092 l
118.86875 395.527725 l
129.66875 389.725358 l
140.46875 383.922991 l
151.26875 378.120624 l
162.06875 372.318257 l
172.86875 366.51589 l
183.66875 360.713523 l
194.46875 354.911156 l
205.26875 349.108789 l
216.06875 343.306423 l
226.86875 337.504056 l
237.66875 331.701689 l
248.46875 325.899322 l
259.26875 320.096955 l
270.06875 314.294588 l
280.86875 308.492221 l
stroke
grestore
1.000 setlinewidth
0 setlinecap
gsave
216 171.9 64.87 280.6 clipbox
/o {
gsave
newpath
translate
1.0 setlinewidth
1 setlinejoin
0 setlinecap
0 -3 m
0.795609 -3 1.55874 -2.683901 2.12132 -2.12132 c
2.683901 -1.55874 3 -0.795609 3 0 c
3 0.795609 2.683901 1.55874 2.12132 2.12132 c
1.55874 2.683901 0.795609 3 0 3 c
-0.795609 3 -1.55874 2.683901 -2.12132 2.12132 c
-2.683901 1.55874 -3 0.795609 -3 0 c
-3 -0.795609 -2.683901 -1.55874 -2.12132 -2.12132 c
-1.55874 -2.683901 -0.795609 -3 0 -3 c
cl

gsave
0.494 0.078 0.086 setrgbcolor
fill
grestore
stroke
grestore
} bind def
147.397 421.826 o
226.115 349.344 o
109.045 369.267 o
134.368 373.665 o
171.541 369.923 o
162.87 371.889 o
198.792 348.371 o
273.572 294.166 o
158.276 389.471 o
146.376 377.417 o
grestore
0.500 setlinewidth
0 setlinejoin
2 setlinecap
0.000 setgray
gsave
64.86875 280.6 m
64.86875 452.464 l
stroke
grestore
gsave
280.86875 280.6 m
280.86875 452.464 l
stroke
grestore
gsave
64.86875 280.6 m
280.86875 280.6 l
stroke
grestore
gsave
64.86875 452.464 m
280.86875 452.464 l
stroke
grestore
/DejaVuSans-Bold findfont
14.400 scalefont
setfont
gsave
34.628750 467.494480 translate
0.000000 rotate
0.000000 0 m /a glyphshow
grestore
/DejaVuSans findfont
12.000 scalefont
setfont
gsave
78.775000 458.464000 translate
0.000000 rotate
0.000000 0 m /M glyphshow
10.353516 0 m /a glyphshow
17.707031 0 m /r glyphshow
22.640625 0 m /i glyphshow
25.974609 0 m /t glyphshow
30.679688 0 m /i glyphshow
34.013672 0 m /m glyphshow
45.703125 0 m /e glyphshow
53.085938 0 m /space glyphshow
56.900391 0 m /C glyphshow
65.279297 0 m /o glyphshow
72.621094 0 m /n glyphshow
80.226562 0 m /t glyphshow
84.931641 0 m /i glyphshow
88.265625 0 m /n glyphshow
95.871094 0 m /e glyphshow
103.253906 0 m /n glyphshow
110.859375 0 m /t glyphshow
115.564453 0 m /space glyphshow
119.378906 0 m /parenleft glyphshow
124.060547 0 m /r glyphshow
128.994141 0 m /space glyphshow
132.808594 0 m /equal glyphshow
142.863281 0 m /space glyphshow
146.677734 0 m /minus glyphshow
156.732422 0 m /zero glyphshow
164.367188 0 m /period glyphshow
168.181641 0 m /seven glyphshow
175.816406 0 m /nine glyphshow
183.451172 0 m /parenright glyphshow
grestore
gsave
341.34875 280.6 m
557.34875 280.6 l
557.34875 452.464 l
341.34875 452.464 l
cl
1.000 setgray
fill
grestore
1 setlinejoin
gsave
216 171.9 341.3 280.6 clipbox
341.34875 280.6 m
341.34875 452.464 l
stroke
grestore
0 setlinecap
gsave
/o {
gsave
newpath
translate
0.5 setlinewidth
1 setlinejoin
0 setlinecap
0 0 m
0 -6 l

gsave
0.000 setgray
fill
grestore
stroke
grestore
} bind def
341.349 280.6 o
grestore
gsave
327.981563 261.975000 translate
0.000000 rotate
0.000000 0 m /zero glyphshow
7.634766 0 m /period glyphshow
11.449219 0 m /nine glyphshow
19.083984 0 m /zero glyphshow
grestore
2 setlinecap
gsave
216 171.9 341.3 280.6 clipbox
395.34875 280.6 m
395.34875 452.464 l
stroke
grestore
0 setlinecap
gsave
/o {
gsave
newpath
translate
0.5 setlinewidth
1 setlinejoin
0 setlinecap
0 0 m
0 -6 l

gsave
0.000 setgray
fill
grestore
stroke
grestore
} bind def
395.349 280.6 o
grestore
gsave
381.981563 261.975000 translate
0.000000 rotate
0.000000 0 m /zero glyphshow
7.634766 0 m /period glyphshow
11.449219 0 m /nine glyphshow
19.083984 0 m /five glyphshow
grestore
2 setlinecap
gsave
216 171.9 341.3 280.6 clipbox
449.34875 280.6 m
449.34875 452.464 l
stroke
grestore
0 setlinecap
gsave
/o {
gsave
newpath
translate
0.5 setlinewidth
1 setlinejoin
0 setlinecap
0 0 m
0 -6 l

gsave
0.000 setgray
fill
grestore
stroke
grestore
} bind def
449.349 280.6 o
grestore
gsave
435.981563 261.975000 translate
0.000000 rotate
0.000000 0 m /one glyphshow
7.634766 0 m /period glyphshow
11.449219 0 m /zero glyphshow
19.083984 0 m /zero glyphshow
grestore
2 setlinecap
gsave
216 171.9 341.3 280.6 clipbox
503.34875 280.6 m
503.34875 452.464 l
stroke
grestore
0 setlinecap
gsave
/o {
gsave
newpath
translate
0.5 setlinewidth
1 setlinejoin
0 setlinecap
0 0 m
0 -6 l

gsave
0.000 setgray
fill
grestore
stroke
grestore
} bind def
503.349 280.6 o
grestore
gsave
489.981563 261.975000 translate
0.000000 rotate
0.000000 0 m /one glyphshow
7.634766 0 m /period glyphshow
11.449219 0 m /zero glyphshow
19.083984 0 m /five glyphshow
grestore
2 setlinecap
gsave
216 171.9 341.3 280.6 clipbox
557.34875 280.6 m
557.34875 452.464 l
stroke
grestore
0 setlinecap
gsave
/o {
gsave
newpath
translate
0.5 setlinewidth
1 setlinejoin
0 setlinecap
0 0 m
0 -6 l

gsave
0.000 setgray
fill
grestore
stroke
grestore
} bind def
557.349 280.6 o
grestore
gsave
543.981563 261.975000 translate
0.000000 rotate
0.000000 0 m /one glyphshow
7.634766 0 m /period glyphshow
11.449219 0 m /one glyphshow
19.083984 0 m /zero glyphshow
grestore
2 setlinecap
gsave
216 171.9 341.3 280.6 clipbox
341.34875 280.6 m
557.34875 280.6 l
stroke
grestore
0 setlinecap
gsave
/o {
gsave
newpath
translate
0.5 setlinewidth
1 setlinejoin
0 setlinecap
-0 0 m
-6 0 l

gsave
0.000 setgray
fill
grestore
stroke
grestore
} bind def
341.349 280.6 o
grestore
gsave
312.755000 276.037500 translate
0.000000 rotate
0.000000 0 m /zero glyphshow
7.634766 0 m /period glyphshow
11.449219 0 m /seven glyphshow
grestore
2 setlinecap
gsave
216 171.9 341.3 280.6 clipbox
341.34875 309.244 m
557.34875 309.244 l
stroke
grestore
0 setlinecap
gsave
/o {
gsave
newpath
translate
0.5 setlinewidth
1 setlinejoin
0 setlinecap
-0 0 m
-6 0 l

gsave
0.000 setgray
fill
grestore
stroke
grestore
} bind def
341.349 309.244 o
grestore
gsave
312.755000 304.681500 translate
0.000000 rotate
0.000000 0 m /zero glyphshow
7.634766 0 m /period glyphshow
11.449219 0 m /eight glyphshow
grestore
2 setlinecap
gsave
216 171.9 341.3 280.6 clipbox
341.34875 337.888 m
557.34875 337.888 l
stroke
grestore
0 setlinecap
gsave
/o {
gsave
newpath
translate
0.5 setlinewidth
1 setlinejoin
0 setlinecap
-0 0 m
-6 0 l

gsave
0.000 setgray
fill
grestore
stroke
grestore
} bind def
341.349 337.888 o
grestore
gsave
312.755000 333.325500 translate
0.000000 rotate
0.000000 0 m /zero glyphshow
7.634766 0 m /period glyphshow
11.449219 0 m /nine glyphshow
grestore
2 setlinecap
gsave
216 171.9 341.3 280.6 clipbox
341.34875 366.532 m
557.34875 366.532 l
stroke
grestore
0 setlinecap
gsave
/o {
gsave
newpath
translate
0.5 setlinewidth
1 setlinejoin
0 setlinecap
-0 0 m
-6 0 l

gsave
0.000 setgray
fill
grestore
stroke
grestore
} bind def
341.349 366.532 o
grestore
gsave
312.755000 361.969500 translate
0.000000 rotate
0.000000 0 m /one glyphshow
7.634766 0 m /period glyphshow
11.449219 0 m /zero glyphshow
grestore
2 setlinecap
gsave
216 171.9 341.3 280.6 clipbox
341.34875 395.176 m
557.34875 395.176 l
stroke
grestore
0 setlinecap
gsave
/o {
gsave
newpath
translate
0.5 setlinewidth
1 setlinejoin
0 setlinecap
-0 0 m
-6 0 l

gsave
0.000 setgray
fill
grestore
stroke
grestore
} bind def
341.349 395.176 o
grestore
gsave
312.755000 390.613500 translate
0.000000 rotate
0.000000 0 m /one glyphshow
7.634766 0 m /period glyphshow
11.449219 0 m /one glyphshow
grestore
2 setlinecap
gsave
216 171.9 341.3 280.6 clipbox
341.34875 423.82 m
557.34875 423.82 l
stroke
grestore
0 setlinecap
gsave
/o {
gsave
newpath
translate
0.5 setlinewidth
1 setlinejoin
0 setlinecap
-0 0 m
-6 0 l

gsave
0.000 setgray
fill
grestore
stroke
grestore
} bind def
341.349 423.82 o
grestore
gsave
312.755000 419.257500 translate
0.000000 rotate
0.000000 0 m /one glyphshow
7.634766 0 m /period glyphshow
11.449219 0 m /two glyphshow
grestore
2 setlinecap
gsave
216 171.9 341.3 280.6 clipbox
341.34875 452.464 m
557.34875 452.464 l
stroke
grestore
0 setlinecap
gsave
/o {
gsave
newpath
translate
0.5 setlinewidth
1 setlinejoin
0 setlinecap
-0 0 m
-6 0 l

gsave
0.000 setgray
fill
grestore
stroke
grestore
} bind def
341.349 452.464 o
grestore
gsave
312.755000 447.901500 translate
0.000000 rotate
0.000000 0 m /one glyphshow
7.634766 0 m /period glyphshow
11.449219 0 m /three glyphshow
grestore
1.250 setlinewidth
2 setlinecap
0.494 0.078 0.086 setrgbcolor
gsave
216 171.9 341.3 280.6 clipbox
341.34875 407.123338 m
352.14875 403.067191 l
362.94875 399.011044 l
373.74875 394.954896 l
384.54875 390.898749 l
395.34875 386.842602 l
406.14875 382.786454 l
416.94875 378.730307 l
427.74875 374.67416 l
438.54875 370.618013 l
449.34875 366.561865 l
460.14875 362.505718 l
470.94875 358.449571 l
481.74875 354.393423 l
492.54875 350.337276 l
503.34875 346.281129 l
514.14875 342.224982 l
524.94875 338.168834 l
535.74875 334.112687 l
546.54875 330.05654 l
557.34875 326.000392 l
stroke
grestore
1.000 setlinewidth
0 setlinecap
gsave
216 171.9 341.3 280.6 clipbox
/o {
gsave
newpath
translate
1.0 setlinewidth
1 setlinejoin
0 setlinecap
0 -3 m
0.795609 -3 1.55874 -2.683901 2.12132 -2.12132 c
2.683901 -1.55874 3 -0.795609 3 0 c
3 0.795609 2.683901 1.55874 2.12132 2.12132 c
1.55874 2.683901 0.795609 3 0 3 c
-0.795609 3 -1.55874 2.683901 -2.12132 2.12132 c
-2.683901 1.55874 -3 0.795609 -3 0 c
-3 -0.795609 -2.683901 -1.55874 -2.12132 -2.12132 c
-1.55874 -2.683901 -0.795609 -3 0 -3 c
cl

gsave
0.494 0.078 0.086 setrgbcolor
fill
grestore
stroke
grestore
} bind def
423.877 393.785 o
502.595 364.343 o
385.525 396.781 o
410.848 374.05 o
448.021 370.623 o
439.35 372.81 o
475.272 353.883 o
550.052 318.051 o
434.756 380.201 o
422.856 341.219 o
grestore
0.500 setlinewidth
0 setlinejoin
2 setlinecap
0.000 setgray
gsave
341.34875 280.6 m
341.34875 452.464 l
stroke
grestore
gsave
557.34875 280.6 m
557.34875 452.464 l
stroke
grestore
gsave
341.34875 280.6 m
557.34875 280.6 l
stroke
grestore
gsave
341.34875 452.464 m
557.34875 452.464 l
stroke
grestore
/DejaVuSans-Bold findfont
14.400 scalefont
setfont
gsave
311.108750 467.494480 translate
0.000000 rotate
0.000000 0 m /b glyphshow
grestore
/DejaVuSans findfont
12.000 scalefont
setfont
gsave
368.942500 458.464000 translate
0.000000 rotate
0.000000 0 m /S glyphshow
7.617188 0 m /o glyphshow
14.958984 0 m /u glyphshow
22.564453 0 m /t glyphshow
27.269531 0 m /h glyphshow
34.875000 0 m /space glyphshow
38.689453 0 m /A glyphshow
46.898438 0 m /m glyphshow
58.587891 0 m /e glyphshow
65.970703 0 m /r glyphshow
70.904297 0 m /i glyphshow
74.238281 0 m /c glyphshow
80.835938 0 m /a glyphshow
88.189453 0 m /space glyphshow
92.003906 0 m /parenleft glyphshow
96.685547 0 m /r glyphshow
101.619141 0 m /space glyphshow
105.433594 0 m /equal glyphshow
115.488281 0 m /space glyphshow
119.302734 0 m /minus glyphshow
129.357422 0 m /zero glyphshow
136.992188 0 m /period glyphshow
140.806641 0 m /seven glyphshow
148.441406 0 m /six glyphshow
156.076172 0 m /parenright glyphshow
grestore
gsave
617.82875 280.6 m
833.82875 280.6 l
833.82875 452.464 l
617.82875 452.464 l
cl
1.000 setgray
fill
grestore
1 setlinejoin
gsave
216 171.9 617.8 280.6 clipbox
617.82875 280.6 m
617.82875 452.464 l
stroke
grestore
0 setlinecap
gsave
/o {
gsave
newpath
translate
0.5 setlinewidth
1 setlinejoin
0 setlinecap
0 0 m
0 -6 l

gsave
0.000 setgray
fill
grestore
stroke
grestore
} bind def
617.829 280.6 o
grestore
gsave
604.461562 261.975000 translate
0.000000 rotate
0.000000 0 m /zero glyphshow
7.634766 0 m /period glyphshow
11.449219 0 m /nine glyphshow
19.083984 0 m /zero glyphshow
grestore
2 setlinecap
gsave
216 171.9 617.8 280.6 clipbox
671.82875 280.6 m
671.82875 452.464 l
stroke
grestore
0 setlinecap
gsave
/o {
gsave
newpath
translate
0.5 setlinewidth
1 setlinejoin
0 setlinecap
0 0 m
0 -6 l

gsave
0.000 setgray
fill
grestore
stroke
grestore
} bind def
671.829 280.6 o
grestore
gsave
658.461562 261.975000 translate
0.000000 rotate
0.000000 0 m /zero glyphshow
7.634766 0 m /period glyphshow
11.449219 0 m /nine glyphshow
19.083984 0 m /five glyphshow
grestore
2 setlinecap
gsave
216 171.9 617.8 280.6 clipbox
725.82875 280.6 m
725.82875 452.464 l
stroke
grestore
0 setlinecap
gsave
/o {
gsave
newpath
translate
0.5 setlinewidth
1 setlinejoin
0 setlinecap
0 0 m
0 -6 l

gsave
0.000 setgray
fill
grestore
stroke
grestore
} bind def
725.829 280.6 o
grestore
gsave
712.461562 261.975000 translate
0.000000 rotate
0.000000 0 m /one glyphshow
7.634766 0 m /period glyphshow
11.449219 0 m /zero glyphshow
19.083984 0 m /zero glyphshow
grestore
2 setlinecap
gsave
216 171.9 617.8 280.6 clipbox
779.82875 280.6 m
779.82875 452.464 l
stroke
grestore
0 setlinecap
gsave
/o {
gsave
newpath
translate
0.5 setlinewidth
1 setlinejoin
0 setlinecap
0 0 m
0 -6 l

gsave
0.000 setgray
fill
grestore
stroke
grestore
} bind def
779.829 280.6 o
grestore
gsave
766.461563 261.975000 translate
0.000000 rotate
0.000000 0 m /one glyphshow
7.634766 0 m /period glyphshow
11.449219 0 m /zero glyphshow
19.083984 0 m /five glyphshow
grestore
2 setlinecap
gsave
216 171.9 617.8 280.6 clipbox
833.82875 280.6 m
833.82875 452.464 l
stroke
grestore
0 setlinecap
gsave
/o {
gsave
newpath
translate
0.5 setlinewidth
1 setlinejoin
0 setlinecap
0 0 m
0 -6 l

gsave
0.000 setgray
fill
grestore
stroke
grestore
} bind def
833.829 280.6 o
grestore
gsave
820.461562 261.975000 translate
0.000000 rotate
0.000000 0 m /one glyphshow
7.634766 0 m /period glyphshow
11.449219 0 m /one glyphshow
19.083984 0 m /zero glyphshow
grestore
2 setlinecap
gsave
216 171.9 617.8 280.6 clipbox
617.82875 280.6 m
833.82875 280.6 l
stroke
grestore
0 setlinecap
gsave
/o {
gsave
newpath
translate
0.5 setlinewidth
1 setlinejoin
0 setlinecap
-0 0 m
-6 0 l

gsave
0.000 setgray
fill
grestore
stroke
grestore
} bind def
617.829 280.6 o
grestore
gsave
589.235000 276.037500 translate
0.000000 rotate
0.000000 0 m /zero glyphshow
7.634766 0 m /period glyphshow
11.449219 0 m /seven glyphshow
grestore
2 setlinecap
gsave
216 171.9 617.8 280.6 clipbox
617.82875 309.244 m
833.82875 309.244 l
stroke
grestore
0 setlinecap
gsave
/o {
gsave
newpath
translate
0.5 setlinewidth
1 setlinejoin
0 setlinecap
-0 0 m
-6 0 l

gsave
0.000 setgray
fill
grestore
stroke
grestore
} bind def
617.829 309.244 o
grestore
gsave
589.235000 304.681500 translate
0.000000 rotate
0.000000 0 m /zero glyphshow
7.634766 0 m /period glyphshow
11.449219 0 m /eight glyphshow
grestore
2 setlinecap
gsave
216 171.9 617.8 280.6 clipbox
617.82875 337.888 m
833.82875 337.888 l
stroke
grestore
0 setlinecap
gsave
/o {
gsave
newpath
translate
0.5 setlinewidth
1 setlinejoin
0 setlinecap
-0 0 m
-6 0 l

gsave
0.000 setgray
fill
grestore
stroke
grestore
} bind def
617.829 337.888 o
grestore
gsave
589.235000 333.325500 translate
0.000000 rotate
0.000000 0 m /zero glyphshow
7.634766 0 m /period glyphshow
11.449219 0 m /nine glyphshow
grestore
2 setlinecap
gsave
216 171.9 617.8 280.6 clipbox
617.82875 366.532 m
833.82875 366.532 l
stroke
grestore
0 setlinecap
gsave
/o {
gsave
newpath
translate
0.5 setlinewidth
1 setlinejoin
0 setlinecap
-0 0 m
-6 0 l

gsave
0.000 setgray
fill
grestore
stroke
grestore
} bind def
617.829 366.532 o
grestore
gsave
589.235000 361.969500 translate
0.000000 rotate
0.000000 0 m /one glyphshow
7.634766 0 m /period glyphshow
11.449219 0 m /zero glyphshow
grestore
2 setlinecap
gsave
216 171.9 617.8 280.6 clipbox
617.82875 395.176 m
833.82875 395.176 l
stroke
grestore
0 setlinecap
gsave
/o {
gsave
newpath
translate
0.5 setlinewidth
1 setlinejoin
0 setlinecap
-0 0 m
-6 0 l

gsave
0.000 setgray
fill
grestore
stroke
grestore
} bind def
617.829 395.176 o
grestore
gsave
589.235000 390.613500 translate
0.000000 rotate
0.000000 0 m /one glyphshow
7.634766 0 m /period glyphshow
11.449219 0 m /one glyphshow
grestore
2 setlinecap
gsave
216 171.9 617.8 280.6 clipbox
617.82875 423.82 m
833.82875 423.82 l
stroke
grestore
0 setlinecap
gsave
/o {
gsave
newpath
translate
0.5 setlinewidth
1 setlinejoin
0 setlinecap
-0 0 m
-6 0 l

gsave
0.000 setgray
fill
grestore
stroke
grestore
} bind def
617.829 423.82 o
grestore
gsave
589.235000 419.257500 translate
0.000000 rotate
0.000000 0 m /one glyphshow
7.634766 0 m /period glyphshow
11.449219 0 m /two glyphshow
grestore
2 setlinecap
gsave
216 171.9 617.8 280.6 clipbox
617.82875 452.464 m
833.82875 452.464 l
stroke
grestore
0 setlinecap
gsave
/o {
gsave
newpath
translate
0.5 setlinewidth
1 setlinejoin
0 setlinecap
-0 0 m
-6 0 l

gsave
0.000 setgray
fill
grestore
stroke
grestore
} bind def
617.829 452.464 o
grestore
gsave
589.235000 447.901500 translate
0.000000 rotate
0.000000 0 m /one glyphshow
7.634766 0 m /period glyphshow
11.449219 0 m /three glyphshow
grestore
1.250 setlinewidth
2 setlinecap
0.494 0.078 0.086 setrgbcolor
gsave
216 171.9 617.8 280.6 clipbox
617.82875 359.00081 m
628.62875 359.744235 l
639.42875 360.487661 l
650.22875 361.231087 l
661.02875 361.974512 l
671.82875 362.717938 l
682.62875 363.461364 l
693.42875 364.204789 l
704.22875 364.948215 l
715.02875 365.691641 l
725.82875 366.435066 l
736.62875 367.178492 l
747.42875 367.921918 l
758.22875 368.665343 l
769.02875 369.408769 l
779.82875 370.152195 l
790.62875 370.89562 l
801.42875 371.639046 l
812.22875 372.382472 l
823.02875 373.125898 l
833.82875 373.869323 l
stroke
grestore
1.000 setlinewidth
0 setlinecap
gsave
216 171.9 617.8 280.6 clipbox
/o {
gsave
newpath
translate
1.0 setlinewidth
1 setlinejoin
0 setlinecap
0 -3 m
0.795609 -3 1.55874 -2.683901 2.12132 -2.12132 c
2.683901 -1.55874 3 -0.795609 3 0 c
3 0.795609 2.683901 1.55874 2.12132 2.12132 c
1.55874 2.683901 0.795609 3 0 3 c
-0.795609 3 -1.55874 2.683901 -2.12132 2.12132 c
-2.683901 1.55874 -3 0.795609 -3 0 c
-3 -0.795609 -2.683901 -1.55874 -2.12132 -2.12132 c
-1.55874 -2.683901 -0.795609 -3 0 -3 c
cl

gsave
0.494 0.078 0.086 setrgbcolor
fill
grestore
stroke
grestore
} bind def
700.357 407.02 o
779.075 404.463 o
662.005 349.977 o
687.328 352.634 o
724.501 366.431 o
715.83 388.205 o
751.752 339.919 o
826.532 357.887 o
711.236 341.245 o
699.336 356.548 o
grestore
0.500 setlinewidth
0 setlinejoin
2 setlinecap
0.000 setgray
gsave
617.82875 280.6 m
617.82875 452.464 l
stroke
grestore
gsave
833.82875 280.6 m
833.82875 452.464 l
stroke
grestore
gsave
617.82875 280.6 m
833.82875 280.6 l
stroke
grestore
gsave
617.82875 452.464 m
833.82875 452.464 l
stroke
grestore
/DejaVuSans-Bold findfont
14.400 scalefont
setfont
gsave
587.588750 467.494480 translate
0.000000 rotate
0.000000 0 m /c glyphshow
grestore
/DejaVuSans findfont
12.000 scalefont
setfont
gsave
677.422500 458.464000 translate
0.000000 rotate
0.000000 0 m /A glyphshow
7.833984 0 m /f glyphshow
12.058594 0 m /r glyphshow
16.992188 0 m /i glyphshow
20.326172 0 m /c glyphshow
26.923828 0 m /a glyphshow
34.277344 0 m /space glyphshow
38.091797 0 m /parenleft glyphshow
42.773438 0 m /r glyphshow
47.707031 0 m /space glyphshow
51.521484 0 m /equal glyphshow
61.576172 0 m /space glyphshow
65.390625 0 m /zero glyphshow
73.025391 0 m /period glyphshow
76.839844 0 m /one glyphshow
84.474609 0 m /three glyphshow
92.109375 0 m /parenright glyphshow
grestore
gsave
64.86875 57.4 m
280.86875 57.4 l
280.86875 229.264 l
64.86875 229.264 l
cl
1.000 setgray
fill
grestore
1 setlinejoin
gsave
216 171.9 64.87 57.4 clipbox
64.86875 57.4 m
64.86875 229.264 l
stroke
grestore
0 setlinecap
gsave
/o {
gsave
newpath
translate
0.5 setlinewidth
1 setlinejoin
0 setlinecap
0 0 m
0 -6 l

gsave
0.000 setgray
fill
grestore
stroke
grestore
} bind def
64.8687 57.4 o
grestore
gsave
51.501562 38.775000 translate
0.000000 rotate
0.000000 0 m /zero glyphshow
7.634766 0 m /period glyphshow
11.449219 0 m /nine glyphshow
19.083984 0 m /zero glyphshow
grestore
2 setlinecap
gsave
216 171.9 64.87 57.4 clipbox
118.86875 57.4 m
118.86875 229.264 l
stroke
grestore
0 setlinecap
gsave
/o {
gsave
newpath
translate
0.5 setlinewidth
1 setlinejoin
0 setlinecap
0 0 m
0 -6 l

gsave
0.000 setgray
fill
grestore
stroke
grestore
} bind def
118.869 57.4 o
grestore
gsave
105.501562 38.775000 translate
0.000000 rotate
0.000000 0 m /zero glyphshow
7.634766 0 m /period glyphshow
11.449219 0 m /nine glyphshow
19.083984 0 m /five glyphshow
grestore
2 setlinecap
gsave
216 171.9 64.87 57.4 clipbox
172.86875 57.4 m
172.86875 229.264 l
stroke
grestore
0 setlinecap
gsave
/o {
gsave
newpath
translate
0.5 setlinewidth
1 setlinejoin
0 setlinecap
0 0 m
0 -6 l

gsave
0.000 setgray
fill
grestore
stroke
grestore
} bind def
172.869 57.4 o
grestore
gsave
159.501562 38.775000 translate
0.000000 rotate
0.000000 0 m /one glyphshow
7.634766 0 m /period glyphshow
11.449219 0 m /zero glyphshow
19.083984 0 m /zero glyphshow
grestore
2 setlinecap
gsave
216 171.9 64.87 57.4 clipbox
226.86875 57.4 m
226.86875 229.264 l
stroke
grestore
0 setlinecap
gsave
/o {
gsave
newpath
translate
0.5 setlinewidth
1 setlinejoin
0 setlinecap
0 0 m
0 -6 l

gsave
0.000 setgray
fill
grestore
stroke
grestore
} bind def
226.869 57.4 o
grestore
gsave
213.501563 38.775000 translate
0.000000 rotate
0.000000 0 m /one glyphshow
7.634766 0 m /period glyphshow
11.449219 0 m /zero glyphshow
19.083984 0 m /five glyphshow
grestore
2 setlinecap
gsave
216 171.9 64.87 57.4 clipbox
280.86875 57.4 m
280.86875 229.264 l
stroke
grestore
0 setlinecap
gsave
/o {
gsave
newpath
translate
0.5 setlinewidth
1 setlinejoin
0 setlinecap
0 0 m
0 -6 l

gsave
0.000 setgray
fill
grestore
stroke
grestore
} bind def
280.869 57.4 o
grestore
gsave
267.501562 38.775000 translate
0.000000 rotate
0.000000 0 m /one glyphshow
7.634766 0 m /period glyphshow
11.449219 0 m /one glyphshow
19.083984 0 m /zero glyphshow
grestore
gsave
83.985938 23.150000 translate
0.000000 rotate
0.000000 0 m /N glyphshow
8.976562 0 m /i glyphshow
12.310547 0 m /ntilde glyphshow
19.916016 0 m /o glyphshow
27.257812 0 m /space glyphshow
31.072266 0 m /three glyphshow
38.707031 0 m /period glyphshow
42.521484 0 m /four glyphshow
50.156250 0 m /space glyphshow
53.970703 0 m /S glyphshow
61.587891 0 m /S glyphshow
69.205078 0 m /T glyphshow
76.535156 0 m /space glyphshow
80.349609 0 m /i glyphshow
83.683594 0 m /n glyphshow
91.289062 0 m /space glyphshow
95.103516 0 m /O glyphshow
104.548828 0 m /c glyphshow
111.146484 0 m /t glyphshow
115.851562 0 m /emdash glyphshow
127.851562 0 m /F glyphshow
134.128906 0 m /e glyphshow
141.511719 0 m /b glyphshow
149.128906 0 m /space glyphshow
152.943359 0 m /a glyphshow
160.296875 0 m /s glyphshow
166.548828 0 m /space glyphshow
170.363281 0 m /a glyphshow
grestore
gsave
80.189063 9.700000 translate
0.000000 rotate
0.000000 0 m /f glyphshow
4.224609 0 m /r glyphshow
9.158203 0 m /a glyphshow
16.511719 0 m /c glyphshow
23.109375 0 m /t glyphshow
27.814453 0 m /i glyphshow
31.148438 0 m /o glyphshow
38.490234 0 m /n glyphshow
46.095703 0 m /space glyphshow
49.910156 0 m /o glyphshow
57.251953 0 m /f glyphshow
61.476562 0 m /space glyphshow
65.291016 0 m /t glyphshow
69.996094 0 m /h glyphshow
77.601562 0 m /e glyphshow
84.984375 0 m /space glyphshow
88.798828 0 m /l glyphshow
92.132812 0 m /o glyphshow
99.474609 0 m /n glyphshow
107.080078 0 m /g glyphshow
114.697266 0 m /hyphen glyphshow
119.027344 0 m /t glyphshow
123.732422 0 m /e glyphshow
131.115234 0 m /r glyphshow
135.798828 0 m /m glyphshow
147.488281 0 m /space glyphshow
151.302734 0 m /m glyphshow
162.992188 0 m /e glyphshow
170.375000 0 m /a glyphshow
177.728516 0 m /n glyphshow
grestore
2 setlinecap
gsave
216 171.9 64.87 57.4 clipbox
64.86875 57.4 m
280.86875 57.4 l
stroke
grestore
0 setlinecap
gsave
/o {
gsave
newpath
translate
0.5 setlinewidth
1 setlinejoin
0 setlinecap
-0 0 m
-6 0 l

gsave
0.000 setgray
fill
grestore
stroke
grestore
} bind def
64.8688 57.4 o
grestore
gsave
36.275000 52.837500 translate
0.000000 rotate
0.000000 0 m /zero glyphshow
7.634766 0 m /period glyphshow
11.449219 0 m /seven glyphshow
grestore
2 setlinecap
gsave
216 171.9 64.87 57.4 clipbox
64.86875 86.044 m
280.86875 86.044 l
stroke
grestore
0 setlinecap
gsave
/o {
gsave
newpath
translate
0.5 setlinewidth
1 setlinejoin
0 setlinecap
-0 0 m
-6 0 l

gsave
0.000 setgray
fill
grestore
stroke
grestore
} bind def
64.8688 86.044 o
grestore
gsave
36.275000 81.481500 translate
0.000000 rotate
0.000000 0 m /zero glyphshow
7.634766 0 m /period glyphshow
11.449219 0 m /eight glyphshow
grestore
2 setlinecap
gsave
216 171.9 64.87 57.4 clipbox
64.86875 114.688 m
280.86875 114.688 l
stroke
grestore
0 setlinecap
gsave
/o {
gsave
newpath
translate
0.5 setlinewidth
1 setlinejoin
0 setlinecap
-0 0 m
-6 0 l

gsave
0.000 setgray
fill
grestore
stroke
grestore
} bind def
64.8688 114.688 o
grestore
gsave
36.275000 110.125500 translate
0.000000 rotate
0.000000 0 m /zero glyphshow
7.634766 0 m /period glyphshow
11.449219 0 m /nine glyphshow
grestore
2 setlinecap
gsave
216 171.9 64.87 57.4 clipbox
64.86875 143.332 m
280.86875 143.332 l
stroke
grestore
0 setlinecap
gsave
/o {
gsave
newpath
translate
0.5 setlinewidth
1 setlinejoin
0 setlinecap
-0 0 m
-6 0 l

gsave
0.000 setgray
fill
grestore
stroke
grestore
} bind def
64.8688 143.332 o
grestore
gsave
36.275000 138.769500 translate
0.000000 rotate
0.000000 0 m /one glyphshow
7.634766 0 m /period glyphshow
11.449219 0 m /zero glyphshow
grestore
2 setlinecap
gsave
216 171.9 64.87 57.4 clipbox
64.86875 171.976 m
280.86875 171.976 l
stroke
grestore
0 setlinecap
gsave
/o {
gsave
newpath
translate
0.5 setlinewidth
1 setlinejoin
0 setlinecap
-0 0 m
-6 0 l

gsave
0.000 setgray
fill
grestore
stroke
grestore
} bind def
64.8688 171.976 o
grestore
gsave
36.275000 167.413500 translate
0.000000 rotate
0.000000 0 m /one glyphshow
7.634766 0 m /period glyphshow
11.449219 0 m /one glyphshow
grestore
2 setlinecap
gsave
216 171.9 64.87 57.4 clipbox
64.86875 200.62 m
280.86875 200.62 l
stroke
grestore
0 setlinecap
gsave
/o {
gsave
newpath
translate
0.5 setlinewidth
1 setlinejoin
0 setlinecap
-0 0 m
-6 0 l

gsave
0.000 setgray
fill
grestore
stroke
grestore
} bind def
64.8688 200.62 o
grestore
gsave
36.275000 196.057500 translate
0.000000 rotate
0.000000 0 m /one glyphshow
7.634766 0 m /period glyphshow
11.449219 0 m /two glyphshow
grestore
2 setlinecap
gsave
216 171.9 64.87 57.4 clipbox
64.86875 229.264 m
280.86875 229.264 l
stroke
grestore
0 setlinecap
gsave
/o {
gsave
newpath
translate
0.5 setlinewidth
1 setlinejoin
0 setlinecap
-0 0 m
-6 0 l

gsave
0.000 setgray
fill
grestore
stroke
grestore
} bind def
64.8688 229.264 o
grestore
gsave
36.275000 224.701500 translate
0.000000 rotate
0.000000 0 m /one glyphshow
7.634766 0 m /period glyphshow
11.449219 0 m /three glyphshow
grestore
gsave
16.325000 52.972625 translate
90.000000 rotate
0.000000 0 m /I glyphshow
3.539062 0 m /o glyphshow
10.880859 0 m /n glyphshow
18.486328 0 m /period glyphshow
22.300781 0 m /space glyphshow
26.115234 0 m /p glyphshow
33.732422 0 m /o glyphshow
41.074219 0 m /t glyphshow
45.779297 0 m /e glyphshow
53.162109 0 m /n glyphshow
60.767578 0 m /t glyphshow
65.472656 0 m /i glyphshow
68.806641 0 m /a glyphshow
76.160156 0 m /l glyphshow
79.494141 0 m /space glyphshow
83.308594 0 m /i glyphshow
86.642578 0 m /n glyphshow
94.248047 0 m /space glyphshow
98.062500 0 m /O glyphshow
107.507812 0 m /c glyphshow
114.105469 0 m /t glyphshow
118.810547 0 m /emdash glyphshow
130.810547 0 m /F glyphshow
137.087891 0 m /e glyphshow
144.470703 0 m /b glyphshow
152.087891 0 m /space glyphshow
155.902344 0 m /a glyphshow
163.255859 0 m /s glyphshow
169.507812 0 m /space glyphshow
173.322266 0 m /a glyphshow
grestore
gsave
29.775000 50.652312 translate
90.000000 rotate
0.000000 0 m /f glyphshow
4.224609 0 m /r glyphshow
9.158203 0 m /a glyphshow
16.511719 0 m /c glyphshow
23.109375 0 m /t glyphshow
27.814453 0 m /i glyphshow
31.148438 0 m /o glyphshow
38.490234 0 m /n glyphshow
46.095703 0 m /space glyphshow
49.910156 0 m /o glyphshow
57.251953 0 m /f glyphshow
61.476562 0 m /space glyphshow
65.291016 0 m /t glyphshow
69.996094 0 m /h glyphshow
77.601562 0 m /e glyphshow
84.984375 0 m /space glyphshow
88.798828 0 m /l glyphshow
92.132812 0 m /o glyphshow
99.474609 0 m /n glyphshow
107.080078 0 m /g glyphshow
114.697266 0 m /hyphen glyphshow
119.027344 0 m /t glyphshow
123.732422 0 m /e glyphshow
131.115234 0 m /r glyphshow
135.798828 0 m /m glyphshow
147.488281 0 m /space glyphshow
151.302734 0 m /m glyphshow
162.992188 0 m /e glyphshow
170.375000 0 m /a glyphshow
177.728516 0 m /n glyphshow
grestore
1.250 setlinewidth
2 setlinecap
0.494 0.078 0.086 setrgbcolor
gsave
216 171.9 64.87 57.4 clipbox
64.86875 77.067928 m
75.66875 83.681971 l
86.46875 90.296013 l
97.26875 96.910056 l
108.06875 103.524099 l
118.86875 110.138141 l
129.66875 116.752184 l
140.46875 123.366226 l
151.26875 129.980269 l
162.06875 136.594311 l
172.86875 143.208354 l
183.66875 149.822396 l
194.46875 156.436439 l
205.26875 163.050481 l
216.06875 169.664524 l
226.86875 176.278566 l
237.66875 182.892609 l
248.46875 189.506652 l
259.26875 196.120694 l
270.06875 202.734737 l
280.86875 209.348779 l
stroke
grestore
1.000 setlinewidth
0 setlinecap
gsave
216 171.9 64.87 57.4 clipbox
/o {
gsave
newpath
translate
1.0 setlinewidth
1 setlinejoin
0 setlinecap
0 -3 m
0.795609 -3 1.55874 -2.683901 2.12132 -2.12132 c
2.683901 -1.55874 3 -0.795609 3 0 c
3 0.795609 2.683901 1.55874 2.12132 2.12132 c
1.55874 2.683901 0.795609 3 0 3 c
-0.795609 3 -1.55874 2.683901 -2.12132 2.12132 c
-2.683901 1.55874 -3 0.795609 -3 0 c
-3 -0.795609 -2.683901 -1.55874 -2.12132 -2.12132 c
-1.55874 -2.683901 -0.795609 -3 0 -3 c
cl

gsave
0.494 0.078 0.086 setrgbcolor
fill
grestore
stroke
grestore
} bind def
147.397 134.5 o
226.115 198.31 o
109.045 82.8247 o
134.368 86.7561 o
171.541 142.471 o
162.87 157.98 o
198.792 176.545 o
273.572 171.349 o
158.276 135.353 o
146.376 145.789 o
grestore
0.500 setlinewidth
0 setlinejoin
2 setlinecap
0.000 setgray
gsave
64.86875 57.4 m
64.86875 229.264 l
stroke
grestore
gsave
280.86875 57.4 m
280.86875 229.264 l
stroke
grestore
gsave
64.86875 57.4 m
280.86875 57.4 l
stroke
grestore
gsave
64.86875 229.264 m
280.86875 229.264 l
stroke
grestore
/DejaVuSans-Bold findfont
14.400 scalefont
setfont
gsave
34.628750 244.294480 translate
0.000000 rotate
0.000000 0 m /d glyphshow
grestore
/DejaVuSans findfont
12.000 scalefont
setfont
gsave
74.931250 235.264000 translate
0.000000 rotate
0.000000 0 m /W glyphshow
11.115234 0 m /e glyphshow
18.498047 0 m /s glyphshow
24.750000 0 m /t glyphshow
29.455078 0 m /e glyphshow
36.837891 0 m /r glyphshow
41.521484 0 m /n glyphshow
49.126953 0 m /space glyphshow
52.941406 0 m /P glyphshow
59.677734 0 m /a glyphshow
67.031250 0 m /c glyphshow
73.628906 0 m /i glyphshow
76.962891 0 m /f glyphshow
81.187500 0 m /i glyphshow
84.521484 0 m /c glyphshow
91.119141 0 m /space glyphshow
94.933594 0 m /O glyphshow
104.378906 0 m /c glyphshow
110.976562 0 m /e glyphshow
118.359375 0 m /a glyphshow
125.712891 0 m /n glyphshow
133.318359 0 m /space glyphshow
137.132812 0 m /parenleft glyphshow
141.814453 0 m /r glyphshow
146.748047 0 m /space glyphshow
150.562500 0 m /equal glyphshow
160.617188 0 m /space glyphshow
164.431641 0 m /zero glyphshow
172.066406 0 m /period glyphshow
175.880859 0 m /eight glyphshow
183.515625 0 m /zero glyphshow
191.150391 0 m /parenright glyphshow
grestore
gsave
341.34875 57.4 m
557.34875 57.4 l
557.34875 229.264 l
341.34875 229.264 l
cl
1.000 setgray
fill
grestore
1 setlinejoin
gsave
216 171.9 341.3 57.4 clipbox
341.34875 57.4 m
341.34875 229.264 l
stroke
grestore
0 setlinecap
gsave
/o {
gsave
newpath
translate
0.5 setlinewidth
1 setlinejoin
0 setlinecap
0 0 m
0 -6 l

gsave
0.000 setgray
fill
grestore
stroke
grestore
} bind def
341.349 57.4 o
grestore
gsave
327.981563 38.775000 translate
0.000000 rotate
0.000000 0 m /zero glyphshow
7.634766 0 m /period glyphshow
11.449219 0 m /nine glyphshow
19.083984 0 m /zero glyphshow
grestore
2 setlinecap
gsave
216 171.9 341.3 57.4 clipbox
395.34875 57.4 m
395.34875 229.264 l
stroke
grestore
0 setlinecap
gsave
/o {
gsave
newpath
translate
0.5 setlinewidth
1 setlinejoin
0 setlinecap
0 0 m
0 -6 l

gsave
0.000 setgray
fill
grestore
stroke
grestore
} bind def
395.349 57.4 o
grestore
gsave
381.981563 38.775000 translate
0.000000 rotate
0.000000 0 m /zero glyphshow
7.634766 0 m /period glyphshow
11.449219 0 m /nine glyphshow
19.083984 0 m /five glyphshow
grestore
2 setlinecap
gsave
216 171.9 341.3 57.4 clipbox
449.34875 57.4 m
449.34875 229.264 l
stroke
grestore
0 setlinecap
gsave
/o {
gsave
newpath
translate
0.5 setlinewidth
1 setlinejoin
0 setlinecap
0 0 m
0 -6 l

gsave
0.000 setgray
fill
grestore
stroke
grestore
} bind def
449.349 57.4 o
grestore
gsave
435.981563 38.775000 translate
0.000000 rotate
0.000000 0 m /one glyphshow
7.634766 0 m /period glyphshow
11.449219 0 m /zero glyphshow
19.083984 0 m /zero glyphshow
grestore
2 setlinecap
gsave
216 171.9 341.3 57.4 clipbox
503.34875 57.4 m
503.34875 229.264 l
stroke
grestore
0 setlinecap
gsave
/o {
gsave
newpath
translate
0.5 setlinewidth
1 setlinejoin
0 setlinecap
0 0 m
0 -6 l

gsave
0.000 setgray
fill
grestore
stroke
grestore
} bind def
503.349 57.4 o
grestore
gsave
489.981563 38.775000 translate
0.000000 rotate
0.000000 0 m /one glyphshow
7.634766 0 m /period glyphshow
11.449219 0 m /zero glyphshow
19.083984 0 m /five glyphshow
grestore
2 setlinecap
gsave
216 171.9 341.3 57.4 clipbox
557.34875 57.4 m
557.34875 229.264 l
stroke
grestore
0 setlinecap
gsave
/o {
gsave
newpath
translate
0.5 setlinewidth
1 setlinejoin
0 setlinecap
0 0 m
0 -6 l

gsave
0.000 setgray
fill
grestore
stroke
grestore
} bind def
557.349 57.4 o
grestore
gsave
543.981563 38.775000 translate
0.000000 rotate
0.000000 0 m /one glyphshow
7.634766 0 m /period glyphshow
11.449219 0 m /one glyphshow
19.083984 0 m /zero glyphshow
grestore
gsave
360.465937 23.150000 translate
0.000000 rotate
0.000000 0 m /N glyphshow
8.976562 0 m /i glyphshow
12.310547 0 m /ntilde glyphshow
19.916016 0 m /o glyphshow
27.257812 0 m /space glyphshow
31.072266 0 m /three glyphshow
38.707031 0 m /period glyphshow
42.521484 0 m /four glyphshow
50.156250 0 m /space glyphshow
53.970703 0 m /S glyphshow
61.587891 0 m /S glyphshow
69.205078 0 m /T glyphshow
76.535156 0 m /space glyphshow
80.349609 0 m /i glyphshow
83.683594 0 m /n glyphshow
91.289062 0 m /space glyphshow
95.103516 0 m /O glyphshow
104.548828 0 m /c glyphshow
111.146484 0 m /t glyphshow
115.851562 0 m /emdash glyphshow
127.851562 0 m /F glyphshow
134.128906 0 m /e glyphshow
141.511719 0 m /b glyphshow
149.128906 0 m /space glyphshow
152.943359 0 m /a glyphshow
160.296875 0 m /s glyphshow
166.548828 0 m /space glyphshow
170.363281 0 m /a glyphshow
grestore
gsave
356.669062 9.700000 translate
0.000000 rotate
0.000000 0 m /f glyphshow
4.224609 0 m /r glyphshow
9.158203 0 m /a glyphshow
16.511719 0 m /c glyphshow
23.109375 0 m /t glyphshow
27.814453 0 m /i glyphshow
31.148438 0 m /o glyphshow
38.490234 0 m /n glyphshow
46.095703 0 m /space glyphshow
49.910156 0 m /o glyphshow
57.251953 0 m /f glyphshow
61.476562 0 m /space glyphshow
65.291016 0 m /t glyphshow
69.996094 0 m /h glyphshow
77.601562 0 m /e glyphshow
84.984375 0 m /space glyphshow
88.798828 0 m /l glyphshow
92.132812 0 m /o glyphshow
99.474609 0 m /n glyphshow
107.080078 0 m /g glyphshow
114.697266 0 m /hyphen glyphshow
119.027344 0 m /t glyphshow
123.732422 0 m /e glyphshow
131.115234 0 m /r glyphshow
135.798828 0 m /m glyphshow
147.488281 0 m /space glyphshow
151.302734 0 m /m glyphshow
162.992188 0 m /e glyphshow
170.375000 0 m /a glyphshow
177.728516 0 m /n glyphshow
grestore
2 setlinecap
gsave
216 171.9 341.3 57.4 clipbox
341.34875 57.4 m
557.34875 57.4 l
stroke
grestore
0 setlinecap
gsave
/o {
gsave
newpath
translate
0.5 setlinewidth
1 setlinejoin
0 setlinecap
-0 0 m
-6 0 l

gsave
0.000 setgray
fill
grestore
stroke
grestore
} bind def
341.349 57.4 o
grestore
gsave
312.755000 52.837500 translate
0.000000 rotate
0.000000 0 m /zero glyphshow
7.634766 0 m /period glyphshow
11.449219 0 m /seven glyphshow
grestore
2 setlinecap
gsave
216 171.9 341.3 57.4 clipbox
341.34875 86.044 m
557.34875 86.044 l
stroke
grestore
0 setlinecap
gsave
/o {
gsave
newpath
translate
0.5 setlinewidth
1 setlinejoin
0 setlinecap
-0 0 m
-6 0 l

gsave
0.000 setgray
fill
grestore
stroke
grestore
} bind def
341.349 86.044 o
grestore
gsave
312.755000 81.481500 translate
0.000000 rotate
0.000000 0 m /zero glyphshow
7.634766 0 m /period glyphshow
11.449219 0 m /eight glyphshow
grestore
2 setlinecap
gsave
216 171.9 341.3 57.4 clipbox
341.34875 114.688 m
557.34875 114.688 l
stroke
grestore
0 setlinecap
gsave
/o {
gsave
newpath
translate
0.5 setlinewidth
1 setlinejoin
0 setlinecap
-0 0 m
-6 0 l

gsave
0.000 setgray
fill
grestore
stroke
grestore
} bind def
341.349 114.688 o
grestore
gsave
312.755000 110.125500 translate
0.000000 rotate
0.000000 0 m /zero glyphshow
7.634766 0 m /period glyphshow
11.449219 0 m /nine glyphshow
grestore
2 setlinecap
gsave
216 171.9 341.3 57.4 clipbox
341.34875 143.332 m
557.34875 143.332 l
stroke
grestore
0 setlinecap
gsave
/o {
gsave
newpath
translate
0.5 setlinewidth
1 setlinejoin
0 setlinecap
-0 0 m
-6 0 l

gsave
0.000 setgray
fill
grestore
stroke
grestore
} bind def
341.349 143.332 o
grestore
gsave
312.755000 138.769500 translate
0.000000 rotate
0.000000 0 m /one glyphshow
7.634766 0 m /period glyphshow
11.449219 0 m /zero glyphshow
grestore
2 setlinecap
gsave
216 171.9 341.3 57.4 clipbox
341.34875 171.976 m
557.34875 171.976 l
stroke
grestore
0 setlinecap
gsave
/o {
gsave
newpath
translate
0.5 setlinewidth
1 setlinejoin
0 setlinecap
-0 0 m
-6 0 l

gsave
0.000 setgray
fill
grestore
stroke
grestore
} bind def
341.349 171.976 o
grestore
gsave
312.755000 167.413500 translate
0.000000 rotate
0.000000 0 m /one glyphshow
7.634766 0 m /period glyphshow
11.449219 0 m /one glyphshow
grestore
2 setlinecap
gsave
216 171.9 341.3 57.4 clipbox
341.34875 200.62 m
557.34875 200.62 l
stroke
grestore
0 setlinecap
gsave
/o {
gsave
newpath
translate
0.5 setlinewidth
1 setlinejoin
0 setlinecap
-0 0 m
-6 0 l

gsave
0.000 setgray
fill
grestore
stroke
grestore
} bind def
341.349 200.62 o
grestore
gsave
312.755000 196.057500 translate
0.000000 rotate
0.000000 0 m /one glyphshow
7.634766 0 m /period glyphshow
11.449219 0 m /two glyphshow
grestore
2 setlinecap
gsave
216 171.9 341.3 57.4 clipbox
341.34875 229.264 m
557.34875 229.264 l
stroke
grestore
0 setlinecap
gsave
/o {
gsave
newpath
translate
0.5 setlinewidth
1 setlinejoin
0 setlinecap
-0 0 m
-6 0 l

gsave
0.000 setgray
fill
grestore
stroke
grestore
} bind def
341.349 229.264 o
grestore
gsave
312.755000 224.701500 translate
0.000000 rotate
0.000000 0 m /one glyphshow
7.634766 0 m /period glyphshow
11.449219 0 m /three glyphshow
grestore
1.250 setlinewidth
2 setlinecap
0.494 0.078 0.086 setrgbcolor
gsave
216 171.9 341.3 57.4 clipbox
341.34875 106.940883 m
352.14875 110.579567 l
362.94875 114.218251 l
373.74875 117.856935 l
384.54875 121.495619 l
395.34875 125.134303 l
406.14875 128.772987 l
416.94875 132.411671 l
427.74875 136.050355 l
438.54875 139.689039 l
449.34875 143.327723 l
460.14875 146.966407 l
470.94875 150.605091 l
481.74875 154.243774 l
492.54875 157.882458 l
503.34875 161.521142 l
514.14875 165.159826 l
524.94875 168.79851 l
535.74875 172.437194 l
546.54875 176.075878 l
557.34875 179.714562 l
stroke
grestore
1.000 setlinewidth
0 setlinecap
gsave
216 171.9 341.3 57.4 clipbox
/o {
gsave
newpath
translate
1.0 setlinewidth
1 setlinejoin
0 setlinecap
0 -3 m
0.795609 -3 1.55874 -2.683901 2.12132 -2.12132 c
2.683901 -1.55874 3 -0.795609 3 0 c
3 0.795609 2.683901 1.55874 2.12132 2.12132 c
1.55874 2.683901 0.795609 3 0 3 c
-0.795609 3 -1.55874 2.683901 -2.12132 2.12132 c
-2.683901 1.55874 -3 0.795609 -3 0 c
-3 -0.795609 -2.683901 -1.55874 -2.12132 -2.12132 c
-1.55874 -2.683901 -0.795609 -3 0 -3 c
cl

gsave
0.494 0.078 0.086 setrgbcolor
fill
grestore
stroke
grestore
} bind def
423.877 170.185 o
502.595 182.391 o
385.525 109.24 o
410.848 162.491 o
448.021 153.244 o
439.35 129.433 o
475.272 135.15 o
550.052 173.76 o
434.756 91.3156 o
422.856 125.956 o
grestore
0.500 setlinewidth
0 setlinejoin
2 setlinecap
0.000 setgray
gsave
341.34875 57.4 m
341.34875 229.264 l
stroke
grestore
gsave
557.34875 57.4 m
557.34875 229.264 l
stroke
grestore
gsave
341.34875 57.4 m
557.34875 57.4 l
stroke
grestore
gsave
341.34875 229.264 m
557.34875 229.264 l
stroke
grestore
/DejaVuSans-Bold findfont
14.400 scalefont
setfont
gsave
311.108750 244.294480 translate
0.000000 rotate
0.000000 0 m /e glyphshow
grestore
/DejaVuSans findfont
12.000 scalefont
setfont
gsave
378.426875 235.264000 translate
0.000000 rotate
0.000000 0 m /I glyphshow
3.539062 0 m /n glyphshow
11.144531 0 m /d glyphshow
18.761719 0 m /i glyphshow
22.095703 0 m /a glyphshow
29.449219 0 m /n glyphshow
37.054688 0 m /space glyphshow
40.869141 0 m /O glyphshow
50.314453 0 m /c glyphshow
56.912109 0 m /e glyphshow
64.294922 0 m /a glyphshow
71.648438 0 m /n glyphshow
79.253906 0 m /space glyphshow
83.068359 0 m /parenleft glyphshow
87.750000 0 m /r glyphshow
92.683594 0 m /space glyphshow
96.498047 0 m /equal glyphshow
106.552734 0 m /space glyphshow
110.367188 0 m /zero glyphshow
118.001953 0 m /period glyphshow
121.816406 0 m /five glyphshow
129.451172 0 m /four glyphshow
137.085938 0 m /parenright glyphshow
grestore
gsave
617.82875 57.4 m
833.82875 57.4 l
833.82875 229.264 l
617.82875 229.264 l
cl
1.000 setgray
fill
grestore
1 setlinejoin
gsave
216 171.9 617.8 57.4 clipbox
617.82875 57.4 m
617.82875 229.264 l
stroke
grestore
0 setlinecap
gsave
/o {
gsave
newpath
translate
0.5 setlinewidth
1 setlinejoin
0 setlinecap
0 0 m
0 -6 l

gsave
0.000 setgray
fill
grestore
stroke
grestore
} bind def
617.829 57.4 o
grestore
gsave
604.461562 38.775000 translate
0.000000 rotate
0.000000 0 m /zero glyphshow
7.634766 0 m /period glyphshow
11.449219 0 m /nine glyphshow
19.083984 0 m /zero glyphshow
grestore
2 setlinecap
gsave
216 171.9 617.8 57.4 clipbox
671.82875 57.4 m
671.82875 229.264 l
stroke
grestore
0 setlinecap
gsave
/o {
gsave
newpath
translate
0.5 setlinewidth
1 setlinejoin
0 setlinecap
0 0 m
0 -6 l

gsave
0.000 setgray
fill
grestore
stroke
grestore
} bind def
671.829 57.4 o
grestore
gsave
658.461562 38.775000 translate
0.000000 rotate
0.000000 0 m /zero glyphshow
7.634766 0 m /period glyphshow
11.449219 0 m /nine glyphshow
19.083984 0 m /five glyphshow
grestore
2 setlinecap
gsave
216 171.9 617.8 57.4 clipbox
725.82875 57.4 m
725.82875 229.264 l
stroke
grestore
0 setlinecap
gsave
/o {
gsave
newpath
translate
0.5 setlinewidth
1 setlinejoin
0 setlinecap
0 0 m
0 -6 l

gsave
0.000 setgray
fill
grestore
stroke
grestore
} bind def
725.829 57.4 o
grestore
gsave
712.461562 38.775000 translate
0.000000 rotate
0.000000 0 m /one glyphshow
7.634766 0 m /period glyphshow
11.449219 0 m /zero glyphshow
19.083984 0 m /zero glyphshow
grestore
2 setlinecap
gsave
216 171.9 617.8 57.4 clipbox
779.82875 57.4 m
779.82875 229.264 l
stroke
grestore
0 setlinecap
gsave
/o {
gsave
newpath
translate
0.5 setlinewidth
1 setlinejoin
0 setlinecap
0 0 m
0 -6 l

gsave
0.000 setgray
fill
grestore
stroke
grestore
} bind def
779.829 57.4 o
grestore
gsave
766.461563 38.775000 translate
0.000000 rotate
0.000000 0 m /one glyphshow
7.634766 0 m /period glyphshow
11.449219 0 m /zero glyphshow
19.083984 0 m /five glyphshow
grestore
2 setlinecap
gsave
216 171.9 617.8 57.4 clipbox
833.82875 57.4 m
833.82875 229.264 l
stroke
grestore
0 setlinecap
gsave
/o {
gsave
newpath
translate
0.5 setlinewidth
1 setlinejoin
0 setlinecap
0 0 m
0 -6 l

gsave
0.000 setgray
fill
grestore
stroke
grestore
} bind def
833.829 57.4 o
grestore
gsave
820.461562 38.775000 translate
0.000000 rotate
0.000000 0 m /one glyphshow
7.634766 0 m /period glyphshow
11.449219 0 m /one glyphshow
19.083984 0 m /zero glyphshow
grestore
gsave
636.945937 23.150000 translate
0.000000 rotate
0.000000 0 m /N glyphshow
8.976562 0 m /i glyphshow
12.310547 0 m /ntilde glyphshow
19.916016 0 m /o glyphshow
27.257812 0 m /space glyphshow
31.072266 0 m /three glyphshow
38.707031 0 m /period glyphshow
42.521484 0 m /four glyphshow
50.156250 0 m /space glyphshow
53.970703 0 m /S glyphshow
61.587891 0 m /S glyphshow
69.205078 0 m /T glyphshow
76.535156 0 m /space glyphshow
80.349609 0 m /i glyphshow
83.683594 0 m /n glyphshow
91.289062 0 m /space glyphshow
95.103516 0 m /O glyphshow
104.548828 0 m /c glyphshow
111.146484 0 m /t glyphshow
115.851562 0 m /emdash glyphshow
127.851562 0 m /F glyphshow
134.128906 0 m /e glyphshow
141.511719 0 m /b glyphshow
149.128906 0 m /space glyphshow
152.943359 0 m /a glyphshow
160.296875 0 m /s glyphshow
166.548828 0 m /space glyphshow
170.363281 0 m /a glyphshow
grestore
gsave
633.149062 9.700000 translate
0.000000 rotate
0.000000 0 m /f glyphshow
4.224609 0 m /r glyphshow
9.158203 0 m /a glyphshow
16.511719 0 m /c glyphshow
23.109375 0 m /t glyphshow
27.814453 0 m /i glyphshow
31.148438 0 m /o glyphshow
38.490234 0 m /n glyphshow
46.095703 0 m /space glyphshow
49.910156 0 m /o glyphshow
57.251953 0 m /f glyphshow
61.476562 0 m /space glyphshow
65.291016 0 m /t glyphshow
69.996094 0 m /h glyphshow
77.601562 0 m /e glyphshow
84.984375 0 m /space glyphshow
88.798828 0 m /l glyphshow
92.132812 0 m /o glyphshow
99.474609 0 m /n glyphshow
107.080078 0 m /g glyphshow
114.697266 0 m /hyphen glyphshow
119.027344 0 m /t glyphshow
123.732422 0 m /e glyphshow
131.115234 0 m /r glyphshow
135.798828 0 m /m glyphshow
147.488281 0 m /space glyphshow
151.302734 0 m /m glyphshow
162.992188 0 m /e glyphshow
170.375000 0 m /a glyphshow
177.728516 0 m /n glyphshow
grestore
2 setlinecap
gsave
216 171.9 617.8 57.4 clipbox
617.82875 57.4 m
833.82875 57.4 l
stroke
grestore
0 setlinecap
gsave
/o {
gsave
newpath
translate
0.5 setlinewidth
1 setlinejoin
0 setlinecap
-0 0 m
-6 0 l

gsave
0.000 setgray
fill
grestore
stroke
grestore
} bind def
617.829 57.4 o
grestore
gsave
589.235000 52.837500 translate
0.000000 rotate
0.000000 0 m /zero glyphshow
7.634766 0 m /period glyphshow
11.449219 0 m /two glyphshow
grestore
2 setlinecap
gsave
216 171.9 617.8 57.4 clipbox
617.82875 78.883 m
833.82875 78.883 l
stroke
grestore
0 setlinecap
gsave
/o {
gsave
newpath
translate
0.5 setlinewidth
1 setlinejoin
0 setlinecap
-0 0 m
-6 0 l

gsave
0.000 setgray
fill
grestore
stroke
grestore
} bind def
617.829 78.883 o
grestore
gsave
589.235000 74.320500 translate
0.000000 rotate
0.000000 0 m /zero glyphshow
7.634766 0 m /period glyphshow
11.449219 0 m /four glyphshow
grestore
2 setlinecap
gsave
216 171.9 617.8 57.4 clipbox
617.82875 100.366 m
833.82875 100.366 l
stroke
grestore
0 setlinecap
gsave
/o {
gsave
newpath
translate
0.5 setlinewidth
1 setlinejoin
0 setlinecap
-0 0 m
-6 0 l

gsave
0.000 setgray
fill
grestore
stroke
grestore
} bind def
617.829 100.366 o
grestore
gsave
589.235000 95.803500 translate
0.000000 rotate
0.000000 0 m /zero glyphshow
7.634766 0 m /period glyphshow
11.449219 0 m /six glyphshow
grestore
2 setlinecap
gsave
216 171.9 617.8 57.4 clipbox
617.82875 121.849 m
833.82875 121.849 l
stroke
grestore
0 setlinecap
gsave
/o {
gsave
newpath
translate
0.5 setlinewidth
1 setlinejoin
0 setlinecap
-0 0 m
-6 0 l

gsave
0.000 setgray
fill
grestore
stroke
grestore
} bind def
617.829 121.849 o
grestore
gsave
589.235000 117.286500 translate
0.000000 rotate
0.000000 0 m /zero glyphshow
7.634766 0 m /period glyphshow
11.449219 0 m /eight glyphshow
grestore
2 setlinecap
gsave
216 171.9 617.8 57.4 clipbox
617.82875 143.332 m
833.82875 143.332 l
stroke
grestore
0 setlinecap
gsave
/o {
gsave
newpath
translate
0.5 setlinewidth
1 setlinejoin
0 setlinecap
-0 0 m
-6 0 l

gsave
0.000 setgray
fill
grestore
stroke
grestore
} bind def
617.829 143.332 o
grestore
gsave
589.235000 138.769500 translate
0.000000 rotate
0.000000 0 m /one glyphshow
7.634766 0 m /period glyphshow
11.449219 0 m /zero glyphshow
grestore
2 setlinecap
gsave
216 171.9 617.8 57.4 clipbox
617.82875 164.815 m
833.82875 164.815 l
stroke
grestore
0 setlinecap
gsave
/o {
gsave
newpath
translate
0.5 setlinewidth
1 setlinejoin
0 setlinecap
-0 0 m
-6 0 l

gsave
0.000 setgray
fill
grestore
stroke
grestore
} bind def
617.829 164.815 o
grestore
gsave
589.235000 160.252500 translate
0.000000 rotate
0.000000 0 m /one glyphshow
7.634766 0 m /period glyphshow
11.449219 0 m /two glyphshow
grestore
2 setlinecap
gsave
216 171.9 617.8 57.4 clipbox
617.82875 186.298 m
833.82875 186.298 l
stroke
grestore
0 setlinecap
gsave
/o {
gsave
newpath
translate
0.5 setlinewidth
1 setlinejoin
0 setlinecap
-0 0 m
-6 0 l

gsave
0.000 setgray
fill
grestore
stroke
grestore
} bind def
617.829 186.298 o
grestore
gsave
589.235000 181.735500 translate
0.000000 rotate
0.000000 0 m /one glyphshow
7.634766 0 m /period glyphshow
11.449219 0 m /four glyphshow
grestore
2 setlinecap
gsave
216 171.9 617.8 57.4 clipbox
617.82875 207.781 m
833.82875 207.781 l
stroke
grestore
0 setlinecap
gsave
/o {
gsave
newpath
translate
0.5 setlinewidth
1 setlinejoin
0 setlinecap
-0 0 m
-6 0 l

gsave
0.000 setgray
fill
grestore
stroke
grestore
} bind def
617.829 207.781 o
grestore
gsave
589.235000 203.218500 translate
0.000000 rotate
0.000000 0 m /one glyphshow
7.634766 0 m /period glyphshow
11.449219 0 m /six glyphshow
grestore
2 setlinecap
gsave
216 171.9 617.8 57.4 clipbox
617.82875 229.264 m
833.82875 229.264 l
stroke
grestore
0 setlinecap
gsave
/o {
gsave
newpath
translate
0.5 setlinewidth
1 setlinejoin
0 setlinecap
-0 0 m
-6 0 l

gsave
0.000 setgray
fill
grestore
stroke
grestore
} bind def
617.829 229.264 o
grestore
gsave
589.235000 224.701500 translate
0.000000 rotate
0.000000 0 m /one glyphshow
7.634766 0 m /period glyphshow
11.449219 0 m /eight glyphshow
grestore
1.250 setlinewidth
2 setlinecap
0.494 0.078 0.086 setrgbcolor
gsave
216 171.9 617.8 57.4 clipbox
617.82875 62.8348 m
628.62875 70.885971 l
639.42875 78.937141 l
650.22875 86.988312 l
661.02875 95.039483 l
671.82875 103.090653 l
682.62875 111.141824 l
693.42875 119.192994 l
704.22875 127.244165 l
715.02875 135.295336 l
725.82875 143.346506 l
736.62875 151.397677 l
747.42875 159.448847 l
758.22875 167.500018 l
769.02875 175.551189 l
779.82875 183.602359 l
790.62875 191.65353 l
801.42875 199.7047 l
812.22875 207.755871 l
823.02875 215.807042 l
833.82875 223.858212 l
stroke
grestore
1.000 setlinewidth
0 setlinecap
gsave
216 171.9 617.8 57.4 clipbox
/o {
gsave
newpath
translate
1.0 setlinewidth
1 setlinejoin
0 setlinecap
0 -3 m
0.795609 -3 1.55874 -2.683901 2.12132 -2.12132 c
2.683901 -1.55874 3 -0.795609 3 0 c
3 0.795609 2.683901 1.55874 2.12132 2.12132 c
1.55874 2.683901 0.795609 3 0 3 c
-0.795609 3 -1.55874 2.683901 -2.12132 2.12132 c
-2.683901 1.55874 -3 0.795609 -3 0 c
-3 -0.795609 -2.683901 -1.55874 -2.12132 -2.12132 c
-1.55874 -2.683901 -0.795609 -3 0 -3 c
cl

gsave
0.494 0.078 0.086 setrgbcolor
fill
grestore
stroke
grestore
} bind def
700.357 128.709 o
779.075 172.731 o
662.005 92.115 o
687.328 101.248 o
724.501 137.893 o
715.83 132.407 o
751.752 159.309 o
826.532 223.062 o
711.236 155.645 o
699.336 130.094 o
grestore
0.500 setlinewidth
0 setlinejoin
2 setlinecap
0.000 setgray
gsave
617.82875 57.4 m
617.82875 229.264 l
stroke
grestore
gsave
833.82875 57.4 m
833.82875 229.264 l
stroke
grestore
gsave
617.82875 57.4 m
833.82875 57.4 l
stroke
grestore
gsave
617.82875 229.264 m
833.82875 229.264 l
stroke
grestore
/DejaVuSans-Bold findfont
14.400 scalefont
setfont
gsave
587.588750 244.294480 translate
0.000000 rotate
0.000000 0 m /f glyphshow
grestore
/DejaVuSans findfont
12.000 scalefont
setfont
gsave
629.672500 235.264000 translate
0.000000 rotate
0.000000 0 m /E glyphshow
7.582031 0 m /a glyphshow
14.935547 0 m /s glyphshow
21.187500 0 m /t glyphshow
25.892578 0 m /e glyphshow
33.275391 0 m /r glyphshow
37.958984 0 m /n glyphshow
45.564453 0 m /space glyphshow
49.378906 0 m /P glyphshow
56.115234 0 m /a glyphshow
63.468750 0 m /c glyphshow
70.066406 0 m /i glyphshow
73.400391 0 m /f glyphshow
77.625000 0 m /i glyphshow
80.958984 0 m /c glyphshow
87.556641 0 m /space glyphshow
91.371094 0 m /O glyphshow
100.816406 0 m /c glyphshow
107.414062 0 m /e glyphshow
114.796875 0 m /a glyphshow
122.150391 0 m /n glyphshow
129.755859 0 m /space glyphshow
133.570312 0 m /parenleft glyphshow
138.251953 0 m /r glyphshow
143.185547 0 m /space glyphshow
147.000000 0 m /equal glyphshow
157.054688 0 m /space glyphshow
160.869141 0 m /zero glyphshow
168.503906 0 m /period glyphshow
172.318359 0 m /nine glyphshow
179.953125 0 m /six glyphshow
187.587891 0 m /parenright glyphshow
grestore

end
showpage
