%!PS-Adobe-3.0 EPSF-3.0
%%Title: long-term_ip_variation_oct-feb_global.eps
%%Creator: matplotlib version 3.3.0, http://matplotlib.org/
%%CreationDate: Mon Apr 19 18:38:51 2021
%%Orientation: portrait
%%BoundingBox: -116.60099999999993 274.3462625 728.601 517.6537375
%%EndComments
%%BeginProlog
/mpldict 9 dict def
mpldict begin
/m { moveto } bind def
/l { lineto } bind def
/r { rlineto } bind def
/c { curveto } bind def
/cl { closepath } bind def
/box {
      m
      1 index 0 r
      0 exch r
      neg 0 r
      cl
    } bind def
/clipbox {
      box
      clip
      newpath
    } bind def
%!PS-Adobe-3.0 Resource-Font
%%Title: DejaVu Sans
%%Copyright: Copyright (c) 2003 by Bitstream, Inc. All Rights Reserved. Copyright (c) 2006 by Tavmjong Bah. All Rights Reserved. DejaVu changes are in public domain 
%%Creator: Converted from TrueType to type 3 by PPR
25 dict begin
/_d{bind def}bind def
/_m{moveto}_d
/_l{lineto}_d
/_cl{closepath eofill}_d
/_c{curveto}_d
/_sc{7 -1 roll{setcachedevice}{pop pop pop pop pop pop}ifelse}_d
/_e{exec}_d
/FontName /DejaVuSans def
/PaintType 0 def
/FontMatrix[.001 0 0 .001 0 0]def
/FontBBox[-1021 -463 1793 1232]def
/FontType 3 def
/Encoding [ /space /parenleft /parenright /comma /period /slash /zero /one /two /three /four /five /six /seven /eight /nine /equal /A /C /E /F /I /L /N /O /S /T /V /Y /a /b /c /d /e /h /i /k /l /n /o /p /r /t /degree /ntilde /tilde /emdash /minus ] def
/FontInfo 10 dict dup begin
/FamilyName (DejaVu Sans) def
/FullName (DejaVu Sans) def
/Notice (Copyright (c) 2003 by Bitstream, Inc. All Rights Reserved. Copyright (c) 2006 by Tavmjong Bah. All Rights Reserved. DejaVu changes are in public domain ) def
/Weight (Book) def
/Version (Version 2.35) def
/ItalicAngle 0.0 def
/isFixedPitch false def
/UnderlinePosition -130 def
/UnderlineThickness 90 def
end readonly def
/CharStrings 49 dict dup begin
/.notdef 0 def
/space{318 0 0 0 0 0 _sc
}_d
/parenleft{390 0 86 -131 310 759 _sc
310 759 _m
266 683 234 609 213 536 _c
191 463 181 389 181 314 _c
181 238 191 164 213 91 _c
234 17 266 -56 310 -131 _c
232 -131 _l
183 -54 146 20 122 94 _c
98 168 86 241 86 314 _c
86 386 98 459 122 533 _c
146 607 182 682 232 759 _c
310 759 _l
_cl}_d
/parenright{390 0 80 -131 304 759 _sc
80 759 _m
158 759 _l
206 682 243 607 267 533 _c
291 459 304 386 304 314 _c
304 241 291 168 267 94 _c
243 20 206 -54 158 -131 _c
80 -131 _l
123 -56 155 17 177 91 _c
198 164 209 238 209 314 _c
209 389 198 463 177 536 _c
155 609 123 683 80 759 _c
_cl}_d
/comma{318 0 77 -115 220 124 _sc
117 124 _m
220 124 _l
220 40 _l
140 -115 _l
77 -115 _l
117 40 _l
117 124 _l
_cl}_d
/period{318 0 107 0 210 124 _sc
107 124 _m
210 124 _l
210 0 _l
107 0 _l
107 124 _l
_cl}_d
/slash{337 0 0 -92 337 729 _sc
254 729 _m
337 729 _l
83 -92 _l
0 -92 _l
254 729 _l
_cl}_d
/zero{636 0 66 -13 570 742 _sc
318 664 _m
267 664 229 639 203 589 _c
177 539 165 464 165 364 _c
165 264 177 189 203 139 _c
229 89 267 64 318 64 _c
369 64 407 89 433 139 _c
458 189 471 264 471 364 _c
471 464 458 539 433 589 _c
407 639 369 664 318 664 _c
318 742 _m
399 742 461 709 505 645 _c
548 580 570 486 570 364 _c
570 241 548 147 505 83 _c
461 19 399 -13 318 -13 _c
236 -13 173 19 130 83 _c
87 147 66 241 66 364 _c
66 486 87 580 130 645 _c
173 709 236 742 318 742 _c
_cl}_d
/one{636 0 110 0 544 729 _sc
124 83 _m
285 83 _l
285 639 _l
110 604 _l
110 694 _l
284 729 _l
383 729 _l
383 83 _l
544 83 _l
544 0 _l
124 0 _l
124 83 _l
_cl}_d
/two{{636 0 73 0 536 742 _sc
192 83 _m
536 83 _l
536 0 _l
73 0 _l
73 83 _l
110 121 161 173 226 239 _c
290 304 331 346 348 365 _c
380 400 402 430 414 455 _c
426 479 433 504 433 528 _c
433 566 419 598 392 622 _c
365 646 330 659 286 659 _c
255 659 222 653 188 643 _c
154 632 117 616 78 594 _c
78 694 _l
118 710 155 722 189 730 _c
223 738 255 742 284 742 _c
}_e{359 742 419 723 464 685 _c
509 647 532 597 532 534 _c
532 504 526 475 515 449 _c
504 422 484 390 454 354 _c
446 344 420 317 376 272 _c
332 227 271 164 192 83 _c
_cl}_e}_d
/three{{636 0 76 -13 556 742 _sc
406 393 _m
453 383 490 362 516 330 _c
542 298 556 258 556 212 _c
556 140 531 84 482 45 _c
432 6 362 -13 271 -13 _c
240 -13 208 -10 176 -4 _c
144 1 110 10 76 22 _c
76 117 _l
103 101 133 89 166 81 _c
198 73 232 69 268 69 _c
330 69 377 81 409 105 _c
441 129 458 165 458 212 _c
458 254 443 288 413 312 _c
383 336 341 349 287 349 _c
}_e{202 349 _l
202 430 _l
291 430 _l
339 430 376 439 402 459 _c
428 478 441 506 441 543 _c
441 580 427 609 401 629 _c
374 649 336 659 287 659 _c
260 659 231 656 200 650 _c
169 644 135 635 98 623 _c
98 711 _l
135 721 170 729 203 734 _c
235 739 266 742 296 742 _c
370 742 429 725 473 691 _c
517 657 539 611 539 553 _c
539 513 527 479 504 451 _c
481 423 448 403 406 393 _c
_cl}_e}_d
/four{636 0 49 0 580 729 _sc
378 643 _m
129 254 _l
378 254 _l
378 643 _l
352 729 _m
476 729 _l
476 254 _l
580 254 _l
580 172 _l
476 172 _l
476 0 _l
378 0 _l
378 172 _l
49 172 _l
49 267 _l
352 729 _l
_cl}_d
/five{{636 0 77 -13 549 729 _sc
108 729 _m
495 729 _l
495 646 _l
198 646 _l
198 467 _l
212 472 227 476 241 478 _c
255 480 270 482 284 482 _c
365 482 429 459 477 415 _c
525 370 549 310 549 234 _c
549 155 524 94 475 51 _c
426 8 357 -13 269 -13 _c
238 -13 207 -10 175 -6 _c
143 -1 111 6 77 17 _c
77 116 _l
106 100 136 88 168 80 _c
199 72 232 69 267 69 _c
}_e{323 69 368 83 401 113 _c
433 143 450 183 450 234 _c
450 284 433 324 401 354 _c
368 384 323 399 267 399 _c
241 399 214 396 188 390 _c
162 384 135 375 108 363 _c
108 729 _l
_cl}_e}_d
/six{{636 0 70 -13 573 742 _sc
330 404 _m
286 404 251 388 225 358 _c
199 328 186 286 186 234 _c
186 181 199 139 225 109 _c
251 79 286 64 330 64 _c
374 64 409 79 435 109 _c
461 139 474 181 474 234 _c
474 286 461 328 435 358 _c
409 388 374 404 330 404 _c
526 713 _m
526 623 _l
501 635 476 644 451 650 _c
425 656 400 659 376 659 _c
310 659 260 637 226 593 _c
}_e{192 549 172 482 168 394 _c
187 422 211 444 240 459 _c
269 474 301 482 336 482 _c
409 482 467 459 509 415 _c
551 371 573 310 573 234 _c
573 159 550 99 506 54 _c
462 9 403 -13 330 -13 _c
246 -13 181 19 137 83 _c
92 147 70 241 70 364 _c
70 479 97 571 152 639 _c
206 707 280 742 372 742 _c
396 742 421 739 447 735 _c
472 730 498 723 526 713 _c
_cl}_e}_d
/seven{636 0 82 0 551 729 _sc
82 729 _m
551 729 _l
551 687 _l
286 0 _l
183 0 _l
432 646 _l
82 646 _l
82 729 _l
_cl}_d
/eight{{636 0 68 -13 568 742 _sc
318 346 _m
271 346 234 333 207 308 _c
180 283 167 249 167 205 _c
167 161 180 126 207 101 _c
234 76 271 64 318 64 _c
364 64 401 76 428 102 _c
455 127 469 161 469 205 _c
469 249 455 283 429 308 _c
402 333 365 346 318 346 _c
219 388 _m
177 398 144 418 120 447 _c
96 476 85 511 85 553 _c
85 611 105 657 147 691 _c
188 725 245 742 318 742 _c
}_e{390 742 447 725 489 691 _c
530 657 551 611 551 553 _c
551 511 539 476 515 447 _c
491 418 459 398 417 388 _c
464 377 501 355 528 323 _c
554 291 568 251 568 205 _c
568 134 546 80 503 43 _c
459 5 398 -13 318 -13 _c
237 -13 175 5 132 43 _c
89 80 68 134 68 205 _c
68 251 81 291 108 323 _c
134 355 171 377 219 388 _c
183 544 _m
183 506 194 476 218 455 _c
}_e{242 434 275 424 318 424 _c
360 424 393 434 417 455 _c
441 476 453 506 453 544 _c
453 582 441 611 417 632 _c
393 653 360 664 318 664 _c
275 664 242 653 218 632 _c
194 611 183 582 183 544 _c
_cl}_e}_d
/nine{{636 0 63 -13 566 742 _sc
110 15 _m
110 105 _l
134 93 159 84 185 78 _c
210 72 235 69 260 69 _c
324 69 374 90 408 134 _c
442 178 462 244 468 334 _c
448 306 424 284 396 269 _c
367 254 335 247 300 247 _c
226 247 168 269 126 313 _c
84 357 63 417 63 494 _c
63 568 85 628 129 674 _c
173 719 232 742 306 742 _c
390 742 455 709 499 645 _c
543 580 566 486 566 364 _c
}_e{566 248 538 157 484 89 _c
429 21 356 -13 264 -13 _c
239 -13 214 -10 189 -6 _c
163 -2 137 5 110 15 _c
306 324 _m
350 324 385 339 411 369 _c
437 399 450 441 450 494 _c
450 546 437 588 411 618 _c
385 648 350 664 306 664 _c
262 664 227 648 201 618 _c
175 588 162 546 162 494 _c
162 441 175 399 201 369 _c
227 339 262 324 306 324 _c
_cl}_e}_d
/equal{838 0 106 172 732 454 _sc
106 454 _m
732 454 _l
732 372 _l
106 372 _l
106 454 _l
106 255 _m
732 255 _l
732 172 _l
106 172 _l
106 255 _l
_cl}_d
/A{684 0 8 0 676 729 _sc
342 632 _m
208 269 _l
476 269 _l
342 632 _l
286 729 _m
398 729 _l
676 0 _l
573 0 _l
507 187 _l
178 187 _l
112 0 _l
8 0 _l
286 729 _l
_cl}_d
/C{{698 0 56 -13 644 742 _sc
644 673 _m
644 569 _l
610 599 575 622 537 638 _c
499 653 460 661 418 661 _c
334 661 270 635 226 584 _c
182 533 160 460 160 364 _c
160 268 182 194 226 143 _c
270 92 334 67 418 67 _c
460 67 499 74 537 90 _c
575 105 610 128 644 159 _c
644 56 _l
609 32 572 15 534 4 _c
496 -7 455 -13 412 -13 _c
302 -13 215 20 151 87 _c
}_e{87 154 56 246 56 364 _c
56 481 87 573 151 641 _c
215 708 302 742 412 742 _c
456 742 497 736 535 725 _c
573 713 610 696 644 673 _c
_cl}_e}_d
/E{632 0 98 0 568 729 _sc
98 729 _m
559 729 _l
559 646 _l
197 646 _l
197 430 _l
544 430 _l
544 347 _l
197 347 _l
197 83 _l
568 83 _l
568 0 _l
98 0 _l
98 729 _l
_cl}_d
/F{575 0 98 0 517 729 _sc
98 729 _m
517 729 _l
517 646 _l
197 646 _l
197 431 _l
486 431 _l
486 348 _l
197 348 _l
197 0 _l
98 0 _l
98 729 _l
_cl}_d
/I{295 0 98 0 197 729 _sc
98 729 _m
197 729 _l
197 0 _l
98 0 _l
98 729 _l
_cl}_d
/L{557 0 98 0 552 729 _sc
98 729 _m
197 729 _l
197 83 _l
552 83 _l
552 0 _l
98 0 _l
98 729 _l
_cl}_d
/N{748 0 98 0 650 729 _sc
98 729 _m
231 729 _l
554 119 _l
554 729 _l
650 729 _l
650 0 _l
517 0 _l
194 610 _l
194 0 _l
98 0 _l
98 729 _l
_cl}_d
/O{787 0 56 -13 731 742 _sc
394 662 _m
322 662 265 635 223 582 _c
181 528 160 456 160 364 _c
160 272 181 199 223 146 _c
265 92 322 66 394 66 _c
465 66 522 92 564 146 _c
606 199 627 272 627 364 _c
627 456 606 528 564 582 _c
522 635 465 662 394 662 _c
394 742 _m
496 742 577 707 639 639 _c
700 571 731 479 731 364 _c
731 248 700 157 639 89 _c
577 21 496 -13 394 -13 _c
291 -13 209 21 148 89 _c
86 157 56 248 56 364 _c
56 479 86 571 148 639 _c
209 707 291 742 394 742 _c
_cl}_d
/S{{635 0 66 -13 579 742 _sc
535 705 _m
535 609 _l
497 627 462 640 429 649 _c
395 657 363 662 333 662 _c
279 662 237 651 208 631 _c
179 610 165 580 165 542 _c
165 510 174 485 194 469 _c
213 452 250 439 304 429 _c
364 417 _l
437 403 491 378 526 343 _c
561 307 579 260 579 201 _c
579 130 555 77 508 41 _c
460 5 391 -13 300 -13 _c
265 -13 228 -9 189 -2 _c
}_e{150 5 110 16 69 32 _c
69 134 _l
109 111 148 94 186 83 _c
224 71 262 66 300 66 _c
356 66 399 77 430 99 _c
460 121 476 152 476 194 _c
476 230 465 258 443 278 _c
421 298 385 313 335 323 _c
275 335 _l
201 349 148 372 115 404 _c
82 435 66 478 66 534 _c
66 598 88 649 134 686 _c
179 723 242 742 322 742 _c
356 742 390 739 426 733 _c
461 727 497 717 535 705 _c
}_e{_cl}_e}_d
/T{611 0 -2 0 614 729 _sc
-2 729 _m
614 729 _l
614 646 _l
355 646 _l
355 0 _l
256 0 _l
256 646 _l
-2 646 _l
-2 729 _l
_cl}_d
/V{684 0 8 0 676 729 _sc
286 0 _m
8 729 _l
111 729 _l
342 115 _l
573 729 _l
676 729 _l
398 0 _l
286 0 _l
_cl}_d
/Y{611 0 -1 0 613 729 _sc
-1 729 _m
104 729 _l
306 429 _l
507 729 _l
613 729 _l
355 347 _l
355 0 _l
256 0 _l
256 347 _l
-1 729 _l
_cl}_d
/a{{613 0 60 -13 522 560 _sc
343 275 _m
270 275 220 266 192 250 _c
164 233 150 205 150 165 _c
150 133 160 107 181 89 _c
202 70 231 61 267 61 _c
317 61 357 78 387 114 _c
417 149 432 196 432 255 _c
432 275 _l
343 275 _l
522 312 _m
522 0 _l
432 0 _l
432 83 _l
411 49 385 25 355 10 _c
325 -5 287 -13 243 -13 _c
187 -13 142 2 109 33 _c
76 64 60 106 60 159 _c
}_e{60 220 80 266 122 298 _c
163 329 224 345 306 345 _c
432 345 _l
432 354 _l
432 395 418 427 391 450 _c
364 472 326 484 277 484 _c
245 484 215 480 185 472 _c
155 464 127 453 100 439 _c
100 522 _l
132 534 164 544 195 550 _c
226 556 256 560 286 560 _c
365 560 424 539 463 498 _c
502 457 522 395 522 312 _c
_cl}_e}_d
/b{{635 0 91 -13 580 760 _sc
487 273 _m
487 339 473 390 446 428 _c
418 466 381 485 334 485 _c
286 485 249 466 222 428 _c
194 390 181 339 181 273 _c
181 207 194 155 222 117 _c
249 79 286 61 334 61 _c
381 61 418 79 446 117 _c
473 155 487 207 487 273 _c
181 464 _m
199 496 223 520 252 536 _c
281 552 316 560 356 560 _c
422 560 476 533 518 481 _c
559 428 580 359 580 273 _c
}_e{580 187 559 117 518 65 _c
476 13 422 -13 356 -13 _c
316 -13 281 -5 252 10 _c
223 25 199 49 181 82 _c
181 0 _l
91 0 _l
91 760 _l
181 760 _l
181 464 _l
_cl}_e}_d
/c{{550 0 55 -13 488 560 _sc
488 526 _m
488 442 _l
462 456 437 466 411 473 _c
385 480 360 484 334 484 _c
276 484 230 465 198 428 _c
166 391 150 339 150 273 _c
150 206 166 154 198 117 _c
230 80 276 62 334 62 _c
360 62 385 65 411 72 _c
437 79 462 90 488 104 _c
488 21 _l
462 9 436 0 410 -5 _c
383 -10 354 -13 324 -13 _c
242 -13 176 12 128 64 _c
}_e{79 115 55 185 55 273 _c
55 362 79 432 128 483 _c
177 534 244 560 330 560 _c
358 560 385 557 411 551 _c
437 545 463 537 488 526 _c
_cl}_e}_d
/d{{635 0 55 -13 544 760 _sc
454 464 _m
454 760 _l
544 760 _l
544 0 _l
454 0 _l
454 82 _l
435 49 411 25 382 10 _c
353 -5 319 -13 279 -13 _c
213 -13 159 13 117 65 _c
75 117 55 187 55 273 _c
55 359 75 428 117 481 _c
159 533 213 560 279 560 _c
319 560 353 552 382 536 _c
411 520 435 496 454 464 _c
148 273 _m
148 207 161 155 188 117 _c
215 79 253 61 301 61 _c
}_e{348 61 385 79 413 117 _c
440 155 454 207 454 273 _c
454 339 440 390 413 428 _c
385 466 348 485 301 485 _c
253 485 215 466 188 428 _c
161 390 148 339 148 273 _c
_cl}_e}_d
/e{{615 0 55 -13 562 560 _sc
562 296 _m
562 252 _l
149 252 _l
153 190 171 142 205 110 _c
238 78 284 62 344 62 _c
378 62 412 66 444 74 _c
476 82 509 95 541 113 _c
541 28 _l
509 14 476 3 442 -3 _c
408 -9 373 -13 339 -13 _c
251 -13 182 12 131 62 _c
80 112 55 181 55 268 _c
55 357 79 428 127 481 _c
175 533 241 560 323 560 _c
397 560 455 536 498 489 _c
}_e{540 441 562 377 562 296 _c
472 322 _m
471 371 457 410 431 440 _c
404 469 368 484 324 484 _c
274 484 234 469 204 441 _c
174 413 156 373 152 322 _c
472 322 _l
_cl}_e}_d
/h{634 0 91 0 549 760 _sc
549 330 _m
549 0 _l
459 0 _l
459 327 _l
459 379 448 417 428 443 _c
408 469 378 482 338 482 _c
289 482 251 466 223 435 _c
195 404 181 362 181 309 _c
181 0 _l
91 0 _l
91 760 _l
181 760 _l
181 462 _l
202 494 227 519 257 535 _c
286 551 320 560 358 560 _c
420 560 468 540 500 501 _c
532 462 549 405 549 330 _c
_cl}_d
/i{278 0 94 0 184 760 _sc
94 547 _m
184 547 _l
184 0 _l
94 0 _l
94 547 _l
94 760 _m
184 760 _l
184 646 _l
94 646 _l
94 760 _l
_cl}_d
/k{579 0 91 0 576 760 _sc
91 760 _m
181 760 _l
181 311 _l
449 547 _l
564 547 _l
274 291 _l
576 0 _l
459 0 _l
181 267 _l
181 0 _l
91 0 _l
91 760 _l
_cl}_d
/l{278 0 94 0 184 760 _sc
94 760 _m
184 760 _l
184 0 _l
94 0 _l
94 760 _l
_cl}_d
/n{634 0 91 0 549 560 _sc
549 330 _m
549 0 _l
459 0 _l
459 327 _l
459 379 448 417 428 443 _c
408 469 378 482 338 482 _c
289 482 251 466 223 435 _c
195 404 181 362 181 309 _c
181 0 _l
91 0 _l
91 547 _l
181 547 _l
181 462 _l
202 494 227 519 257 535 _c
286 551 320 560 358 560 _c
420 560 468 540 500 501 _c
532 462 549 405 549 330 _c
_cl}_d
/o{612 0 55 -13 557 560 _sc
306 484 _m
258 484 220 465 192 427 _c
164 389 150 338 150 273 _c
150 207 163 156 191 118 _c
219 80 257 62 306 62 _c
354 62 392 80 420 118 _c
448 156 462 207 462 273 _c
462 337 448 389 420 427 _c
392 465 354 484 306 484 _c
306 560 _m
384 560 445 534 490 484 _c
534 433 557 363 557 273 _c
557 183 534 113 490 63 _c
445 12 384 -13 306 -13 _c
227 -13 165 12 121 63 _c
77 113 55 183 55 273 _c
55 363 77 433 121 484 _c
165 534 227 560 306 560 _c
_cl}_d
/p{{635 0 91 -207 580 560 _sc
181 82 _m
181 -207 _l
91 -207 _l
91 547 _l
181 547 _l
181 464 _l
199 496 223 520 252 536 _c
281 552 316 560 356 560 _c
422 560 476 533 518 481 _c
559 428 580 359 580 273 _c
580 187 559 117 518 65 _c
476 13 422 -13 356 -13 _c
316 -13 281 -5 252 10 _c
223 25 199 49 181 82 _c
487 273 _m
487 339 473 390 446 428 _c
418 466 381 485 334 485 _c
}_e{286 485 249 466 222 428 _c
194 390 181 339 181 273 _c
181 207 194 155 222 117 _c
249 79 286 61 334 61 _c
381 61 418 79 446 117 _c
473 155 487 207 487 273 _c
_cl}_e}_d
/r{411 0 91 0 411 560 _sc
411 463 _m
401 469 390 473 378 476 _c
366 478 353 480 339 480 _c
288 480 249 463 222 430 _c
194 397 181 350 181 288 _c
181 0 _l
91 0 _l
91 547 _l
181 547 _l
181 462 _l
199 495 224 520 254 536 _c
284 552 321 560 365 560 _c
371 560 378 559 386 559 _c
393 558 401 557 411 555 _c
411 463 _l
_cl}_d
/t{392 0 27 0 368 702 _sc
183 702 _m
183 547 _l
368 547 _l
368 477 _l
183 477 _l
183 180 _l
183 135 189 106 201 94 _c
213 81 238 75 276 75 _c
368 75 _l
368 0 _l
276 0 _l
206 0 158 13 132 39 _c
106 65 93 112 93 180 _c
93 477 _l
27 477 _l
27 547 _l
93 547 _l
93 702 _l
183 702 _l
_cl}_d
/degree{{500 0 95 432 405 742 _sc
250 679 _m
224 679 202 670 184 652 _c
166 634 157 612 157 586 _c
157 560 166 538 184 520 _c
202 502 224 494 250 494 _c
276 494 298 502 316 520 _c
334 538 343 560 343 586 _c
343 612 334 634 316 652 _c
298 670 276 679 250 679 _c
250 742 _m
270 742 290 738 310 730 _c
329 722 346 710 360 696 _c
374 681 385 664 393 646 _c
401 627 405 607 405 586 _c
}_e{405 542 389 506 359 476 _c
329 446 292 432 249 432 _c
205 432 168 446 139 476 _c
109 505 95 542 95 586 _c
95 629 110 666 140 696 _c
170 726 206 742 250 742 _c
_cl}_e}_d
/ntilde{634 0 91 0 549 777 _sc
false CharStrings /n get exec
gsave 74 0 translate
false CharStrings /tilde get exec
grestore }_d
/tilde{{500 0 89 639 411 777 _sc
248 669 _m
220 696 _l
212 702 206 707 201 710 _c
195 713 191 715 187 715 _c
174 715 165 709 159 697 _c
153 685 150 665 150 639 _c
89 639 _l
89 683 98 717 115 741 _c
131 765 154 777 184 777 _c
196 777 208 774 218 770 _c
228 765 240 757 252 747 _c
280 720 _l
287 713 293 708 299 705 _c
304 702 309 701 313 701 _c
325 701 334 707 340 719 _c
}_e{346 731 349 750 350 777 _c
411 777 _l
410 733 401 699 385 675 _c
368 651 345 639 316 639 _c
303 639 291 641 281 646 _c
271 650 260 658 248 669 _c
_cl}_e}_d
/emdash{1000 0 49 239 951 309 _sc
49 309 _m
951 309 _l
951 239 _l
49 239 _l
49 309 _l
_cl}_d
/minus{838 0 106 272 732 355 _sc
106 355 _m
732 355 _l
732 272 _l
106 272 _l
106 355 _l
_cl}_d
end readonly def

/BuildGlyph
 {exch begin
 CharStrings exch
 2 copy known not{pop /.notdef}if
 true 3 1 roll get exec
 end}_d

/BuildChar {
 1 index /Encoding get exch get
 1 index /BuildGlyph get exec
}_d

FontName currentdict end definefont pop
%!PS-Adobe-3.0 Resource-Font
%%Title: DejaVu Sans Bold
%%Copyright: Copyright (c) 2003 by Bitstream, Inc. All Rights Reserved. Copyright (c) 2006 by Tavmjong Bah. All Rights Reserved. DejaVu changes are in public domain 
%%Creator: Converted from TrueType to type 3 by PPR
25 dict begin
/_d{bind def}bind def
/_m{moveto}_d
/_l{lineto}_d
/_cl{closepath eofill}_d
/_c{curveto}_d
/_sc{7 -1 roll{setcachedevice}{pop pop pop pop pop pop}ifelse}_d
/_e{exec}_d
/FontName /DejaVuSans-Bold def
/PaintType 0 def
/FontMatrix[.001 0 0 .001 0 0]def
/FontBBox[-1069 -415 1975 1174]def
/FontType 3 def
/Encoding [ /a /b /c ] def
/FontInfo 10 dict dup begin
/FamilyName (DejaVu Sans) def
/FullName (DejaVu Sans Bold) def
/Notice (Copyright (c) 2003 by Bitstream, Inc. All Rights Reserved. Copyright (c) 2006 by Tavmjong Bah. All Rights Reserved. DejaVu changes are in public domain ) def
/Weight (Bold) def
/Version (Version 2.35) def
/ItalicAngle 0.0 def
/isFixedPitch false def
/UnderlinePosition -130 def
/UnderlineThickness 90 def
end readonly def
/CharStrings 4 dict dup begin
/.notdef 0 def
/a{{675 0 43 -13 596 560 _sc
329 246 _m
292 246 264 239 246 227 _c
228 215 219 197 219 173 _c
219 151 226 133 241 121 _c
256 108 277 102 303 102 _c
336 102 364 113 386 137 _c
408 161 420 190 420 226 _c
420 246 _l
329 246 _l
596 312 _m
596 0 _l
420 0 _l
420 81 _l
396 47 370 23 341 9 _c
311 -5 276 -13 234 -13 _c
177 -13 131 3 96 36 _c
60 68 43 111 43 164 _c
}_e{43 228 65 275 109 305 _c
153 335 222 350 317 350 _c
420 350 _l
420 364 _l
420 391 409 411 387 424 _c
365 437 331 444 285 444 _c
247 444 212 440 180 432 _c
148 424 118 413 91 399 _c
91 532 _l
128 541 165 548 203 553 _c
241 557 279 560 317 560 _c
415 560 486 540 530 501 _c
574 462 596 399 596 312 _c
_cl}_e}_d
/b{{716 0 84 -13 671 760 _sc
375 113 _m
412 113 440 126 460 154 _c
480 181 490 221 490 273 _c
490 325 480 364 460 392 _c
440 419 412 433 375 433 _c
337 433 309 419 289 392 _c
269 364 259 325 259 273 _c
259 221 269 181 289 154 _c
309 126 337 113 375 113 _c
259 467 _m
283 499 309 522 339 537 _c
368 552 402 560 440 560 _c
507 560 562 533 606 479 _c
649 425 671 357 671 273 _c
}_e{671 188 649 119 606 66 _c
562 13 507 -13 440 -13 _c
402 -13 368 -5 339 9 _c
309 23 283 47 259 79 _c
259 0 _l
84 0 _l
84 760 _l
259 760 _l
259 467 _l
_cl}_e}_d
/c{{593 0 43 -13 526 560 _sc
526 530 _m
526 387 _l
502 403 478 415 454 423 _c
430 431 405 435 380 435 _c
331 435 293 420 266 392 _c
238 364 225 324 225 273 _c
225 221 238 181 266 153 _c
293 125 331 111 380 111 _c
407 111 433 115 458 123 _c
482 131 505 143 526 159 _c
526 16 _l
498 6 470 -1 442 -6 _c
414 -10 386 -13 358 -13 _c
259 -13 182 12 126 62 _c
}_e{70 112 43 183 43 273 _c
43 363 70 433 126 484 _c
182 534 259 560 358 560 _c
386 560 414 557 442 552 _c
470 547 498 540 526 530 _c
_cl}_e}_d
end readonly def

/BuildGlyph
 {exch begin
 CharStrings exch
 2 copy known not{pop /.notdef}if
 true 3 1 roll get exec
 end}_d

/BuildChar {
 1 index /Encoding get exch get
 1 index /BuildGlyph get exec
}_d

FontName currentdict end definefont pop
end
%%EndProlog
mpldict begin
-116.601 274.346 translate
845.202 243.307 0 0 clipbox
gsave
0 0 m
845.202 0 l
845.202 243.307475 l
0 243.307475 l
cl
1.000 setgray
fill
grestore
gsave
47.049 66.934375 m
248.649 66.934375 l
248.649 212.014375 l
47.049 212.014375 l
cl
1.000 setgray
fill
grestore
gsave
201.6 145.1 47.05 66.93 clipbox
49.065 -513.385625 m
57.129 -513.385625 l
57.129 117.237685 l
49.065 117.237685 l
cl
0.490 0.153 0.494 setrgbcolor
fill
grestore
gsave
201.6 145.1 47.05 66.93 clipbox
69.225 -513.385625 m
77.289 -513.385625 l
77.289 164.312123 l
69.225 164.312123 l
cl
0.490 0.153 0.494 setrgbcolor
fill
grestore
gsave
201.6 145.1 47.05 66.93 clipbox
89.385 -513.385625 m
97.449 -513.385625 l
97.449 94.302474 l
89.385 94.302474 l
cl
0.490 0.153 0.494 setrgbcolor
fill
grestore
gsave
201.6 145.1 47.05 66.93 clipbox
109.545 -513.385625 m
117.609 -513.385625 l
117.609 109.446021 l
109.545 109.446021 l
cl
0.490 0.153 0.494 setrgbcolor
fill
grestore
gsave
201.6 145.1 47.05 66.93 clipbox
129.705 -513.385625 m
137.769 -513.385625 l
137.769 131.676101 l
129.705 131.676101 l
cl
0.490 0.153 0.494 setrgbcolor
fill
grestore
gsave
201.6 145.1 47.05 66.93 clipbox
149.865 -513.385625 m
157.929 -513.385625 l
157.929 126.490307 l
149.865 126.490307 l
cl
0.490 0.153 0.494 setrgbcolor
fill
grestore
gsave
201.6 145.1 47.05 66.93 clipbox
170.025 -513.385625 m
178.089 -513.385625 l
178.089 147.972659 l
170.025 147.972659 l
cl
0.490 0.153 0.494 setrgbcolor
fill
grestore
gsave
201.6 145.1 47.05 66.93 clipbox
190.185 -513.385625 m
198.249 -513.385625 l
198.249 192.691685 l
190.185 192.691685 l
cl
0.490 0.153 0.494 setrgbcolor
fill
grestore
gsave
201.6 145.1 47.05 66.93 clipbox
210.345 -513.385625 m
218.409 -513.385625 l
218.409 123.74356 l
210.345 123.74356 l
cl
0.490 0.153 0.494 setrgbcolor
fill
grestore
gsave
201.6 145.1 47.05 66.93 clipbox
230.505 -513.385625 m
238.569 -513.385625 l
238.569 116.626627 l
230.505 116.626627 l
cl
0.490 0.153 0.494 setrgbcolor
fill
grestore
0.500 setlinewidth
1 setlinejoin
0 setlinecap
[] 0 setdash
0.000 setgray
gsave
/o {
gsave
newpath
translate
0.5 setlinewidth
1 setlinejoin
0 setlinecap
0 0 m
0 -6 l

gsave
0.000 setgray
fill
grestore
stroke
grestore
} bind def
57.129 66.9344 o
grestore
/DejaVuSans findfont
12.000 scalefont
setfont
gsave
53.816500 57.434375 translate
270.000000 rotate
0.000000 0 m /zero glyphshow
7.634766 0 m /eight glyphshow
15.269531 0 m /slash glyphshow
19.312500 0 m /zero glyphshow
26.947266 0 m /nine glyphshow
grestore
gsave
/o {
gsave
newpath
translate
0.5 setlinewidth
1 setlinejoin
0 setlinecap
0 0 m
0 -6 l

gsave
0.000 setgray
fill
grestore
stroke
grestore
} bind def
77.289 66.9344 o
grestore
gsave
73.976500 57.434375 translate
270.000000 rotate
0.000000 0 m /zero glyphshow
7.634766 0 m /nine glyphshow
15.269531 0 m /slash glyphshow
19.312500 0 m /one glyphshow
26.947266 0 m /zero glyphshow
grestore
gsave
/o {
gsave
newpath
translate
0.5 setlinewidth
1 setlinejoin
0 setlinecap
0 0 m
0 -6 l

gsave
0.000 setgray
fill
grestore
stroke
grestore
} bind def
97.449 66.9344 o
grestore
gsave
94.136500 57.434375 translate
270.000000 rotate
0.000000 0 m /one glyphshow
7.634766 0 m /zero glyphshow
15.269531 0 m /slash glyphshow
19.312500 0 m /one glyphshow
26.947266 0 m /one glyphshow
grestore
gsave
/o {
gsave
newpath
translate
0.5 setlinewidth
1 setlinejoin
0 setlinecap
0 0 m
0 -6 l

gsave
0.000 setgray
fill
grestore
stroke
grestore
} bind def
117.609 66.9344 o
grestore
gsave
114.296500 57.434375 translate
270.000000 rotate
0.000000 0 m /one glyphshow
7.634766 0 m /one glyphshow
15.269531 0 m /slash glyphshow
19.312500 0 m /one glyphshow
26.947266 0 m /two glyphshow
grestore
gsave
/o {
gsave
newpath
translate
0.5 setlinewidth
1 setlinejoin
0 setlinecap
0 0 m
0 -6 l

gsave
0.000 setgray
fill
grestore
stroke
grestore
} bind def
137.769 66.9344 o
grestore
gsave
134.456500 57.434375 translate
270.000000 rotate
0.000000 0 m /one glyphshow
7.634766 0 m /two glyphshow
15.269531 0 m /slash glyphshow
19.312500 0 m /one glyphshow
26.947266 0 m /three glyphshow
grestore
gsave
/o {
gsave
newpath
translate
0.5 setlinewidth
1 setlinejoin
0 setlinecap
0 0 m
0 -6 l

gsave
0.000 setgray
fill
grestore
stroke
grestore
} bind def
157.929 66.9344 o
grestore
gsave
154.616500 57.434375 translate
270.000000 rotate
0.000000 0 m /one glyphshow
7.634766 0 m /three glyphshow
15.269531 0 m /slash glyphshow
19.312500 0 m /one glyphshow
26.947266 0 m /four glyphshow
grestore
gsave
/o {
gsave
newpath
translate
0.5 setlinewidth
1 setlinejoin
0 setlinecap
0 0 m
0 -6 l

gsave
0.000 setgray
fill
grestore
stroke
grestore
} bind def
178.089 66.9344 o
grestore
gsave
174.776500 57.434375 translate
270.000000 rotate
0.000000 0 m /one glyphshow
7.634766 0 m /four glyphshow
15.269531 0 m /slash glyphshow
19.312500 0 m /one glyphshow
26.947266 0 m /five glyphshow
grestore
gsave
/o {
gsave
newpath
translate
0.5 setlinewidth
1 setlinejoin
0 setlinecap
0 0 m
0 -6 l

gsave
0.000 setgray
fill
grestore
stroke
grestore
} bind def
198.249 66.9344 o
grestore
gsave
194.936500 57.434375 translate
270.000000 rotate
0.000000 0 m /one glyphshow
7.634766 0 m /five glyphshow
15.269531 0 m /slash glyphshow
19.312500 0 m /one glyphshow
26.947266 0 m /six glyphshow
grestore
gsave
/o {
gsave
newpath
translate
0.5 setlinewidth
1 setlinejoin
0 setlinecap
0 0 m
0 -6 l

gsave
0.000 setgray
fill
grestore
stroke
grestore
} bind def
218.409 66.9344 o
grestore
gsave
215.096500 57.434375 translate
270.000000 rotate
0.000000 0 m /one glyphshow
7.634766 0 m /six glyphshow
15.269531 0 m /slash glyphshow
19.312500 0 m /one glyphshow
26.947266 0 m /seven glyphshow
grestore
gsave
/o {
gsave
newpath
translate
0.5 setlinewidth
1 setlinejoin
0 setlinecap
0 0 m
0 -6 l

gsave
0.000 setgray
fill
grestore
stroke
grestore
} bind def
238.569 66.9344 o
grestore
gsave
235.256500 57.434375 translate
270.000000 rotate
0.000000 0 m /one glyphshow
7.634766 0 m /seven glyphshow
15.269531 0 m /slash glyphshow
19.312500 0 m /one glyphshow
26.947266 0 m /eight glyphshow
grestore
gsave
135.153687 9.700000 translate
0.000000 rotate
0.000000 0 m /Y glyphshow
5.705078 0 m /e glyphshow
13.087891 0 m /a glyphshow
20.441406 0 m /r glyphshow
grestore
gsave
/o {
gsave
newpath
translate
0.5 setlinewidth
1 setlinejoin
0 setlinecap
-0 0 m
-6 0 l

gsave
0.000 setgray
fill
grestore
stroke
grestore
} bind def
47.049 66.9344 o
grestore
gsave
22.267750 62.371875 translate
0.000000 rotate
0.000000 0 m /two glyphshow
7.634766 0 m /four glyphshow
grestore
gsave
/o {
gsave
newpath
translate
0.5 setlinewidth
1 setlinejoin
0 setlinecap
-0 0 m
-6 0 l

gsave
0.000 setgray
fill
grestore
stroke
grestore
} bind def
47.049 91.1144 o
grestore
gsave
22.267750 86.551875 translate
0.000000 rotate
0.000000 0 m /two glyphshow
7.634766 0 m /five glyphshow
grestore
gsave
/o {
gsave
newpath
translate
0.5 setlinewidth
1 setlinejoin
0 setlinecap
-0 0 m
-6 0 l

gsave
0.000 setgray
fill
grestore
stroke
grestore
} bind def
47.049 115.294 o
grestore
gsave
22.267750 110.731875 translate
0.000000 rotate
0.000000 0 m /two glyphshow
7.634766 0 m /six glyphshow
grestore
gsave
/o {
gsave
newpath
translate
0.5 setlinewidth
1 setlinejoin
0 setlinecap
-0 0 m
-6 0 l

gsave
0.000 setgray
fill
grestore
stroke
grestore
} bind def
47.049 139.474 o
grestore
gsave
22.267750 134.911875 translate
0.000000 rotate
0.000000 0 m /two glyphshow
7.634766 0 m /seven glyphshow
grestore
gsave
/o {
gsave
newpath
translate
0.5 setlinewidth
1 setlinejoin
0 setlinecap
-0 0 m
-6 0 l

gsave
0.000 setgray
fill
grestore
stroke
grestore
} bind def
47.049 163.654 o
grestore
gsave
22.267750 159.091875 translate
0.000000 rotate
0.000000 0 m /two glyphshow
7.634766 0 m /eight glyphshow
grestore
gsave
/o {
gsave
newpath
translate
0.5 setlinewidth
1 setlinejoin
0 setlinecap
-0 0 m
-6 0 l

gsave
0.000 setgray
fill
grestore
stroke
grestore
} bind def
47.049 187.834 o
grestore
gsave
22.267750 183.271875 translate
0.000000 rotate
0.000000 0 m /two glyphshow
7.634766 0 m /nine glyphshow
grestore
gsave
/o {
gsave
newpath
translate
0.5 setlinewidth
1 setlinejoin
0 setlinecap
-0 0 m
-6 0 l

gsave
0.000 setgray
fill
grestore
stroke
grestore
} bind def
47.049 212.014 o
grestore
gsave
22.267750 207.451875 translate
0.000000 rotate
0.000000 0 m /three glyphshow
7.634766 0 m /zero glyphshow
grestore
0.490 0.153 0.494 setrgbcolor
gsave
16.325000 53.888438 translate
90.000000 rotate
0.000000 0 m /N glyphshow
8.976562 0 m /i glyphshow
12.310547 0 m /ntilde glyphshow
19.916016 0 m /o glyphshow
27.257812 0 m /space glyphshow
31.072266 0 m /three glyphshow
38.707031 0 m /period glyphshow
42.521484 0 m /four glyphshow
50.156250 0 m /space glyphshow
53.970703 0 m /S glyphshow
61.587891 0 m /S glyphshow
69.205078 0 m /T glyphshow
76.535156 0 m /space glyphshow
80.349609 0 m /i glyphshow
83.683594 0 m /n glyphshow
91.289062 0 m /space glyphshow
95.103516 0 m /O glyphshow
104.548828 0 m /c glyphshow
111.146484 0 m /t glyphshow
115.851562 0 m /emdash glyphshow
127.851562 0 m /F glyphshow
134.128906 0 m /e glyphshow
141.511719 0 m /b glyphshow
149.128906 0 m /comma glyphshow
152.943359 0 m /space glyphshow
156.757812 0 m /degree glyphshow
162.757812 0 m /C glyphshow
grestore
0 setlinejoin
2 setlinecap
0.000 setgray
gsave
47.049 66.934375 m
47.049 212.014375 l
stroke
grestore
gsave
248.649 66.934375 m
248.649 212.014375 l
stroke
grestore
gsave
47.049 66.934375 m
248.649 66.934375 l
stroke
grestore
gsave
47.049 212.014375 m
248.649 212.014375 l
stroke
grestore
/DejaVuSans-Bold findfont
14.400 scalefont
setfont
gsave
20.841000 225.169975 translate
0.000000 rotate
0.000000 0 m /a glyphshow
grestore
/DejaVuSans findfont
12.000 scalefont
setfont
gsave
96.903687 218.014375 translate
0.000000 rotate
0.000000 0 m /L glyphshow
6.685547 0 m /a glyphshow
14.039062 0 m /n glyphshow
21.644531 0 m /d glyphshow
29.261719 0 m /space glyphshow
33.076172 0 m /parenleft glyphshow
37.757812 0 m /r glyphshow
42.691406 0 m /space glyphshow
46.505859 0 m /equal glyphshow
56.560547 0 m /space glyphshow
60.375000 0 m /minus glyphshow
70.429688 0 m /zero glyphshow
78.064453 0 m /period glyphshow
81.878906 0 m /eight glyphshow
89.513672 0 m /three glyphshow
97.148438 0 m /parenright glyphshow
grestore
gsave
201.6 145.1 47.05 66.93 clipbox
57.129 -150.685625 m
65.193 -150.685625 l
65.193 170.516432 l
57.129 170.516432 l
cl
0.220 0.325 0.643 setrgbcolor
fill
grestore
gsave
201.6 145.1 47.05 66.93 clipbox
77.289 -150.685625 m
85.353 -150.685625 l
85.353 123.924688 l
77.289 123.924688 l
cl
0.220 0.325 0.643 setrgbcolor
fill
grestore
gsave
201.6 145.1 47.05 66.93 clipbox
97.449 -150.685625 m
105.513 -150.685625 l
105.513 155.66035 l
97.449 155.66035 l
cl
0.220 0.325 0.643 setrgbcolor
fill
grestore
gsave
201.6 145.1 47.05 66.93 clipbox
117.609 -150.685625 m
125.673 -150.685625 l
125.673 130.162754 l
117.609 130.162754 l
cl
0.220 0.325 0.643 setrgbcolor
fill
grestore
gsave
201.6 145.1 47.05 66.93 clipbox
137.769 -150.685625 m
145.833 -150.685625 l
145.833 125.539136 l
137.769 125.539136 l
cl
0.220 0.325 0.643 setrgbcolor
fill
grestore
gsave
201.6 145.1 47.05 66.93 clipbox
157.929 -150.685625 m
165.993 -150.685625 l
165.993 136.40999 l
157.929 136.40999 l
cl
0.220 0.325 0.643 setrgbcolor
fill
grestore
gsave
201.6 145.1 47.05 66.93 clipbox
178.089 -150.685625 m
186.153 -150.685625 l
186.153 114.688801 l
178.089 114.688801 l
cl
0.220 0.325 0.643 setrgbcolor
fill
grestore
gsave
201.6 145.1 47.05 66.93 clipbox
198.249 -150.685625 m
206.313 -150.685625 l
206.313 82.285675 l
198.249 82.285675 l
cl
0.220 0.325 0.643 setrgbcolor
fill
grestore
gsave
201.6 145.1 47.05 66.93 clipbox
218.409 -150.685625 m
226.473 -150.685625 l
226.473 147.030761 l
218.409 147.030761 l
cl
0.220 0.325 0.643 setrgbcolor
fill
grestore
gsave
201.6 145.1 47.05 66.93 clipbox
238.569 -150.685625 m
246.633 -150.685625 l
246.633 133.443081 l
238.569 133.443081 l
cl
0.220 0.325 0.643 setrgbcolor
fill
grestore
1 setlinejoin
gsave
201.6 145.1 47.05 66.93 clipbox
47.049 66.934375 m
248.649 66.934375 l
stroke
grestore
0 setlinecap
gsave
/o {
gsave
newpath
translate
0.5 setlinewidth
1 setlinejoin
0 setlinecap
0 0 m
6 0 l

gsave
0.000 setgray
fill
grestore
stroke
grestore
} bind def
248.649 66.9344 o
grestore
gsave
258.149000 62.371875 translate
0.000000 rotate
0.000000 0 m /nine glyphshow
7.634766 0 m /zero glyphshow
grestore
2 setlinecap
gsave
201.6 145.1 47.05 66.93 clipbox
47.049 91.114375 m
248.649 91.114375 l
stroke
grestore
0 setlinecap
gsave
/o {
gsave
newpath
translate
0.5 setlinewidth
1 setlinejoin
0 setlinecap
0 0 m
6 0 l

gsave
0.000 setgray
fill
grestore
stroke
grestore
} bind def
248.649 91.1144 o
grestore
gsave
258.149000 86.551875 translate
0.000000 rotate
0.000000 0 m /one glyphshow
7.634766 0 m /zero glyphshow
15.269531 0 m /zero glyphshow
grestore
2 setlinecap
gsave
201.6 145.1 47.05 66.93 clipbox
47.049 115.294375 m
248.649 115.294375 l
stroke
grestore
0 setlinecap
gsave
/o {
gsave
newpath
translate
0.5 setlinewidth
1 setlinejoin
0 setlinecap
0 0 m
6 0 l

gsave
0.000 setgray
fill
grestore
stroke
grestore
} bind def
248.649 115.294 o
grestore
gsave
258.149000 110.731875 translate
0.000000 rotate
0.000000 0 m /one glyphshow
7.634766 0 m /one glyphshow
15.269531 0 m /zero glyphshow
grestore
2 setlinecap
gsave
201.6 145.1 47.05 66.93 clipbox
47.049 139.474375 m
248.649 139.474375 l
stroke
grestore
0 setlinecap
gsave
/o {
gsave
newpath
translate
0.5 setlinewidth
1 setlinejoin
0 setlinecap
0 0 m
6 0 l

gsave
0.000 setgray
fill
grestore
stroke
grestore
} bind def
248.649 139.474 o
grestore
gsave
258.149000 134.911875 translate
0.000000 rotate
0.000000 0 m /one glyphshow
7.634766 0 m /two glyphshow
15.269531 0 m /zero glyphshow
grestore
2 setlinecap
gsave
201.6 145.1 47.05 66.93 clipbox
47.049 163.654375 m
248.649 163.654375 l
stroke
grestore
0 setlinecap
gsave
/o {
gsave
newpath
translate
0.5 setlinewidth
1 setlinejoin
0 setlinecap
0 0 m
6 0 l

gsave
0.000 setgray
fill
grestore
stroke
grestore
} bind def
248.649 163.654 o
grestore
gsave
258.149000 159.091875 translate
0.000000 rotate
0.000000 0 m /one glyphshow
7.634766 0 m /three glyphshow
15.269531 0 m /zero glyphshow
grestore
2 setlinecap
gsave
201.6 145.1 47.05 66.93 clipbox
47.049 187.834375 m
248.649 187.834375 l
stroke
grestore
0 setlinecap
gsave
/o {
gsave
newpath
translate
0.5 setlinewidth
1 setlinejoin
0 setlinecap
0 0 m
6 0 l

gsave
0.000 setgray
fill
grestore
stroke
grestore
} bind def
248.649 187.834 o
grestore
gsave
258.149000 183.271875 translate
0.000000 rotate
0.000000 0 m /one glyphshow
7.634766 0 m /four glyphshow
15.269531 0 m /zero glyphshow
grestore
2 setlinecap
gsave
201.6 145.1 47.05 66.93 clipbox
47.049 212.014375 m
248.649 212.014375 l
stroke
grestore
0 setlinecap
gsave
/o {
gsave
newpath
translate
0.5 setlinewidth
1 setlinejoin
0 setlinecap
0 0 m
6 0 l

gsave
0.000 setgray
fill
grestore
stroke
grestore
} bind def
248.649 212.014 o
grestore
gsave
258.149000 207.451875 translate
0.000000 rotate
0.000000 0 m /one glyphshow
7.634766 0 m /five glyphshow
15.269531 0 m /zero glyphshow
grestore
gsave
317.769 66.934375 m
519.369 66.934375 l
519.369 212.014375 l
317.769 212.014375 l
cl
1.000 setgray
fill
grestore
gsave
201.6 145.1 317.8 66.93 clipbox
319.785 -513.385625 m
327.849 -513.385625 l
327.849 117.237685 l
319.785 117.237685 l
cl
0.490 0.153 0.494 setrgbcolor
fill
grestore
gsave
201.6 145.1 317.8 66.93 clipbox
339.945 -513.385625 m
348.009 -513.385625 l
348.009 164.312123 l
339.945 164.312123 l
cl
0.490 0.153 0.494 setrgbcolor
fill
grestore
gsave
201.6 145.1 317.8 66.93 clipbox
360.105 -513.385625 m
368.169 -513.385625 l
368.169 94.302474 l
360.105 94.302474 l
cl
0.490 0.153 0.494 setrgbcolor
fill
grestore
gsave
201.6 145.1 317.8 66.93 clipbox
380.265 -513.385625 m
388.329 -513.385625 l
388.329 109.446021 l
380.265 109.446021 l
cl
0.490 0.153 0.494 setrgbcolor
fill
grestore
gsave
201.6 145.1 317.8 66.93 clipbox
400.425 -513.385625 m
408.489 -513.385625 l
408.489 131.676101 l
400.425 131.676101 l
cl
0.490 0.153 0.494 setrgbcolor
fill
grestore
gsave
201.6 145.1 317.8 66.93 clipbox
420.585 -513.385625 m
428.649 -513.385625 l
428.649 126.490307 l
420.585 126.490307 l
cl
0.490 0.153 0.494 setrgbcolor
fill
grestore
gsave
201.6 145.1 317.8 66.93 clipbox
440.745 -513.385625 m
448.809 -513.385625 l
448.809 147.972659 l
440.745 147.972659 l
cl
0.490 0.153 0.494 setrgbcolor
fill
grestore
gsave
201.6 145.1 317.8 66.93 clipbox
460.905 -513.385625 m
468.969 -513.385625 l
468.969 192.691685 l
460.905 192.691685 l
cl
0.490 0.153 0.494 setrgbcolor
fill
grestore
gsave
201.6 145.1 317.8 66.93 clipbox
481.065 -513.385625 m
489.129 -513.385625 l
489.129 123.74356 l
481.065 123.74356 l
cl
0.490 0.153 0.494 setrgbcolor
fill
grestore
gsave
201.6 145.1 317.8 66.93 clipbox
501.225 -513.385625 m
509.289 -513.385625 l
509.289 116.626627 l
501.225 116.626627 l
cl
0.490 0.153 0.494 setrgbcolor
fill
grestore
gsave
/o {
gsave
newpath
translate
0.5 setlinewidth
1 setlinejoin
0 setlinecap
0 0 m
0 -6 l

gsave
0.000 setgray
fill
grestore
stroke
grestore
} bind def
327.849 66.9344 o
grestore
gsave
324.536500 57.434375 translate
270.000000 rotate
0.000000 0 m /zero glyphshow
7.634766 0 m /eight glyphshow
15.269531 0 m /slash glyphshow
19.312500 0 m /zero glyphshow
26.947266 0 m /nine glyphshow
grestore
gsave
/o {
gsave
newpath
translate
0.5 setlinewidth
1 setlinejoin
0 setlinecap
0 0 m
0 -6 l

gsave
0.000 setgray
fill
grestore
stroke
grestore
} bind def
348.009 66.9344 o
grestore
gsave
344.696500 57.434375 translate
270.000000 rotate
0.000000 0 m /zero glyphshow
7.634766 0 m /nine glyphshow
15.269531 0 m /slash glyphshow
19.312500 0 m /one glyphshow
26.947266 0 m /zero glyphshow
grestore
gsave
/o {
gsave
newpath
translate
0.5 setlinewidth
1 setlinejoin
0 setlinecap
0 0 m
0 -6 l

gsave
0.000 setgray
fill
grestore
stroke
grestore
} bind def
368.169 66.9344 o
grestore
gsave
364.856500 57.434375 translate
270.000000 rotate
0.000000 0 m /one glyphshow
7.634766 0 m /zero glyphshow
15.269531 0 m /slash glyphshow
19.312500 0 m /one glyphshow
26.947266 0 m /one glyphshow
grestore
gsave
/o {
gsave
newpath
translate
0.5 setlinewidth
1 setlinejoin
0 setlinecap
0 0 m
0 -6 l

gsave
0.000 setgray
fill
grestore
stroke
grestore
} bind def
388.329 66.9344 o
grestore
gsave
385.016500 57.434375 translate
270.000000 rotate
0.000000 0 m /one glyphshow
7.634766 0 m /one glyphshow
15.269531 0 m /slash glyphshow
19.312500 0 m /one glyphshow
26.947266 0 m /two glyphshow
grestore
gsave
/o {
gsave
newpath
translate
0.5 setlinewidth
1 setlinejoin
0 setlinecap
0 0 m
0 -6 l

gsave
0.000 setgray
fill
grestore
stroke
grestore
} bind def
408.489 66.9344 o
grestore
gsave
405.176500 57.434375 translate
270.000000 rotate
0.000000 0 m /one glyphshow
7.634766 0 m /two glyphshow
15.269531 0 m /slash glyphshow
19.312500 0 m /one glyphshow
26.947266 0 m /three glyphshow
grestore
gsave
/o {
gsave
newpath
translate
0.5 setlinewidth
1 setlinejoin
0 setlinecap
0 0 m
0 -6 l

gsave
0.000 setgray
fill
grestore
stroke
grestore
} bind def
428.649 66.9344 o
grestore
gsave
425.336500 57.434375 translate
270.000000 rotate
0.000000 0 m /one glyphshow
7.634766 0 m /three glyphshow
15.269531 0 m /slash glyphshow
19.312500 0 m /one glyphshow
26.947266 0 m /four glyphshow
grestore
gsave
/o {
gsave
newpath
translate
0.5 setlinewidth
1 setlinejoin
0 setlinecap
0 0 m
0 -6 l

gsave
0.000 setgray
fill
grestore
stroke
grestore
} bind def
448.809 66.9344 o
grestore
gsave
445.496500 57.434375 translate
270.000000 rotate
0.000000 0 m /one glyphshow
7.634766 0 m /four glyphshow
15.269531 0 m /slash glyphshow
19.312500 0 m /one glyphshow
26.947266 0 m /five glyphshow
grestore
gsave
/o {
gsave
newpath
translate
0.5 setlinewidth
1 setlinejoin
0 setlinecap
0 0 m
0 -6 l

gsave
0.000 setgray
fill
grestore
stroke
grestore
} bind def
468.969 66.9344 o
grestore
gsave
465.656500 57.434375 translate
270.000000 rotate
0.000000 0 m /one glyphshow
7.634766 0 m /five glyphshow
15.269531 0 m /slash glyphshow
19.312500 0 m /one glyphshow
26.947266 0 m /six glyphshow
grestore
gsave
/o {
gsave
newpath
translate
0.5 setlinewidth
1 setlinejoin
0 setlinecap
0 0 m
0 -6 l

gsave
0.000 setgray
fill
grestore
stroke
grestore
} bind def
489.129 66.9344 o
grestore
gsave
485.816500 57.434375 translate
270.000000 rotate
0.000000 0 m /one glyphshow
7.634766 0 m /six glyphshow
15.269531 0 m /slash glyphshow
19.312500 0 m /one glyphshow
26.947266 0 m /seven glyphshow
grestore
gsave
/o {
gsave
newpath
translate
0.5 setlinewidth
1 setlinejoin
0 setlinecap
0 0 m
0 -6 l

gsave
0.000 setgray
fill
grestore
stroke
grestore
} bind def
509.289 66.9344 o
grestore
gsave
505.976500 57.434375 translate
270.000000 rotate
0.000000 0 m /one glyphshow
7.634766 0 m /seven glyphshow
15.269531 0 m /slash glyphshow
19.312500 0 m /one glyphshow
26.947266 0 m /eight glyphshow
grestore
gsave
405.873687 9.700000 translate
0.000000 rotate
0.000000 0 m /Y glyphshow
5.705078 0 m /e glyphshow
13.087891 0 m /a glyphshow
20.441406 0 m /r glyphshow
grestore
gsave
/o {
gsave
newpath
translate
0.5 setlinewidth
1 setlinejoin
0 setlinecap
-0 0 m
-6 0 l

gsave
0.000 setgray
fill
grestore
stroke
grestore
} bind def
317.769 66.9344 o
grestore
gsave
292.987750 62.371875 translate
0.000000 rotate
0.000000 0 m /two glyphshow
7.634766 0 m /four glyphshow
grestore
gsave
/o {
gsave
newpath
translate
0.5 setlinewidth
1 setlinejoin
0 setlinecap
-0 0 m
-6 0 l

gsave
0.000 setgray
fill
grestore
stroke
grestore
} bind def
317.769 91.1144 o
grestore
gsave
292.987750 86.551875 translate
0.000000 rotate
0.000000 0 m /two glyphshow
7.634766 0 m /five glyphshow
grestore
gsave
/o {
gsave
newpath
translate
0.5 setlinewidth
1 setlinejoin
0 setlinecap
-0 0 m
-6 0 l

gsave
0.000 setgray
fill
grestore
stroke
grestore
} bind def
317.769 115.294 o
grestore
gsave
292.987750 110.731875 translate
0.000000 rotate
0.000000 0 m /two glyphshow
7.634766 0 m /six glyphshow
grestore
gsave
/o {
gsave
newpath
translate
0.5 setlinewidth
1 setlinejoin
0 setlinecap
-0 0 m
-6 0 l

gsave
0.000 setgray
fill
grestore
stroke
grestore
} bind def
317.769 139.474 o
grestore
gsave
292.987750 134.911875 translate
0.000000 rotate
0.000000 0 m /two glyphshow
7.634766 0 m /seven glyphshow
grestore
gsave
/o {
gsave
newpath
translate
0.5 setlinewidth
1 setlinejoin
0 setlinecap
-0 0 m
-6 0 l

gsave
0.000 setgray
fill
grestore
stroke
grestore
} bind def
317.769 163.654 o
grestore
gsave
292.987750 159.091875 translate
0.000000 rotate
0.000000 0 m /two glyphshow
7.634766 0 m /eight glyphshow
grestore
gsave
/o {
gsave
newpath
translate
0.5 setlinewidth
1 setlinejoin
0 setlinecap
-0 0 m
-6 0 l

gsave
0.000 setgray
fill
grestore
stroke
grestore
} bind def
317.769 187.834 o
grestore
gsave
292.987750 183.271875 translate
0.000000 rotate
0.000000 0 m /two glyphshow
7.634766 0 m /nine glyphshow
grestore
gsave
/o {
gsave
newpath
translate
0.5 setlinewidth
1 setlinejoin
0 setlinecap
-0 0 m
-6 0 l

gsave
0.000 setgray
fill
grestore
stroke
grestore
} bind def
317.769 212.014 o
grestore
gsave
292.987750 207.451875 translate
0.000000 rotate
0.000000 0 m /three glyphshow
7.634766 0 m /zero glyphshow
grestore
0 setlinejoin
2 setlinecap
gsave
317.769 66.934375 m
317.769 212.014375 l
stroke
grestore
gsave
519.369 66.934375 m
519.369 212.014375 l
stroke
grestore
gsave
317.769 66.934375 m
519.369 66.934375 l
stroke
grestore
gsave
317.769 212.014375 m
519.369 212.014375 l
stroke
grestore
/DejaVuSans-Bold findfont
14.400 scalefont
setfont
gsave
291.561000 225.169975 translate
0.000000 rotate
0.000000 0 m /b glyphshow
grestore
/DejaVuSans findfont
12.000 scalefont
setfont
gsave
368.092437 218.014375 translate
0.000000 rotate
0.000000 0 m /O glyphshow
9.445312 0 m /c glyphshow
16.042969 0 m /e glyphshow
23.425781 0 m /a glyphshow
30.779297 0 m /n glyphshow
38.384766 0 m /space glyphshow
42.199219 0 m /parenleft glyphshow
46.880859 0 m /r glyphshow
51.814453 0 m /space glyphshow
55.628906 0 m /equal glyphshow
65.683594 0 m /space glyphshow
69.498047 0 m /zero glyphshow
77.132812 0 m /period glyphshow
80.947266 0 m /nine glyphshow
88.582031 0 m /two glyphshow
96.216797 0 m /parenright glyphshow
grestore
gsave
201.6 145.1 317.8 66.93 clipbox
327.849 -150.685625 m
335.913 -150.685625 l
335.913 155.6856 l
327.849 155.6856 l
cl
0.220 0.325 0.643 setrgbcolor
fill
grestore
gsave
201.6 145.1 317.8 66.93 clipbox
348.009 -150.685625 m
356.073 -150.685625 l
356.073 197.311639 l
348.009 197.311639 l
cl
0.220 0.325 0.643 setrgbcolor
fill
grestore
gsave
201.6 145.1 317.8 66.93 clipbox
368.169 -150.685625 m
376.233 -150.685625 l
376.233 82.108548 l
368.169 82.108548 l
cl
0.220 0.325 0.643 setrgbcolor
fill
grestore
gsave
201.6 145.1 317.8 66.93 clipbox
388.329 -150.685625 m
396.393 -150.685625 l
396.393 100.65493 l
388.329 100.65493 l
cl
0.220 0.325 0.643 setrgbcolor
fill
grestore
gsave
201.6 145.1 317.8 66.93 clipbox
408.489 -150.685625 m
416.553 -150.685625 l
416.553 145.051569 l
408.489 145.051569 l
cl
0.220 0.325 0.643 setrgbcolor
fill
grestore
gsave
201.6 145.1 317.8 66.93 clipbox
428.649 -150.685625 m
436.713 -150.685625 l
436.713 144.09795 l
428.649 144.09795 l
cl
0.220 0.325 0.643 setrgbcolor
fill
grestore
gsave
201.6 145.1 317.8 66.93 clipbox
448.809 -150.685625 m
456.873 -150.685625 l
456.873 171.842661 l
448.809 171.842661 l
cl
0.220 0.325 0.643 setrgbcolor
fill
grestore
gsave
201.6 145.1 317.8 66.93 clipbox
468.969 -150.685625 m
477.033 -150.685625 l
477.033 201.246839 l
468.969 201.246839 l
cl
0.220 0.325 0.643 setrgbcolor
fill
grestore
gsave
201.6 145.1 317.8 66.93 clipbox
489.129 -150.685625 m
497.193 -150.685625 l
497.193 137.455554 l
489.129 137.455554 l
cl
0.220 0.325 0.643 setrgbcolor
fill
grestore
gsave
201.6 145.1 317.8 66.93 clipbox
509.289 -150.685625 m
517.353 -150.685625 l
517.353 133.729139 l
509.289 133.729139 l
cl
0.220 0.325 0.643 setrgbcolor
fill
grestore
1 setlinejoin
gsave
201.6 145.1 317.8 66.93 clipbox
317.769 66.934375 m
519.369 66.934375 l
stroke
grestore
0 setlinecap
gsave
/o {
gsave
newpath
translate
0.5 setlinewidth
1 setlinejoin
0 setlinecap
0 0 m
6 0 l

gsave
0.000 setgray
fill
grestore
stroke
grestore
} bind def
519.369 66.9344 o
grestore
gsave
528.869000 62.371875 translate
0.000000 rotate
0.000000 0 m /nine glyphshow
7.634766 0 m /zero glyphshow
grestore
2 setlinecap
gsave
201.6 145.1 317.8 66.93 clipbox
317.769 91.114375 m
519.369 91.114375 l
stroke
grestore
0 setlinecap
gsave
/o {
gsave
newpath
translate
0.5 setlinewidth
1 setlinejoin
0 setlinecap
0 0 m
6 0 l

gsave
0.000 setgray
fill
grestore
stroke
grestore
} bind def
519.369 91.1144 o
grestore
gsave
528.869000 86.551875 translate
0.000000 rotate
0.000000 0 m /one glyphshow
7.634766 0 m /zero glyphshow
15.269531 0 m /zero glyphshow
grestore
2 setlinecap
gsave
201.6 145.1 317.8 66.93 clipbox
317.769 115.294375 m
519.369 115.294375 l
stroke
grestore
0 setlinecap
gsave
/o {
gsave
newpath
translate
0.5 setlinewidth
1 setlinejoin
0 setlinecap
0 0 m
6 0 l

gsave
0.000 setgray
fill
grestore
stroke
grestore
} bind def
519.369 115.294 o
grestore
gsave
528.869000 110.731875 translate
0.000000 rotate
0.000000 0 m /one glyphshow
7.634766 0 m /one glyphshow
15.269531 0 m /zero glyphshow
grestore
2 setlinecap
gsave
201.6 145.1 317.8 66.93 clipbox
317.769 139.474375 m
519.369 139.474375 l
stroke
grestore
0 setlinecap
gsave
/o {
gsave
newpath
translate
0.5 setlinewidth
1 setlinejoin
0 setlinecap
0 0 m
6 0 l

gsave
0.000 setgray
fill
grestore
stroke
grestore
} bind def
519.369 139.474 o
grestore
gsave
528.869000 134.911875 translate
0.000000 rotate
0.000000 0 m /one glyphshow
7.634766 0 m /two glyphshow
15.269531 0 m /zero glyphshow
grestore
2 setlinecap
gsave
201.6 145.1 317.8 66.93 clipbox
317.769 163.654375 m
519.369 163.654375 l
stroke
grestore
0 setlinecap
gsave
/o {
gsave
newpath
translate
0.5 setlinewidth
1 setlinejoin
0 setlinecap
0 0 m
6 0 l

gsave
0.000 setgray
fill
grestore
stroke
grestore
} bind def
519.369 163.654 o
grestore
gsave
528.869000 159.091875 translate
0.000000 rotate
0.000000 0 m /one glyphshow
7.634766 0 m /three glyphshow
15.269531 0 m /zero glyphshow
grestore
2 setlinecap
gsave
201.6 145.1 317.8 66.93 clipbox
317.769 187.834375 m
519.369 187.834375 l
stroke
grestore
0 setlinecap
gsave
/o {
gsave
newpath
translate
0.5 setlinewidth
1 setlinejoin
0 setlinecap
0 0 m
6 0 l

gsave
0.000 setgray
fill
grestore
stroke
grestore
} bind def
519.369 187.834 o
grestore
gsave
528.869000 183.271875 translate
0.000000 rotate
0.000000 0 m /one glyphshow
7.634766 0 m /four glyphshow
15.269531 0 m /zero glyphshow
grestore
2 setlinecap
gsave
201.6 145.1 317.8 66.93 clipbox
317.769 212.014375 m
519.369 212.014375 l
stroke
grestore
0 setlinecap
gsave
/o {
gsave
newpath
translate
0.5 setlinewidth
1 setlinejoin
0 setlinecap
0 0 m
6 0 l

gsave
0.000 setgray
fill
grestore
stroke
grestore
} bind def
519.369 212.014 o
grestore
gsave
528.869000 207.451875 translate
0.000000 rotate
0.000000 0 m /one glyphshow
7.634766 0 m /five glyphshow
15.269531 0 m /zero glyphshow
grestore
gsave
588.489 66.934375 m
790.089 66.934375 l
790.089 212.014375 l
588.489 212.014375 l
cl
1.000 setgray
fill
grestore
gsave
201.6 145.1 588.5 66.93 clipbox
590.505 -513.385625 m
598.569 -513.385625 l
598.569 117.237685 l
590.505 117.237685 l
cl
0.490 0.153 0.494 setrgbcolor
fill
grestore
gsave
201.6 145.1 588.5 66.93 clipbox
610.665 -513.385625 m
618.729 -513.385625 l
618.729 164.312123 l
610.665 164.312123 l
cl
0.490 0.153 0.494 setrgbcolor
fill
grestore
gsave
201.6 145.1 588.5 66.93 clipbox
630.825 -513.385625 m
638.889 -513.385625 l
638.889 94.302474 l
630.825 94.302474 l
cl
0.490 0.153 0.494 setrgbcolor
fill
grestore
gsave
201.6 145.1 588.5 66.93 clipbox
650.985 -513.385625 m
659.049 -513.385625 l
659.049 109.446021 l
650.985 109.446021 l
cl
0.490 0.153 0.494 setrgbcolor
fill
grestore
gsave
201.6 145.1 588.5 66.93 clipbox
671.145 -513.385625 m
679.209 -513.385625 l
679.209 131.676101 l
671.145 131.676101 l
cl
0.490 0.153 0.494 setrgbcolor
fill
grestore
gsave
201.6 145.1 588.5 66.93 clipbox
691.305 -513.385625 m
699.369 -513.385625 l
699.369 126.490307 l
691.305 126.490307 l
cl
0.490 0.153 0.494 setrgbcolor
fill
grestore
gsave
201.6 145.1 588.5 66.93 clipbox
711.465 -513.385625 m
719.529 -513.385625 l
719.529 147.972659 l
711.465 147.972659 l
cl
0.490 0.153 0.494 setrgbcolor
fill
grestore
gsave
201.6 145.1 588.5 66.93 clipbox
731.625 -513.385625 m
739.689 -513.385625 l
739.689 192.691685 l
731.625 192.691685 l
cl
0.490 0.153 0.494 setrgbcolor
fill
grestore
gsave
201.6 145.1 588.5 66.93 clipbox
751.785 -513.385625 m
759.849 -513.385625 l
759.849 123.74356 l
751.785 123.74356 l
cl
0.490 0.153 0.494 setrgbcolor
fill
grestore
gsave
201.6 145.1 588.5 66.93 clipbox
771.945 -513.385625 m
780.009 -513.385625 l
780.009 116.626627 l
771.945 116.626627 l
cl
0.490 0.153 0.494 setrgbcolor
fill
grestore
gsave
/o {
gsave
newpath
translate
0.5 setlinewidth
1 setlinejoin
0 setlinecap
0 0 m
0 -6 l

gsave
0.000 setgray
fill
grestore
stroke
grestore
} bind def
598.569 66.9344 o
grestore
gsave
595.256500 57.434375 translate
270.000000 rotate
0.000000 0 m /zero glyphshow
7.634766 0 m /eight glyphshow
15.269531 0 m /slash glyphshow
19.312500 0 m /zero glyphshow
26.947266 0 m /nine glyphshow
grestore
gsave
/o {
gsave
newpath
translate
0.5 setlinewidth
1 setlinejoin
0 setlinecap
0 0 m
0 -6 l

gsave
0.000 setgray
fill
grestore
stroke
grestore
} bind def
618.729 66.9344 o
grestore
gsave
615.416500 57.434375 translate
270.000000 rotate
0.000000 0 m /zero glyphshow
7.634766 0 m /nine glyphshow
15.269531 0 m /slash glyphshow
19.312500 0 m /one glyphshow
26.947266 0 m /zero glyphshow
grestore
gsave
/o {
gsave
newpath
translate
0.5 setlinewidth
1 setlinejoin
0 setlinecap
0 0 m
0 -6 l

gsave
0.000 setgray
fill
grestore
stroke
grestore
} bind def
638.889 66.9344 o
grestore
gsave
635.576500 57.434375 translate
270.000000 rotate
0.000000 0 m /one glyphshow
7.634766 0 m /zero glyphshow
15.269531 0 m /slash glyphshow
19.312500 0 m /one glyphshow
26.947266 0 m /one glyphshow
grestore
gsave
/o {
gsave
newpath
translate
0.5 setlinewidth
1 setlinejoin
0 setlinecap
0 0 m
0 -6 l

gsave
0.000 setgray
fill
grestore
stroke
grestore
} bind def
659.049 66.9344 o
grestore
gsave
655.736500 57.434375 translate
270.000000 rotate
0.000000 0 m /one glyphshow
7.634766 0 m /one glyphshow
15.269531 0 m /slash glyphshow
19.312500 0 m /one glyphshow
26.947266 0 m /two glyphshow
grestore
gsave
/o {
gsave
newpath
translate
0.5 setlinewidth
1 setlinejoin
0 setlinecap
0 0 m
0 -6 l

gsave
0.000 setgray
fill
grestore
stroke
grestore
} bind def
679.209 66.9344 o
grestore
gsave
675.896500 57.434375 translate
270.000000 rotate
0.000000 0 m /one glyphshow
7.634766 0 m /two glyphshow
15.269531 0 m /slash glyphshow
19.312500 0 m /one glyphshow
26.947266 0 m /three glyphshow
grestore
gsave
/o {
gsave
newpath
translate
0.5 setlinewidth
1 setlinejoin
0 setlinecap
0 0 m
0 -6 l

gsave
0.000 setgray
fill
grestore
stroke
grestore
} bind def
699.369 66.9344 o
grestore
gsave
696.056500 57.434375 translate
270.000000 rotate
0.000000 0 m /one glyphshow
7.634766 0 m /three glyphshow
15.269531 0 m /slash glyphshow
19.312500 0 m /one glyphshow
26.947266 0 m /four glyphshow
grestore
gsave
/o {
gsave
newpath
translate
0.5 setlinewidth
1 setlinejoin
0 setlinecap
0 0 m
0 -6 l

gsave
0.000 setgray
fill
grestore
stroke
grestore
} bind def
719.529 66.9344 o
grestore
gsave
716.216500 57.434375 translate
270.000000 rotate
0.000000 0 m /one glyphshow
7.634766 0 m /four glyphshow
15.269531 0 m /slash glyphshow
19.312500 0 m /one glyphshow
26.947266 0 m /five glyphshow
grestore
gsave
/o {
gsave
newpath
translate
0.5 setlinewidth
1 setlinejoin
0 setlinecap
0 0 m
0 -6 l

gsave
0.000 setgray
fill
grestore
stroke
grestore
} bind def
739.689 66.9344 o
grestore
gsave
736.376500 57.434375 translate
270.000000 rotate
0.000000 0 m /one glyphshow
7.634766 0 m /five glyphshow
15.269531 0 m /slash glyphshow
19.312500 0 m /one glyphshow
26.947266 0 m /six glyphshow
grestore
gsave
/o {
gsave
newpath
translate
0.5 setlinewidth
1 setlinejoin
0 setlinecap
0 0 m
0 -6 l

gsave
0.000 setgray
fill
grestore
stroke
grestore
} bind def
759.849 66.9344 o
grestore
gsave
756.536500 57.434375 translate
270.000000 rotate
0.000000 0 m /one glyphshow
7.634766 0 m /six glyphshow
15.269531 0 m /slash glyphshow
19.312500 0 m /one glyphshow
26.947266 0 m /seven glyphshow
grestore
gsave
/o {
gsave
newpath
translate
0.5 setlinewidth
1 setlinejoin
0 setlinecap
0 0 m
0 -6 l

gsave
0.000 setgray
fill
grestore
stroke
grestore
} bind def
780.009 66.9344 o
grestore
gsave
776.696500 57.434375 translate
270.000000 rotate
0.000000 0 m /one glyphshow
7.634766 0 m /seven glyphshow
15.269531 0 m /slash glyphshow
19.312500 0 m /one glyphshow
26.947266 0 m /eight glyphshow
grestore
gsave
676.593687 9.700000 translate
0.000000 rotate
0.000000 0 m /Y glyphshow
5.705078 0 m /e glyphshow
13.087891 0 m /a glyphshow
20.441406 0 m /r glyphshow
grestore
gsave
/o {
gsave
newpath
translate
0.5 setlinewidth
1 setlinejoin
0 setlinecap
-0 0 m
-6 0 l

gsave
0.000 setgray
fill
grestore
stroke
grestore
} bind def
588.489 66.9344 o
grestore
gsave
563.707750 62.371875 translate
0.000000 rotate
0.000000 0 m /two glyphshow
7.634766 0 m /four glyphshow
grestore
gsave
/o {
gsave
newpath
translate
0.5 setlinewidth
1 setlinejoin
0 setlinecap
-0 0 m
-6 0 l

gsave
0.000 setgray
fill
grestore
stroke
grestore
} bind def
588.489 91.1144 o
grestore
gsave
563.707750 86.551875 translate
0.000000 rotate
0.000000 0 m /two glyphshow
7.634766 0 m /five glyphshow
grestore
gsave
/o {
gsave
newpath
translate
0.5 setlinewidth
1 setlinejoin
0 setlinecap
-0 0 m
-6 0 l

gsave
0.000 setgray
fill
grestore
stroke
grestore
} bind def
588.489 115.294 o
grestore
gsave
563.707750 110.731875 translate
0.000000 rotate
0.000000 0 m /two glyphshow
7.634766 0 m /six glyphshow
grestore
gsave
/o {
gsave
newpath
translate
0.5 setlinewidth
1 setlinejoin
0 setlinecap
-0 0 m
-6 0 l

gsave
0.000 setgray
fill
grestore
stroke
grestore
} bind def
588.489 139.474 o
grestore
gsave
563.707750 134.911875 translate
0.000000 rotate
0.000000 0 m /two glyphshow
7.634766 0 m /seven glyphshow
grestore
gsave
/o {
gsave
newpath
translate
0.5 setlinewidth
1 setlinejoin
0 setlinecap
-0 0 m
-6 0 l

gsave
0.000 setgray
fill
grestore
stroke
grestore
} bind def
588.489 163.654 o
grestore
gsave
563.707750 159.091875 translate
0.000000 rotate
0.000000 0 m /two glyphshow
7.634766 0 m /eight glyphshow
grestore
gsave
/o {
gsave
newpath
translate
0.5 setlinewidth
1 setlinejoin
0 setlinecap
-0 0 m
-6 0 l

gsave
0.000 setgray
fill
grestore
stroke
grestore
} bind def
588.489 187.834 o
grestore
gsave
563.707750 183.271875 translate
0.000000 rotate
0.000000 0 m /two glyphshow
7.634766 0 m /nine glyphshow
grestore
gsave
/o {
gsave
newpath
translate
0.5 setlinewidth
1 setlinejoin
0 setlinecap
-0 0 m
-6 0 l

gsave
0.000 setgray
fill
grestore
stroke
grestore
} bind def
588.489 212.014 o
grestore
gsave
563.707750 207.451875 translate
0.000000 rotate
0.000000 0 m /three glyphshow
7.634766 0 m /zero glyphshow
grestore
0 setlinejoin
2 setlinecap
gsave
588.489 66.934375 m
588.489 212.014375 l
stroke
grestore
gsave
790.089 66.934375 m
790.089 212.014375 l
stroke
grestore
gsave
588.489 66.934375 m
790.089 66.934375 l
stroke
grestore
gsave
588.489 212.014375 m
790.089 212.014375 l
stroke
grestore
/DejaVuSans-Bold findfont
14.400 scalefont
setfont
gsave
562.281000 225.169975 translate
0.000000 rotate
0.000000 0 m /c glyphshow
grestore
/DejaVuSans findfont
12.000 scalefont
setfont
gsave
632.585875 218.014375 translate
0.000000 rotate
0.000000 0 m /A glyphshow
8.208984 0 m /l glyphshow
11.542969 0 m /l glyphshow
14.876953 0 m /space glyphshow
18.691406 0 m /E glyphshow
26.273438 0 m /a glyphshow
33.626953 0 m /r glyphshow
38.560547 0 m /t glyphshow
43.265625 0 m /h glyphshow
50.871094 0 m /space glyphshow
54.685547 0 m /parenleft glyphshow
59.367188 0 m /r glyphshow
64.300781 0 m /space glyphshow
68.115234 0 m /equal glyphshow
78.169922 0 m /space glyphshow
81.984375 0 m /zero glyphshow
89.619141 0 m /period glyphshow
93.433594 0 m /four glyphshow
101.068359 0 m /nine glyphshow
108.703125 0 m /parenright glyphshow
grestore
gsave
201.6 145.1 588.5 66.93 clipbox
598.569 -440.845625 m
606.633 -440.845625 l
606.633 186.727657 l
598.569 186.727657 l
cl
0.220 0.325 0.643 setrgbcolor
fill
grestore
gsave
201.6 145.1 588.5 66.93 clipbox
618.729 -440.845625 m
626.793 -440.845625 l
626.793 181.761951 l
618.729 181.761951 l
cl
0.220 0.325 0.643 setrgbcolor
fill
grestore
gsave
201.6 145.1 588.5 66.93 clipbox
638.889 -440.845625 m
646.953 -440.845625 l
646.953 98.294523 l
638.889 98.294523 l
cl
0.220 0.325 0.643 setrgbcolor
fill
grestore
gsave
201.6 145.1 588.5 66.93 clipbox
659.049 -440.845625 m
667.113 -440.845625 l
667.113 91.343309 l
659.049 91.343309 l
cl
0.220 0.325 0.643 setrgbcolor
fill
grestore
gsave
201.6 145.1 588.5 66.93 clipbox
679.209 -440.845625 m
687.273 -440.845625 l
687.273 131.11633 l
679.209 131.11633 l
cl
0.220 0.325 0.643 setrgbcolor
fill
grestore
gsave
201.6 145.1 588.5 66.93 clipbox
699.369 -440.845625 m
707.433 -440.845625 l
707.433 141.033564 l
699.369 141.033564 l
cl
0.220 0.325 0.643 setrgbcolor
fill
grestore
gsave
201.6 145.1 588.5 66.93 clipbox
719.529 -440.845625 m
727.593 -440.845625 l
727.593 147.057086 l
719.529 147.057086 l
cl
0.220 0.325 0.643 setrgbcolor
fill
grestore
gsave
201.6 145.1 588.5 66.93 clipbox
739.689 -440.845625 m
747.753 -440.845625 l
747.753 144.058139 l
739.689 144.058139 l
cl
0.220 0.325 0.643 setrgbcolor
fill
grestore
gsave
201.6 145.1 588.5 66.93 clipbox
759.849 -440.845625 m
767.913 -440.845625 l
767.913 145.01194 l
759.849 145.01194 l
cl
0.220 0.325 0.643 setrgbcolor
fill
grestore
gsave
201.6 145.1 588.5 66.93 clipbox
780.009 -440.845625 m
788.073 -440.845625 l
788.073 127.697845 l
780.009 127.697845 l
cl
0.220 0.325 0.643 setrgbcolor
fill
grestore
1 setlinejoin
gsave
201.6 145.1 588.5 66.93 clipbox
588.489 66.934375 m
790.089 66.934375 l
stroke
grestore
0 setlinecap
gsave
/o {
gsave
newpath
translate
0.5 setlinewidth
1 setlinejoin
0 setlinecap
0 0 m
6 0 l

gsave
0.000 setgray
fill
grestore
stroke
grestore
} bind def
790.089 66.9344 o
grestore
gsave
799.589000 62.371875 translate
0.000000 rotate
0.000000 0 m /two glyphshow
7.634766 0 m /one glyphshow
15.269531 0 m /zero glyphshow
grestore
2 setlinecap
gsave
201.6 145.1 588.5 66.93 clipbox
588.489 91.114375 m
790.089 91.114375 l
stroke
grestore
0 setlinecap
gsave
/o {
gsave
newpath
translate
0.5 setlinewidth
1 setlinejoin
0 setlinecap
0 0 m
6 0 l

gsave
0.000 setgray
fill
grestore
stroke
grestore
} bind def
790.089 91.1144 o
grestore
gsave
799.589000 86.551875 translate
0.000000 rotate
0.000000 0 m /two glyphshow
7.634766 0 m /two glyphshow
15.269531 0 m /zero glyphshow
grestore
2 setlinecap
gsave
201.6 145.1 588.5 66.93 clipbox
588.489 115.294375 m
790.089 115.294375 l
stroke
grestore
0 setlinecap
gsave
/o {
gsave
newpath
translate
0.5 setlinewidth
1 setlinejoin
0 setlinecap
0 0 m
6 0 l

gsave
0.000 setgray
fill
grestore
stroke
grestore
} bind def
790.089 115.294 o
grestore
gsave
799.589000 110.731875 translate
0.000000 rotate
0.000000 0 m /two glyphshow
7.634766 0 m /three glyphshow
15.269531 0 m /zero glyphshow
grestore
2 setlinecap
gsave
201.6 145.1 588.5 66.93 clipbox
588.489 139.474375 m
790.089 139.474375 l
stroke
grestore
0 setlinecap
gsave
/o {
gsave
newpath
translate
0.5 setlinewidth
1 setlinejoin
0 setlinecap
0 0 m
6 0 l

gsave
0.000 setgray
fill
grestore
stroke
grestore
} bind def
790.089 139.474 o
grestore
gsave
799.589000 134.911875 translate
0.000000 rotate
0.000000 0 m /two glyphshow
7.634766 0 m /four glyphshow
15.269531 0 m /zero glyphshow
grestore
2 setlinecap
gsave
201.6 145.1 588.5 66.93 clipbox
588.489 163.654375 m
790.089 163.654375 l
stroke
grestore
0 setlinecap
gsave
/o {
gsave
newpath
translate
0.5 setlinewidth
1 setlinejoin
0 setlinecap
0 0 m
6 0 l

gsave
0.000 setgray
fill
grestore
stroke
grestore
} bind def
790.089 163.654 o
grestore
gsave
799.589000 159.091875 translate
0.000000 rotate
0.000000 0 m /two glyphshow
7.634766 0 m /five glyphshow
15.269531 0 m /zero glyphshow
grestore
2 setlinecap
gsave
201.6 145.1 588.5 66.93 clipbox
588.489 187.834375 m
790.089 187.834375 l
stroke
grestore
0 setlinecap
gsave
/o {
gsave
newpath
translate
0.5 setlinewidth
1 setlinejoin
0 setlinecap
0 0 m
6 0 l

gsave
0.000 setgray
fill
grestore
stroke
grestore
} bind def
790.089 187.834 o
grestore
gsave
799.589000 183.271875 translate
0.000000 rotate
0.000000 0 m /two glyphshow
7.634766 0 m /six glyphshow
15.269531 0 m /zero glyphshow
grestore
2 setlinecap
gsave
201.6 145.1 588.5 66.93 clipbox
588.489 212.014375 m
790.089 212.014375 l
stroke
grestore
0 setlinecap
gsave
/o {
gsave
newpath
translate
0.5 setlinewidth
1 setlinejoin
0 setlinecap
0 0 m
6 0 l

gsave
0.000 setgray
fill
grestore
stroke
grestore
} bind def
790.089 212.014 o
grestore
gsave
799.589000 207.451875 translate
0.000000 rotate
0.000000 0 m /two glyphshow
7.634766 0 m /seven glyphshow
15.269531 0 m /zero glyphshow
grestore
0.220 0.325 0.643 setrgbcolor
gsave
828.877000 226.927500 translate
270.000000 rotate
0.000000 0 m /I glyphshow
3.539062 0 m /o glyphshow
10.880859 0 m /n glyphshow
18.486328 0 m /period glyphshow
22.300781 0 m /space glyphshow
26.115234 0 m /p glyphshow
33.732422 0 m /o glyphshow
41.074219 0 m /t glyphshow
45.779297 0 m /e glyphshow
53.162109 0 m /n glyphshow
60.767578 0 m /t glyphshow
65.472656 0 m /i glyphshow
68.806641 0 m /a glyphshow
76.160156 0 m /l glyphshow
79.494141 0 m /space glyphshow
83.308594 0 m /i glyphshow
86.642578 0 m /n glyphshow
94.248047 0 m /space glyphshow
98.062500 0 m /O glyphshow
107.507812 0 m /c glyphshow
114.105469 0 m /t glyphshow
118.810547 0 m /emdash glyphshow
130.810547 0 m /F glyphshow
137.087891 0 m /e glyphshow
144.470703 0 m /b glyphshow
152.087891 0 m /comma glyphshow
155.902344 0 m /space glyphshow
159.716797 0 m /k glyphshow
166.666016 0 m /V glyphshow
grestore

end
showpage
